{
    "name": "Allied-occupied territory, 1945",
    "start": {
        "mapIndex": 0,
        "x": 11,
        "y": 8
    },
    "maps": [
        "prologue/friendly_base.json"
    ],
    "quests": {
        "main": "Prologue",
        "exit_the_base": "Exit the Base"
    },
    "dialogs": "prologue"
}