{ "height":20,
 "layers":[
        {
         "data":[290, 290, 290, 290, 290, 290, 290, 290, 290, 290, 290, 290, 290, 290, 290, 290, 290, 290, 290, 290, 290, 290, 290, 290, 1025, 290, 290, 290, 290, 290, 290, 290, 290, 290, 290, 290, 290, 290, 290, 290, 0, 0, 0, 0, 1025, 290, 290, 290, 290, 290, 290, 290, 290, 290, 290, 290, 290, 290, 290, 290, 290, 290, 290, 290, 290, 290, 290, 290, 290, 290, 290, 290, 290, 290, 290, 290, 290, 290, 290, 290, 290, 290, 290, 290, 290, 290, 290, 290, 290, 290, 290, 290, 290, 290, 290, 290, 290, 290, 290, 290, 290, 290, 290, 290, 290, 290, 290, 290, 290, 290, 290, 290, 290, 290, 290, 290, 290, 290, 290, 290, 290, 290, 290, 290, 290, 290, 993, 290, 290, 290, 290, 290, 290, 290, 290, 290, 290, 290, 290, 290, 290, 290, 290, 290, 290, 290, 290, 290, 290, 290, 290, 290, 290, 290, 290, 290, 290, 290, 290, 290, 290, 290, 290, 290, 290, 290, 290, 290, 290, 290, 290, 290, 290, 290, 290, 290, 290, 290, 290, 290, 290, 290, 290, 290, 290, 290, 290, 290, 290, 290, 290, 290, 290, 290, 290, 290, 290, 290, 290, 290, 290, 290, 290, 290, 290, 290, 290, 290, 290, 290, 290, 290, 290, 290, 290, 290, 290, 290, 290, 290, 290, 290, 290, 290, 290, 290, 290, 290, 290, 290, 290, 290, 290, 290, 290, 290, 290, 290, 290, 290, 290, 290, 290, 290, 290, 290, 290, 290, 290, 290, 290, 290, 290, 290, 290, 290, 290, 290, 290, 290, 290, 290, 290, 290, 290, 290, 290, 290, 290, 290, 290, 290, 290, 290, 290, 290, 290, 290, 290, 290, 290, 290, 290, 290, 290, 290, 290, 290, 290, 290, 290, 290, 290, 290, 290, 290, 290, 290, 290, 290, 290, 290, 290, 290, 290, 290, 290, 290, 290, 290, 290, 290, 290, 290, 290, 290, 1025, 290, 290, 290, 290, 290, 290, 290, 290, 290, 290, 290, 290, 290, 290, 290, 290, 290, 290, 290, 290, 290, 290, 290, 290, 290, 290, 290, 290, 290, 290, 290, 290, 290, 290, 290, 290, 290, 290, 290, 290, 290, 290, 290, 290, 290, 290, 290, 290, 290, 290, 290, 290, 290, 290, 290, 290, 290, 290, 290, 290, 290, 290, 290, 290, 290, 290, 290, 290, 290, 290, 290, 290, 290, 290, 290, 290, 1025, 290, 290, 290, 290, 290, 290, 290, 290, 290, 290, 290, 290, 290, 290, 290, 290, 290, 290, 290, 290, 290, 290, 290, 290, 290, 290, 290, 290, 290, 290, 290, 290, 290, 290, 290, 290, 290, 290, 290, 290, 290, 290, 290, 290, 290, 290, 290, 290, 290, 290, 290, 290, 290, 290, 290, 290, 290, 290, 290, 290, 290, 290, 290, 290, 290, 290],
         "height":20,
         "name":"floor",
         "opacity":1,
         "type":"tilelayer",
         "visible":true,
         "width":23,
         "x":0,
         "y":0
        }, 
        {
         "data":[412, 610, 610, 610, 610, 610, 610, 610, 610, 610, 610, 610, 610, 610, 610, 610, 610, 610, 610, 610, 610, 610, 410, 412, 0, 618, 618, 618, 618, 618, 618, 618, 618, 593, 594, 595, 618, 618, 618, 618, 618, 618, 618, 618, 0, 410, 412, 0, 0, 0, 0, 0, 0, 0, 0, 0, 601, 602, 603, 0, 0, 0, 0, 0, 0, 0, 0, 0, 410, 412, 0, 593, 594, 595, 0, 593, 594, 595, 0, 609, 610, 611, 0, 593, 594, 595, 0, 593, 594, 595, 0, 410, 412, 0, 601, 602, 603, 0, 601, 602, 603, 0, 617, 618, 619, 0, 601, 602, 603, 0, 601, 602, 603, 0, 410, 412, 0, 609, 610, 611, 0, 609, 610, 611, 0, 0, 0, 0, 0, 609, 610, 611, 0, 609, 610, 611, 0, 410, 412, 0, 617, 618, 619, 0, 617, 618, 619, 0, 593, 594, 595, 0, 617, 618, 619, 0, 617, 618, 619, 0, 410, 412, 0, 0, 0, 0, 0, 0, 0, 0, 0, 593, 594, 595, 0, 0, 0, 0, 0, 0, 0, 0, 0, 410, 412, 602, 602, 602, 602, 602, 602, 602, 602, 602, 593, 594, 594, 594, 594, 594, 594, 594, 595, 602, 602, 0, 410, 412, 610, 610, 610, 610, 610, 610, 610, 610, 610, 593, 594, 594, 594, 594, 594, 594, 594, 595, 610, 611, 0, 410, 412, 618, 618, 618, 618, 593, 594, 595, 618, 618, 601, 602, 602, 602, 602, 602, 594, 594, 595, 618, 619, 0, 410, 412, 0, 0, 0, 0, 601, 602, 603, 0, 0, 609, 610, 610, 610, 610, 610, 601, 602, 603, 0, 0, 0, 410, 412, 0, 0, 0, 0, 609, 610, 611, 0, 0, 617, 618, 1041, 618, 618, 618, 609, 610, 611, 0, 0, 0, 410, 412, 1013, 996, 0, 0, 617, 618, 619, 0, 0, 0, 0, 0, 0, 0, 0, 617, 0, 593, 594, 595, 0, 410, 412, 593, 594, 595, 0, 0, 0, 0, 0, 593, 594, 595, 0, 0, 0, 0, 0, 0, 601, 602, 603, 0, 410, 412, 601, 602, 602, 0, 594, 595, 0, 0, 601, 602, 603, 0, 0, 0, 0, 0, 0, 609, 610, 611, 0, 410, 412, 609, 610, 611, 0, 601, 603, 0, 0, 609, 610, 611, 0, 593, 594, 595, 0, 0, 617, 618, 619, 0, 410, 412, 617, 0, 619, 0, 609, 611, 0, 0, 617, 618, 619, 0, 601, 602, 603, 0, 0, 0, 0, 0, 0, 410, 473, 0, 0, 0, 0, 609, 611, 0, 0, 0, 0, 0, 0, 609, 610, 611, 0, 0, 0, 0, 0, 0, 476, 505, 506, 379, 379, 379, 379, 379, 379, 379, 379, 379, 0, 379, 379, 379, 379, 379, 379, 379, 379, 379, 507, 508],
         "height":20,
         "name":"walls",
         "opacity":1,
         "type":"tilelayer",
         "visible":true,
         "width":23,
         "x":0,
         "y":0
        }, 
        {
         "data":[0, 1009, 0, 0, 0, 0, 0, 0, 0, 0, 0, 0, 0, 0, 0, 0, 0, 0, 0, 0, 0, 1009, 0, 0, 0, 0, 0, 0, 0, 0, 0, 0, 0, 0, 0, 0, 0, 0, 0, 0, 0, 0, 0, 0, 0, 0, 0, 0, 0, 0, 0, 0, 0, 0, 0, 0, 0, 0, 0, 0, 0, 0, 0, 0, 0, 0, 0, 0, 0, 0, 0, 0, 0, 0, 0, 0, 0, 0, 0, 0, 495, 0, 0, 0, 0, 0, 0, 0, 0, 0, 0, 0, 0, 0, 0, 0, 0, 0, 0, 0, 0, 0, 0, 0, 0, 0, 0, 0, 0, 0, 0, 0, 0, 0, 0, 0, 0, 0, 0, 0, 0, 0, 0, 0, 0, 0, 0, 0, 0, 0, 0, 0, 0, 0, 0, 0, 0, 0, 0, 0, 0, 0, 0, 0, 0, 0, 0, 0, 0, 0, 0, 0, 0, 0, 0, 0, 0, 0, 0, 0, 0, 0, 0, 0, 0, 0, 0, 0, 0, 0, 0, 0, 0, 0, 0, 0, 0, 0, 0, 0, 0, 0, 0, 0, 0, 0, 0, 0, 0, 0, 0, 0, 0, 0, 0, 0, 0, 0, 0, 0, 0, 0, 0, 0, 0, 0, 0, 0, 0, 0, 1080, 0, 0, 0, 0, 0, 0, 0, 0, 0, 0, 0, 0, 0, 0, 0, 0, 1079, 0, 0, 0, 0, 0, 0, 0, 0, 0, 0, 0, 0, 0, 0, 0, 0, 0, 0, 0, 0, 0, 0, 0, 0, 0, 0, 0, 0, 0, 0, 0, 0, 0, 0, 0, 0, 0, 1009, 0, 0, 0, 0, 0, 0, 0, 0, 0, 0, 0, 0, 0, 0, 0, 0, 0, 0, 0, 0, 0, 0, 0, 0, 0, 0, 0, 1009, 0, 0, 0, 0, 0, 0, 0, 0, 0, 0, 0, 0, 0, 0, 0, 0, 0, 0, 0, 0, 0, 0, 0, 0, 0, 0, 0, 0, 0, 0, 0, 0, 0, 0, 0, 0, 0, 0, 0, 0, 0, 0, 0, 0, 0, 0, 0, 0, 0, 0, 0, 0, 0, 0, 0, 0, 0, 0, 0, 0, 0, 0, 0, 0, 0, 0, 0, 0, 0, 0, 0, 0, 0, 0, 0, 0, 1009, 0, 0, 0, 0, 0, 0, 0, 495, 0, 0, 0, 0, 0, 0, 0, 0, 0, 0, 0, 0, 0, 0, 0, 0, 0, 0, 0, 0, 0, 0, 0, 0, 0, 0, 0, 0, 0, 0, 0, 0, 0, 0, 0, 0, 474, 0, 0, 0, 0, 0, 0, 0, 0, 0, 0, 0, 0, 0, 0, 0, 0, 0, 0, 0, 475, 0, 0, 0, 0, 0, 0, 0, 0, 0, 0, 0, 0, 0, 0, 0, 0, 0, 0, 0, 0, 0, 0, 0, 0],
         "height":20,
         "name":"decals",
         "opacity":1,
         "type":"tilelayer",
         "visible":true,
         "width":23,
         "x":0,
         "y":0
        }, 
        {
         "data":[0, 0, 0, 0, 0, 0, 0, 0, 0, 0, 0, 0, 0, 0, 0, 0, 0, 0, 0, 0, 0, 0, 0, 0, 0, 0, 0, 0, 0, 0, 0, 0, 0, 0, 0, 0, 0, 0, 0, 0, 0, 0, 0, 0, 0, 0, 0, 0, 0, 0, 0, 0, 0, 0, 0, 0, 0, 0, 0, 0, 0, 0, 0, 0, 0, 0, 0, 0, 0, 0, 0, 0, 0, 0, 0, 0, 0, 0, 0, 0, 0, 0, 0, 0, 0, 0, 0, 0, 0, 0, 0, 0, 0, 0, 0, 0, 0, 0, 0, 0, 0, 0, 0, 0, 0, 0, 0, 0, 0, 0, 0, 0, 0, 0, 0, 0, 0, 0, 0, 0, 0, 0, 0, 0, 0, 0, 0, 0, 0, 0, 0, 0, 0, 0, 0, 0, 0, 0, 0, 0, 0, 0, 0, 0, 0, 0, 0, 0, 0, 0, 0, 0, 0, 0, 0, 0, 0, 0, 0, 0, 0, 0, 0, 0, 0, 0, 0, 0, 0, 0, 0, 0, 0, 0, 0, 0, 0, 0, 0, 0, 0, 0, 0, 0, 0, 0, 0, 0, 0, 0, 0, 0, 0, 0, 0, 0, 0, 0, 0, 0, 0, 0, 0, 0, 0, 0, 0, 0, 0, 0, 0, 0, 0, 0, 0, 0, 0, 0, 0, 0, 0, 0, 0, 0, 0, 0, 0, 0, 0, 0, 0, 0, 0, 0, 0, 0, 0, 0, 0, 0, 0, 0, 0, 0, 0, 0, 0, 0, 0, 0, 0, 0, 0, 0, 0, 0, 0, 0, 0, 0, 0, 0, 0, 0, 0, 0, 0, 0, 0, 0, 0, 0, 0, 0, 0, 0, 0, 0, 0, 0, 0, 0, 0, 0, 0, 0, 0, 0, 0, 0, 0, 0, 0, 0, 0, 0, 0, 0, 0, 0, 0, 0, 0, 0, 0, 0, 0, 0, 0, 0, 0, 0, 0, 0, 0, 0, 0, 0, 0, 0, 0, 0, 0, 0, 0, 0, 0, 0, 0, 0, 0, 0, 0, 0, 0, 0, 0, 0, 0, 0, 0, 0, 0, 0, 0, 0, 0, 0, 0, 0, 0, 0, 0, 0, 0, 0, 0, 0, 0, 0, 0, 0, 0, 0, 0, 0, 0, 0, 0, 0, 0, 0, 0, 0, 0, 0, 0, 0, 0, 0, 0, 0, 0, 0, 0, 0, 0, 0, 0, 0, 0, 0, 0, 0, 0, 0, 0, 0, 0, 0, 0, 0, 0, 0, 0, 0, 0, 0, 0, 0, 0, 0, 0, 0, 0, 0, 0, 0, 0, 0, 0, 0, 0, 0, 0, 0, 0, 0, 0, 0, 0, 0, 0, 0, 0, 0, 0, 0, 0, 0, 0, 0, 0, 0, 0, 0, 0, 0, 0, 0, 0, 0, 0, 0, 0, 0, 0, 0, 0, 0],
         "height":20,
         "name":"grass",
         "opacity":1,
         "type":"tilelayer",
         "visible":true,
         "width":23,
         "x":0,
         "y":0
        }, 
        {
         "data":[0, 0, 0, 0, 0, 0, 0, 0, 0, 0, 0, 0, 0, 0, 0, 0, 0, 0, 0, 0, 0, 0, 0, 0, 0, 0, 0, 0, 0, 0, 0, 0, 0, 0, 0, 0, 0, 0, 0, 0, 0, 0, 0, 0, 0, 0, 0, 0, 0, 0, 0, 0, 0, 0, 0, 0, 0, 0, 0, 0, 0, 0, 0, 0, 0, 0, 0, 0, 0, 0, 0, 0, 0, 0, 0, 0, 0, 0, 0, 0, 0, 0, 0, 0, 0, 0, 0, 0, 0, 0, 0, 0, 0, 0, 0, 0, 0, 0, 0, 0, 0, 0, 0, 0, 0, 0, 0, 0, 0, 0, 0, 0, 0, 0, 0, 0, 0, 0, 0, 0, 0, 0, 0, 0, 0, 0, 0, 0, 0, 0, 0, 0, 0, 0, 0, 0, 0, 0, 0, 0, 0, 0, 0, 0, 0, 0, 0, 0, 0, 0, 0, 0, 0, 0, 0, 0, 0, 0, 0, 0, 0, 0, 0, 0, 0, 0, 0, 0, 0, 0, 0, 0, 0, 0, 0, 0, 0, 0, 0, 0, 0, 0, 0, 0, 0, 0, 0, 0, 0, 0, 0, 0, 0, 0, 0, 0, 0, 0, 0, 0, 0, 0, 0, 0, 0, 602, 0, 0, 0, 0, 0, 0, 0, 0, 0, 0, 0, 0, 0, 0, 0, 0, 0, 0, 0, 0, 0, 0, 615, 0, 0, 0, 0, 0, 0, 0, 0, 0, 0, 0, 0, 0, 0, 0, 0, 0, 0, 0, 0, 0, 0, 0, 0, 0, 0, 0, 0, 0, 0, 0, 0, 0, 0, 0, 0, 0, 0, 0, 0, 0, 0, 0, 0, 0, 0, 0, 0, 0, 0, 0, 0, 0, 0, 0, 0, 0, 0, 0, 0, 0, 0, 0, 0, 0, 0, 0, 0, 0, 0, 0, 0, 0, 0, 0, 0, 0, 0, 0, 0, 0, 0, 0, 0, 0, 0, 0, 0, 0, 0, 0, 0, 0, 0, 0, 0, 0, 0, 0, 0, 0, 0, 0, 0, 0, 0, 0, 0, 0, 0, 0, 0, 0, 0, 0, 0, 0, 0, 0, 0, 602, 0, 0, 0, 0, 0, 0, 0, 0, 0, 0, 0, 0, 0, 0, 0, 0, 0, 0, 0, 0, 0, 0, 615, 0, 0, 0, 0, 0, 0, 0, 0, 0, 0, 0, 0, 0, 0, 0, 0, 0, 0, 0, 0, 0, 0, 0, 0, 0, 0, 0, 0, 0, 0, 0, 0, 0, 0, 0, 0, 0, 0, 0, 0, 0, 0, 0, 0, 0, 0, 0, 0, 0, 0, 0, 0, 0, 0, 0, 0, 0, 0, 0, 0, 0, 0, 0, 0, 0, 0, 0, 0, 0, 0, 0, 0, 0, 0, 0, 0, 0, 0, 0, 0, 0, 0, 0, 0, 0, 0, 0],
         "height":20,
         "name":"airborne",
         "opacity":1,
         "type":"tilelayer",
         "visible":true,
         "width":23,
         "x":0,
         "y":0
        }, 
        {
         "draworder":"topdown",
         "height":48,
         "name":"doors",
         "objects":[
                {
                 "gid":785,
                 "height":0,
                 "name":"exit",
                 "properties":
                    {
                     "direction":"down",
                     "security":"8",
                     "width":"1"
                    },
                 "rotation":0,
                 "type":"door",
                 "visible":true,
                 "width":0,
                 "x":352,
                 "y":640
                }, 
                {
                 "gid":801,
                 "height":0,
                 "name":"door",
                 "properties":
                    {
                     "direction":"up",
                     "width":"1"
                    },
                 "rotation":0,
                 "type":"door",
                 "visible":true,
                 "width":0,
                 "x":128,
                 "y":576
                }, 
                {
                 "gid":801,
                 "height":0,
                 "name":"door",
                 "properties":
                    {
                     "direction":"up",
                     "width":"1"
                    },
                 "rotation":0,
                 "type":"door",
                 "visible":true,
                 "width":0,
                 "x":672,
                 "y":352
                }],
         "opacity":1,
         "type":"objectgroup",
         "visible":true,
         "width":24,
         "x":0,
         "y":0
        }, 
        {
         "draworder":"topdown",
         "height":48,
         "name":"warps",
         "objects":[
                {
                 "gid":809,
                 "height":0,
                 "name":"to_base_east_2f",
                 "properties":
                    {
                     "map":"base_east_2f",
                     "x":"4",
                     "y":"8"
                    },
                 "rotation":0,
                 "type":"warp",
                 "visible":true,
                 "width":0,
                 "x":352,
                 "y":640
                }, 
                {
                 "gid":791,
                 "height":0,
                 "name":"to_duct",
                 "properties":
                    {
                     "map":"base_east_2f_west_duct",
                     "x":"28",
                     "y":"2"
                    },
                 "rotation":0,
                 "type":"warp",
                 "visible":true,
                 "width":0,
                 "x":672,
                 "y":64
                }, 
                {
                 "gid":791,
                 "height":0,
                 "name":"to_duct2",
                 "properties":
                    {
                     "map":"base_east_2f_west_duct",
                     "x":"24",
                     "y":"13"
                    },
                 "rotation":0,
                 "type":"warp",
                 "visible":true,
                 "width":0,
                 "x":544,
                 "y":448
                }, 
                {
                 "gid":791,
                 "height":0,
                 "name":"to_duct3",
                 "properties":
                    {
                     "map":"base_east_2f_west_duct",
                     "x":"3",
                     "y":"2"
                    },
                 "rotation":0,
                 "type":"warp",
                 "visible":true,
                 "width":0,
                 "x":32,
                 "y":64
                }, 
                {
                 "gid":791,
                 "height":0,
                 "name":"to_duct4",
                 "properties":
                    {
                     "map":"base_east_2f_west_duct",
                     "x":"9",
                     "y":"17"
                    },
                 "rotation":0,
                 "type":"warp",
                 "visible":true,
                 "width":0,
                 "x":64,
                 "y":576
                }],
         "opacity":1,
         "type":"objectgroup",
         "visible":true,
         "width":24,
         "x":0,
         "y":0
        }, 
        {
         "draworder":"topdown",
         "height":48,
         "name":"waypoints",
         "objects":[
                {
                 "gid":809,
                 "height":0,
                 "name":"g1a",
                 "properties":
                    {
                     "behavior":"continue",
                     "direction":"right"
                    },
                 "rotation":0,
                 "type":"",
                 "visible":true,
                 "width":0,
                 "x":64,
                 "y":96
                }, 
                {
                 "gid":809,
                 "height":0,
                 "name":"g1b",
                 "properties":
                    {
                     "behavior":"continue",
                     "direction":"down"
                    },
                 "rotation":0,
                 "type":"",
                 "visible":true,
                 "width":0,
                 "x":288,
                 "y":96
                }, 
                {
                 "gid":809,
                 "height":0,
                 "name":"g1c",
                 "properties":
                    {
                     "behavior":"continue",
                     "direction":"left"
                    },
                 "rotation":0,
                 "type":"",
                 "visible":true,
                 "width":0,
                 "x":288,
                 "y":256
                }, 
                {
                 "gid":809,
                 "height":0,
                 "name":"g1d",
                 "properties":
                    {
                     "behavior":"wait",
                     "direction":"up"
                    },
                 "rotation":0,
                 "type":"",
                 "visible":true,
                 "width":0,
                 "x":160,
                 "y":256
                }, 
                {
                 "gid":809,
                 "height":0,
                 "name":"g1e",
                 "properties":
                    {
                     "behavior":"continue",
                     "direction":"left"
                    },
                 "rotation":0,
                 "type":"",
                 "visible":true,
                 "width":0,
                 "x":160,
                 "y":256
                }, 
                {
                 "gid":809,
                 "height":0,
                 "name":"g1f",
                 "properties":
                    {
                     "behavior":"continue",
                     "direction":"up"
                    },
                 "rotation":0,
                 "type":"",
                 "visible":true,
                 "width":0,
                 "x":32,
                 "y":256
                }, 
                {
                 "gid":809,
                 "height":0,
                 "name":"g1g",
                 "properties":
                    {
                     "behavior":"continue",
                     "direction":"right"
                    },
                 "rotation":0,
                 "type":"",
                 "visible":true,
                 "width":0,
                 "x":32,
                 "y":96
                }, 
                {
                 "gid":809,
                 "height":0,
                 "name":"g2a",
                 "properties":
                    {
                     "behavior":"continue",
                     "direction":"left"
                    },
                 "rotation":0,
                 "type":"",
                 "visible":true,
                 "width":0,
                 "x":640,
                 "y":96
                }, 
                {
                 "gid":809,
                 "height":0,
                 "name":"g2b",
                 "properties":
                    {
                     "behavior":"wait",
                     "direction":"down"
                    },
                 "rotation":0,
                 "type":"",
                 "visible":true,
                 "width":0,
                 "x":544,
                 "y":96
                }, 
                {
                 "gid":809,
                 "height":0,
                 "name":"g2c",
                 "properties":
                    {
                     "behavior":"continue",
                     "direction":"left"
                    },
                 "rotation":0,
                 "type":"",
                 "visible":true,
                 "width":0,
                 "x":544,
                 "y":96
                }, 
                {
                 "gid":809,
                 "height":0,
                 "name":"g2d",
                 "properties":
                    {
                     "behavior":"continue",
                     "direction":"down"
                    },
                 "rotation":0,
                 "type":"",
                 "visible":true,
                 "width":0,
                 "x":416,
                 "y":96
                }, 
                {
                 "gid":809,
                 "height":0,
                 "name":"g2e",
                 "properties":
                    {
                     "behavior":"continue",
                     "direction":"right"
                    },
                 "rotation":0,
                 "type":"",
                 "visible":true,
                 "width":0,
                 "x":416,
                 "y":256
                }, 
                {
                 "gid":809,
                 "height":0,
                 "name":"g2f",
                 "properties":
                    {
                     "behavior":"continue",
                     "direction":"up"
                    },
                 "rotation":0,
                 "type":"",
                 "visible":true,
                 "width":0,
                 "x":672,
                 "y":256
                }, 
                {
                 "gid":809,
                 "height":0,
                 "name":"g2g",
                 "properties":
                    {
                     "behavior":"continue",
                     "direction":"left"
                    },
                 "rotation":0,
                 "type":"",
                 "visible":true,
                 "width":0,
                 "x":672,
                 "y":96
                }, 
                {
                 "gid":809,
                 "height":0,
                 "name":"g3a",
                 "properties":
                    {
                     "behavior":"continue",
                     "direction":"left"
                    },
                 "rotation":0,
                 "type":"",
                 "visible":true,
                 "width":0,
                 "x":512,
                 "y":480
                }, 
                {
                 "gid":809,
                 "height":0,
                 "name":"g3b",
                 "properties":
                    {
                     "behavior":"continue",
                     "direction":"up"
                    },
                 "rotation":0,
                 "type":"",
                 "visible":true,
                 "width":0,
                 "x":384,
                 "y":480
                }, 
                {
                 "gid":809,
                 "height":0,
                 "name":"g3c",
                 "properties":
                    {
                     "behavior":"continue",
                     "direction":"left"
                    },
                 "rotation":0,
                 "type":"",
                 "visible":true,
                 "width":0,
                 "x":384,
                 "y":448
                }, 
                {
                 "gid":809,
                 "height":0,
                 "name":"g3d",
                 "properties":
                    {
                     "behavior":"continue",
                     "direction":"down"
                    },
                 "rotation":0,
                 "type":"",
                 "visible":true,
                 "width":0,
                 "x":256,
                 "y":448
                }, 
                {
                 "gid":809,
                 "height":0,
                 "name":"g3e",
                 "properties":
                    {
                     "behavior":"wait",
                     "direction":"up"
                    },
                 "rotation":0,
                 "type":"",
                 "visible":true,
                 "width":0,
                 "x":256,
                 "y":608
                }, 
                {
                 "gid":809,
                 "height":0,
                 "name":"g3f",
                 "properties":
                    {
                     "behavior":"continue",
                     "direction":"right"
                    },
                 "rotation":0,
                 "type":"",
                 "visible":true,
                 "width":0,
                 "x":256,
                 "y":448
                }, 
                {
                 "gid":809,
                 "height":0,
                 "name":"g3g",
                 "properties":
                    {
                     "behavior":"wait",
                     "direction":"down"
                    },
                 "rotation":0,
                 "type":"",
                 "visible":true,
                 "width":0,
                 "x":480,
                 "y":448
                }, 
                {
                 "gid":809,
                 "height":0,
                 "name":"g3h",
                 "properties":
                    {
                     "behavior":"continue",
                     "direction":"right"
                    },
                 "rotation":0,
                 "type":"",
                 "visible":true,
                 "width":0,
                 "x":480,
                 "y":480
                }, 
                {
                 "gid":809,
                 "height":0,
                 "name":"g4a",
                 "properties":
                    {
                     "behavior":"sleep",
                     "direction":"right"
                    },
                 "rotation":0,
                 "type":"",
                 "visible":true,
                 "width":0,
                 "x":608,
                 "y":384
                }, 
                {
                 "gid":809,
                 "height":0,
                 "name":"g5a",
                 "properties":
                    {
                     "behavior":"sleep",
                     "direction":"down"
                    },
                 "rotation":0,
                 "type":"",
                 "visible":true,
                 "width":0,
                 "x":128,
                 "y":384
                }],
         "opacity":1,
         "type":"objectgroup",
         "visible":true,
         "width":24,
         "x":0,
         "y":0
        }, 
        {
         "draworder":"topdown",
         "height":48,
         "name":"npcs",
         "objects":[
                {
                 "gid":810,
                 "height":0,
                 "name":"guard1",
                 "properties":
                    {
                     "waypoints":"g1a,g1b,g1c,g1d,g1e,g1f,g1g"
                    },
                 "rotation":0,
                 "type":"commando",
                 "visible":true,
                 "width":0,
                 "x":64,
                 "y":96
                }, 
                {
                 "gid":810,
                 "height":0,
                 "name":"guard2",
                 "properties":
                    {
                     "waypoints":"g2a,g2b,g2c,g2d,g2e,g2f,g2g"
                    },
                 "rotation":0,
                 "type":"commando",
                 "visible":true,
                 "width":0,
                 "x":640,
                 "y":96
                }, 
                {
                 "gid":810,
                 "height":0,
                 "name":"guard3",
                 "properties":
                    {
                     "waypoints":"g3a,g3b,g3c,g3d,g3e,g3f,g3g,g3h"
                    },
                 "rotation":0,
                 "type":"commando",
                 "visible":true,
                 "width":0,
                 "x":512,
                 "y":480
                }, 
                {
                 "gid":810,
                 "height":0,
                 "name":"guard4",
                 "properties":
                    {
                     "waypoints":"g4a"
                    },
                 "rotation":0,
                 "type":"commando",
                 "visible":true,
                 "width":0,
                 "x":608,
                 "y":384
                }, 
                {
                 "gid":810,
                 "height":0,
                 "name":"guard5",
                 "properties":
                    {
                     "waypoints":"g5a"
                    },
                 "rotation":0,
                 "type":"commando",
                 "visible":true,
                 "width":0,
                 "x":128,
                 "y":384
                }],
         "opacity":1,
         "type":"objectgroup",
         "visible":true,
         "width":24,
         "x":0,
         "y":0
        }, 
        {
         "draworder":"topdown",
         "height":20,
         "name":"items",
         "objects":[],
         "opacity":1,
         "type":"objectgroup",
         "visible":true,
         "width":23,
         "x":0,
         "y":0
        }, 
        {
         "draworder":"topdown",
         "height":48,
         "name":"cameras",
         "objects":[
                {
                 "gid":821,
                 "height":0,
                 "name":"camera",
                 "properties":
                    {
                     "direction":"up"
                    },
                 "rotation":0,
                 "type":"camera",
                 "visible":true,
                 "width":0,
                 "x":672,
                 "y":640
                }],
         "opacity":1,
         "type":"objectgroup",
         "visible":true,
         "width":24,
         "x":0,
         "y":0
        }, 
        {
         "draworder":"topdown",
         "height":20,
         "name":"ducts",
         "objects":[
                {
                 "gid":809,
                 "height":0,
                 "name":"duct1",
                 "properties":
                    {

                    },
                 "rotation":0,
                 "type":"duct",
                 "visible":true,
                 "width":0,
                 "x":32,
                 "y":64
                }, 
                {
                 "gid":809,
                 "height":0,
                 "name":"duct2",
                 "properties":
                    {

                    },
                 "rotation":0,
                 "type":"duct",
                 "visible":true,
                 "width":0,
                 "x":64,
                 "y":576
                }, 
                {
                 "gid":809,
                 "height":0,
                 "name":"duct3",
                 "properties":
                    {

                    },
                 "rotation":0,
                 "type":"duct",
                 "visible":true,
                 "width":0,
                 "x":672,
                 "y":64
                }, 
                {
                 "gid":809,
                 "height":0,
                 "name":"duct4",
                 "properties":
                    {

                    },
                 "rotation":0,
                 "type":"duct",
                 "visible":true,
                 "width":0,
                 "x":544,
                 "y":448
                }],
         "opacity":1,
         "type":"objectgroup",
         "visible":true,
         "width":23,
         "x":0,
         "y":0
        }, 
        {
         "draworder":"topdown",
         "height":24,
         "name":"lights",
         "objects":[
                {
                 "ellipse":true,
                 "height":224,
                 "name":"light",
                 "properties":
                    {

                    },
                 "rotation":0,
                 "type":"light",
                 "visible":true,
                 "width":224,
                 "x":224,
                 "y":416
                }, 
                {
                 "ellipse":true,
                 "height":224,
                 "name":"light",
                 "properties":
                    {

                    },
                 "rotation":0,
                 "type":"light",
                 "visible":true,
                 "width":224,
                 "x":256,
                 "y":0
                }],
         "opacity":1,
         "type":"objectgroup",
         "visible":true,
         "width":28,
         "x":0,
         "y":0
        }],
 "orientation":"orthogonal",
 "properties":
    {
     "ambience":"0.5,0.5,0.5",
     "soundtrack":"tension"
    },
 "renderorder":"left-up",
 "tileheight":32,
 "tilesets":[
        {
         "firstgid":1,
         "image":"..\/..\/sprites\/tileset_51.png",
         "imageheight":512,
         "imagewidth":1024,
         "margin":0,
         "name":"tileset_51",
         "properties":
            {

            },
         "spacing":0,
         "tileheight":32,
         "tilewidth":32
        }, 
        {
         "firstgid":513,
         "image":"..\/..\/sprites\/supplemental.png",
         "imageheight":128,
         "imagewidth":128,
         "margin":0,
         "name":"supplemental",
         "properties":
            {

            },
         "spacing":0,
         "tileheight":32,
         "tilewidth":32
        }, 
        {
         "firstgid":529,
         "image":"..\/..\/sprites\/pipoya_exteriors.png",
         "imageheight":960,
         "imagewidth":256,
         "margin":0,
         "name":"pipoya_exteriors",
         "properties":
            {

            },
         "spacing":0,
         "tileheight":32,
         "tilewidth":32
        }, 
        {
         "firstgid":769,
         "image":"..\/..\/sprites\/common.png",
         "imageheight":256,
         "imagewidth":256,
         "margin":0,
         "name":"common",
         "properties":
            {

            },
         "spacing":0,
         "tileheight":32,
         "tilewidth":32
        }, 
        {
         "firstgid":833,
         "image":"..\/..\/sprites\/modern_interior.png",
         "imageheight":512,
         "imagewidth":512,
         "margin":0,
         "name":"modern_interior",
         "properties":
            {

            },
         "spacing":0,
         "tileheight":32,
         "tilewidth":32
        }],
 "tilewidth":32,
 "version":1,
 "width":23
}