{ "height":24,
 "layers":[
        {
         "data":[0, 0, 0, 0, 0, 0, 0, 0, 408, 408, 408, 408, 408, 408, 408, 408, 408, 408, 408, 408, 0, 0, 0, 0, 0, 0, 0, 0, 0, 0, 0, 0, 0, 0, 0, 0, 408, 408, 408, 408, 408, 408, 408, 408, 408, 408, 408, 408, 0, 0, 0, 0, 0, 0, 0, 0, 0, 0, 0, 0, 0, 0, 0, 0, 375, 376, 376, 376, 376, 376, 376, 376, 376, 376, 376, 377, 0, 0, 0, 0, 0, 0, 0, 0, 0, 0, 0, 0, 0, 0, 0, 0, 407, 408, 408, 408, 408, 408, 408, 408, 408, 408, 408, 407, 0, 0, 0, 0, 0, 0, 0, 0, 0, 0, 0, 0, 0, 0, 0, 0, 407, 408, 408, 408, 408, 408, 408, 408, 408, 408, 408, 407, 0, 0, 0, 0, 0, 0, 0, 0, 0, 0, 0, 0, 0, 0, 0, 0, 407, 408, 408, 408, 408, 408, 408, 408, 408, 408, 408, 407, 0, 0, 0, 0, 0, 0, 0, 0, 0, 0, 0, 0, 0, 0, 0, 0, 407, 408, 408, 408, 408, 408, 408, 408, 408, 408, 408, 407, 0, 0, 0, 0, 0, 0, 0, 0, 0, 0, 0, 0, 0, 0, 0, 0, 407, 408, 0, 0, 0, 0, 0, 0, 0, 0, 408, 407, 0, 0, 0, 0, 0, 0, 0, 0, 0, 375, 440, 440, 440, 440, 440, 440, 441, 408, 0, 0, 0, 0, 0, 0, 0, 0, 408, 439, 376, 376, 376, 376, 376, 376, 377, 0, 0, 407, 408, 408, 408, 408, 408, 408, 408, 408, 0, 0, 0, 0, 0, 0, 0, 0, 408, 408, 408, 408, 408, 408, 408, 408, 409, 0, 0, 407, 408, 408, 408, 408, 408, 408, 408, 408, 0, 0, 0, 0, 0, 0, 0, 0, 408, 408, 408, 408, 408, 408, 408, 408, 409, 0, 0, 407, 408, 408, 408, 408, 408, 408, 408, 408, 0, 0, 0, 0, 0, 0, 0, 0, 408, 408, 408, 408, 408, 408, 408, 408, 409, 0, 0, 439, 440, 440, 440, 440, 440, 440, 377, 408, 0, 0, 0, 0, 0, 0, 0, 0, 408, 375, 376, 376, 376, 376, 376, 376, 441, 0, 0, 0, 0, 0, 0, 0, 0, 0, 409, 408, 0, 0, 0, 0, 0, 0, 0, 0, 408, 407, 0, 0, 0, 0, 0, 0, 0, 0, 0, 0, 0, 0, 0, 0, 0, 0, 409, 408, 408, 408, 408, 408, 408, 408, 408, 408, 408, 407, 0, 0, 0, 0, 0, 0, 0, 0, 0, 0, 0, 0, 0, 0, 0, 0, 409, 408, 408, 408, 408, 408, 408, 408, 408, 408, 408, 407, 0, 0, 0, 0, 0, 0, 0, 0, 0, 0, 0, 0, 0, 0, 0, 0, 409, 408, 408, 408, 408, 408, 408, 408, 408, 408, 408, 407, 0, 0, 0, 0, 0, 0, 0, 0, 0, 0, 0, 0, 0, 0, 0, 0, 409, 408, 408, 408, 408, 408, 408, 408, 408, 408, 408, 407, 0, 0, 0, 0, 0, 0, 0, 0, 0, 0, 0, 0, 0, 0, 0, 0, 409, 408, 408, 408, 408, 408, 408, 408, 408, 408, 408, 407, 0, 0, 0, 0, 0, 0, 0, 0, 0, 0, 0, 0, 0, 0, 0, 0, 409, 408, 408, 408, 408, 408, 408, 408, 408, 408, 408, 407, 0, 0, 0, 0, 0, 0, 0, 0, 0, 0, 0, 0, 0, 0, 0, 0, 409, 408, 408, 408, 408, 408, 408, 408, 408, 408, 408, 407, 0, 0, 0, 0, 0, 0, 0, 0, 0, 375, 440, 440, 440, 440, 440, 440, 441, 408, 408, 408, 408, 408, 408, 408, 408, 408, 408, 439, 376, 376, 376, 376, 376, 376, 377, 0, 0, 439, 440, 440, 440, 440, 440, 440, 440, 440, 440, 440, 440, 440, 440, 440, 440, 440, 440, 440, 440, 440, 440, 440, 440, 440, 441, 0, 0, 0, 0, 0, 0, 0, 0, 0, 0, 0, 0, 0, 0, 0, 0, 0, 0, 0, 0, 0, 0, 0, 0, 0, 0, 0, 0, 0],
         "height":24,
         "name":"floor",
         "opacity":1,
         "type":"tilelayer",
         "visible":true,
         "width":28,
         "x":0,
         "y":0
        }, 
        {
         "data":[412, 238, 239, 239, 239, 239, 239, 240, 610, 610, 610, 610, 610, 610, 610, 610, 610, 610, 610, 610, 238, 239, 239, 239, 239, 239, 240, 410, 412, 270, 271, 271, 271, 271, 271, 272, 618, 1000, 1001, 1002, 618, 618, 618, 618, 1000, 1001, 1002, 618, 270, 271, 271, 271, 271, 271, 272, 410, 412, 270, 271, 271, 271, 271, 271, 272, 0, 1016, 1017, 1018, 0, 1085, 1086, 0, 1016, 1017, 1018, 0, 270, 271, 271, 271, 271, 271, 272, 410, 412, 270, 271, 271, 271, 271, 271, 272, 0, 0, 0, 0, 0, 1085, 1086, 0, 0, 0, 0, 0, 270, 271, 271, 271, 271, 271, 272, 410, 412, 302, 303, 303, 303, 303, 303, 304, 0, 0, 0, 0, 0, 0, 0, 0, 0, 0, 0, 0, 302, 303, 303, 303, 303, 303, 304, 410, 412, 609, 610, 610, 610, 610, 610, 611, 0, 0, 0, 0, 0, 0, 0, 0, 0, 0, 0, 0, 609, 610, 610, 610, 610, 610, 611, 410, 412, 609, 610, 611, 0, 609, 610, 611, 0, 0, 0, 0, 0, 0, 0, 0, 0, 0, 0, 0, 609, 610, 611, 0, 609, 610, 611, 410, 412, 617, 618, 619, 0, 617, 618, 619, 0, 0, 238, 239, 239, 239, 239, 239, 239, 240, 0, 0, 617, 618, 619, 0, 617, 618, 619, 410, 412, 0, 0, 0, 0, 0, 0, 0, 0, 0, 270, 271, 271, 271, 271, 271, 271, 272, 0, 0, 0, 0, 0, 0, 0, 0, 0, 410, 412, 0, 0, 0, 0, 0, 0, 0, 0, 0, 270, 271, 271, 271, 271, 271, 271, 272, 0, 0, 0, 0, 0, 0, 0, 0, 0, 410, 412, 0, 0, 0, 0, 0, 0, 0, 0, 0, 302, 303, 303, 303, 303, 303, 303, 304, 0, 0, 0, 0, 0, 0, 0, 0, 0, 410, 412, 0, 0, 0, 0, 0, 0, 0, 0, 0, 1, 1, 1, 1, 1, 1, 1, 1, 0, 0, 0, 0, 0, 0, 0, 0, 0, 410, 412, 0, 0, 0, 0, 0, 0, 0, 0, 0, 1, 2, 1, 0, 0, 1, 518, 1, 0, 0, 0, 0, 0, 0, 0, 0, 0, 410, 412, 238, 239, 239, 239, 239, 239, 240, 0, 0, 33, 33, 33, 0, 0, 33, 33, 34, 0, 0, 238, 239, 239, 239, 239, 239, 240, 410, 412, 270, 271, 271, 271, 271, 271, 272, 0, 0, 0, 0, 0, 0, 0, 0, 0, 0, 0, 0, 270, 271, 271, 271, 271, 271, 272, 410, 412, 270, 271, 271, 271, 271, 271, 272, 0, 0, 0, 0, 0, 0, 0, 0, 0, 0, 0, 0, 270, 271, 271, 271, 271, 271, 272, 410, 412, 270, 271, 271, 271, 271, 271, 272, 0, 0, 0, 0, 0, 0, 0, 0, 0, 0, 0, 0, 270, 271, 271, 271, 271, 271, 272, 410, 412, 302, 303, 303, 303, 303, 303, 304, 0, 0, 0, 0, 0, 0, 0, 0, 0, 0, 0, 0, 302, 303, 303, 303, 303, 303, 304, 410, 412, 609, 610, 610, 610, 610, 610, 611, 0, 0, 0, 0, 0, 0, 0, 0, 0, 0, 0, 0, 609, 610, 610, 610, 610, 610, 611, 410, 412, 609, 610, 611, 0, 609, 610, 611, 0, 0, 0, 0, 0, 0, 0, 0, 0, 0, 0, 0, 609, 610, 611, 0, 609, 610, 611, 410, 412, 617, 618, 619, 0, 617, 618, 619, 0, 0, 0, 0, 0, 1085, 1086, 0, 0, 0, 0, 0, 617, 618, 619, 0, 617, 618, 619, 410, 412, 0, 0, 0, 0, 0, 0, 0, 0, 0, 0, 0, 0, 1085, 1086, 0, 0, 0, 0, 0, 0, 0, 0, 0, 0, 0, 0, 410, 473, 0, 0, 0, 0, 0, 0, 0, 0, 0, 0, 0, 0, 0, 0, 0, 0, 0, 0, 0, 0, 0, 0, 0, 0, 0, 0, 476, 505, 506, 379, 379, 379, 379, 379, 379, 379, 379, 379, 379, 379, 379, 379, 379, 379, 379, 379, 379, 379, 379, 379, 379, 379, 379, 507, 508],
         "height":24,
         "name":"walls",
         "opacity":1,
         "type":"tilelayer",
         "visible":true,
         "width":28,
         "x":0,
         "y":0
        }, 
        {
         "data":[0, 0, 0, 0, 0, 0, 0, 0, 0, 0, 0, 0, 0, 0, 0, 0, 0, 0, 0, 1080, 0, 0, 0, 0, 0, 0, 0, 0, 0, 0, 0, 0, 0, 0, 0, 0, 0, 0, 0, 0, 0, 0, 0, 0, 0, 0, 0, 0, 0, 0, 0, 0, 0, 0, 0, 0, 0, 0, 0, 0, 0, 0, 0, 0, 0, 0, 0, 0, 0, 0, 0, 0, 0, 0, 0, 0, 0, 0, 0, 0, 0, 0, 0, 0, 0, 0, 0, 0, 0, 0, 0, 0, 0, 0, 0, 0, 0, 0, 0, 0, 0, 0, 0, 0, 0, 0, 0, 0, 0, 0, 0, 0, 0, 0, 0, 0, 0, 0, 0, 0, 0, 0, 0, 0, 0, 0, 0, 0, 0, 0, 0, 0, 0, 0, 0, 0, 0, 0, 0, 0, 0, 0, 0, 0, 495, 0, 0, 0, 0, 0, 0, 0, 0, 0, 0, 0, 0, 0, 0, 0, 0, 0, 0, 495, 0, 0, 0, 0, 0, 0, 0, 0, 0, 0, 0, 0, 0, 0, 0, 0, 0, 0, 0, 0, 0, 0, 0, 0, 0, 0, 0, 0, 0, 0, 0, 0, 0, 0, 0, 0, 0, 0, 0, 0, 0, 0, 0, 0, 0, 0, 0, 0, 0, 0, 0, 0, 0, 0, 0, 0, 0, 0, 0, 0, 0, 0, 0, 0, 0, 0, 0, 0, 0, 0, 0, 0, 0, 0, 0, 0, 0, 0, 0, 0, 0, 0, 0, 0, 0, 0, 0, 0, 0, 0, 0, 0, 0, 0, 0, 0, 0, 0, 0, 0, 0, 0, 0, 0, 0, 0, 0, 0, 0, 0, 0, 0, 0, 0, 0, 0, 0, 0, 0, 0, 0, 0, 0, 0, 0, 0, 0, 0, 0, 0, 0, 0, 0, 0, 0, 0, 0, 0, 0, 0, 0, 0, 0, 0, 0, 0, 0, 0, 0, 0, 0, 0, 0, 0, 0, 0, 0, 495, 495, 0, 0, 0, 0, 0, 0, 0, 0, 0, 0, 0, 0, 0, 0, 0, 0, 0, 0, 0, 0, 0, 0, 0, 0, 0, 0, 0, 0, 0, 0, 0, 0, 0, 0, 0, 0, 0, 0, 0, 0, 0, 0, 0, 0, 0, 0, 0, 0, 0, 0, 0, 0, 0, 0, 0, 0, 0, 0, 0, 0, 0, 0, 0, 0, 0, 0, 0, 0, 0, 0, 0, 0, 0, 0, 0, 0, 0, 0, 0, 0, 0, 0, 0, 0, 0, 0, 0, 0, 0, 0, 0, 0, 0, 0, 0, 0, 0, 0, 0, 0, 0, 0, 0, 0, 0, 0, 0, 0, 0, 0, 0, 0, 0, 0, 0, 0, 0, 0, 0, 0, 0, 0, 0, 0, 0, 0, 0, 0, 0, 0, 0, 0, 0, 0, 0, 0, 0, 0, 0, 0, 0, 0, 0, 0, 0, 0, 0, 0, 0, 0, 0, 0, 0, 0, 0, 0, 0, 0, 0, 0, 0, 0, 0, 0, 0, 0, 0, 0, 0, 0, 0, 0, 0, 0, 0, 0, 0, 0, 0, 0, 0, 0, 0, 0, 0, 495, 0, 0, 0, 0, 0, 0, 0, 0, 0, 0, 0, 0, 0, 0, 0, 0, 0, 0, 495, 0, 0, 0, 0, 0, 0, 0, 0, 0, 0, 0, 0, 0, 0, 0, 0, 0, 0, 0, 0, 0, 0, 0, 0, 0, 0, 0, 0, 0, 0, 0, 0, 0, 0, 0, 0, 0, 0, 0, 0, 0, 0, 0, 0, 0, 0, 0, 0, 0, 0, 0, 0, 0, 0, 0, 0, 0, 0, 0, 0, 0, 0, 0, 0, 0, 0, 0, 0, 0, 0, 0, 0, 0, 0, 0, 0, 0, 0, 0, 0, 0, 0, 0, 0, 0, 0, 0, 0, 0, 474, 0, 0, 0, 0, 0, 0, 0, 0, 0, 0, 0, 0, 0, 0, 0, 0, 0, 0, 0, 0, 0, 0, 0, 0, 475, 0, 0, 0, 0, 0, 0, 0, 0, 0, 0, 0, 0, 0, 0, 0, 0, 0, 0, 0, 0, 0, 0, 0, 0, 0, 0, 0, 0, 0],
         "height":24,
         "name":"decals",
         "opacity":1,
         "type":"tilelayer",
         "visible":true,
         "width":28,
         "x":0,
         "y":0
        }, 
        {
         "data":[0, 0, 0, 0, 0, 0, 0, 0, 0, 0, 0, 0, 0, 0, 0, 0, 0, 0, 0, 0, 0, 0, 0, 0, 0, 0, 0, 0, 0, 0, 0, 0, 0, 0, 0, 0, 0, 0, 0, 0, 0, 0, 0, 0, 0, 0, 0, 0, 0, 0, 0, 0, 0, 0, 0, 0, 0, 0, 0, 0, 0, 0, 0, 0, 0, 0, 0, 0, 0, 0, 0, 0, 0, 0, 0, 0, 0, 0, 0, 0, 0, 0, 0, 0, 0, 0, 0, 0, 0, 0, 0, 0, 0, 0, 0, 0, 0, 0, 0, 0, 0, 0, 0, 0, 0, 0, 0, 0, 0, 0, 0, 0, 0, 0, 0, 0, 0, 0, 0, 0, 0, 0, 0, 0, 0, 0, 0, 0, 0, 0, 0, 0, 0, 0, 0, 0, 0, 0, 0, 0, 0, 0, 0, 0, 0, 0, 0, 0, 0, 0, 0, 0, 0, 0, 0, 0, 0, 0, 0, 0, 0, 0, 0, 0, 0, 0, 0, 0, 0, 0, 0, 0, 0, 0, 0, 0, 0, 0, 0, 0, 0, 0, 0, 0, 0, 0, 0, 0, 0, 0, 0, 0, 0, 0, 0, 0, 0, 0, 0, 0, 0, 0, 0, 0, 0, 0, 0, 0, 0, 0, 0, 0, 0, 0, 0, 0, 0, 0, 0, 0, 0, 0, 0, 0, 0, 0, 0, 0, 0, 0, 0, 0, 0, 0, 0, 0, 0, 0, 0, 0, 0, 0, 0, 0, 0, 0, 0, 0, 0, 0, 0, 0, 0, 0, 0, 0, 0, 0, 0, 0, 0, 0, 0, 0, 0, 0, 0, 0, 0, 0, 0, 0, 0, 0, 0, 0, 0, 0, 0, 0, 0, 0, 0, 0, 0, 0, 0, 0, 0, 0, 0, 0, 0, 0, 0, 0, 0, 0, 0, 0, 0, 0, 0, 0, 0, 0, 0, 0, 0, 0, 0, 0, 0, 0, 0, 0, 0, 0, 0, 0, 0, 0, 0, 0, 0, 0, 0, 0, 0, 0, 0, 0, 0, 0, 0, 0, 0, 0, 0, 0, 0, 0, 0, 0, 0, 0, 0, 0, 0, 0, 0, 0, 0, 0, 0, 0, 0, 0, 0, 0, 0, 0, 0, 0, 0, 0, 0, 0, 0, 0, 0, 0, 0, 0, 0, 0, 0, 0, 0, 0, 0, 0, 0, 0, 0, 0, 0, 0, 0, 0, 0, 0, 0, 0, 0, 0, 0, 0, 0, 0, 0, 0, 0, 0, 0, 0, 0, 0, 0, 0, 0, 0, 0, 0, 0, 0, 0, 0, 0, 0, 0, 0, 0, 0, 0, 0, 0, 0, 0, 0, 0, 0, 0, 0, 0, 0, 0, 0, 0, 0, 0, 0, 0, 0, 0, 0, 0, 0, 0, 0, 0, 0, 0, 0, 0, 0, 0, 0, 0, 0, 0, 0, 0, 0, 0, 0, 0, 0, 0, 0, 0, 0, 0, 0, 0, 0, 0, 0, 0, 0, 0, 0, 0, 0, 0, 0, 0, 0, 0, 0, 0, 0, 0, 0, 0, 0, 0, 0, 0, 0, 0, 0, 0, 0, 0, 0, 0, 0, 0, 0, 0, 0, 0, 0, 0, 0, 0, 0, 0, 0, 0, 0, 0, 0, 0, 0, 0, 0, 0, 0, 0, 0, 0, 0, 0, 0, 0, 0, 0, 0, 0, 0, 0, 0, 0, 0, 0, 0, 0, 0, 0, 0, 0, 0, 0, 0, 0, 0, 0, 0, 0, 0, 0, 0, 0, 0, 0, 0, 0, 0, 0, 0, 0, 0, 0, 0, 0, 0, 0, 0, 0, 0, 0, 0, 0, 0, 0, 0, 0, 0, 0, 0, 0, 0, 0, 0, 0, 0, 0, 0, 0, 0, 0, 0, 0, 0, 0, 0, 0, 0, 0, 0, 0, 0, 0, 0, 0, 0, 0, 0, 0, 0, 0, 0, 0, 0, 0, 0, 0, 0, 0, 0, 0, 0, 0, 0, 0, 0, 0, 0, 0, 0, 0, 0, 0, 0, 0, 0, 0, 0, 0, 0, 0, 0, 0, 0, 0, 0, 0, 0, 0, 0, 0, 0, 0, 0, 0, 0, 0, 0, 0, 0],
         "height":24,
         "name":"grass",
         "opacity":1,
         "type":"tilelayer",
         "visible":true,
         "width":28,
         "x":0,
         "y":0
        }, 
        {
         "data":[0, 0, 0, 0, 0, 0, 0, 0, 1055, 1055, 1056, 1055, 1056, 1053, 1054, 1055, 1056, 1055, 1056, 1056, 0, 0, 0, 0, 0, 0, 0, 0, 0, 0, 0, 0, 0, 0, 0, 0, 1071, 1071, 1072, 1071, 1072, 1069, 1070, 1071, 1072, 1071, 1072, 1072, 0, 0, 0, 0, 0, 0, 0, 0, 0, 0, 0, 0, 0, 0, 0, 0, 0, 0, 0, 0, 0, 0, 0, 0, 0, 0, 0, 0, 0, 0, 0, 0, 0, 0, 0, 0, 0, 0, 0, 0, 0, 0, 0, 0, 0, 0, 0, 0, 0, 0, 0, 0, 0, 0, 0, 0, 0, 0, 0, 0, 0, 0, 0, 0, 0, 0, 0, 0, 0, 0, 0, 0, 0, 0, 0, 0, 0, 0, 0, 0, 0, 0, 0, 0, 0, 0, 0, 0, 0, 0, 0, 0, 0, 0, 0, 0, 0, 0, 0, 0, 0, 0, 0, 0, 0, 0, 0, 0, 0, 0, 0, 0, 0, 0, 0, 0, 0, 0, 0, 0, 0, 0, 0, 0, 647, 0, 0, 0, 0, 0, 0, 0, 0, 0, 0, 0, 0, 0, 0, 0, 0, 0, 0, 647, 0, 0, 0, 0, 0, 0, 0, 0, 0, 0, 0, 0, 0, 0, 0, 0, 0, 0, 0, 0, 0, 0, 0, 0, 0, 0, 0, 0, 0, 0, 0, 0, 0, 0, 0, 0, 0, 0, 0, 0, 0, 0, 0, 0, 0, 0, 0, 0, 0, 0, 0, 0, 0, 0, 0, 0, 0, 0, 0, 0, 0, 0, 0, 0, 0, 0, 0, 0, 0, 0, 0, 0, 0, 0, 0, 0, 0, 0, 0, 0, 0, 0, 0, 0, 0, 0, 0, 0, 0, 0, 0, 0, 0, 0, 0, 0, 0, 0, 0, 0, 0, 0, 0, 0, 0, 0, 0, 0, 0, 0, 0, 0, 0, 0, 0, 0, 0, 0, 0, 0, 0, 0, 0, 0, 0, 0, 0, 0, 0, 0, 0, 0, 0, 0, 0, 0, 0, 0, 0, 0, 0, 0, 0, 0, 0, 0, 0, 0, 0, 0, 0, 0, 0, 0, 0, 0, 0, 631, 631, 0, 0, 0, 0, 0, 0, 0, 0, 0, 0, 0, 0, 0, 0, 0, 0, 0, 0, 0, 0, 0, 0, 0, 0, 0, 0, 0, 0, 0, 0, 0, 0, 0, 0, 0, 0, 0, 0, 0, 0, 0, 0, 0, 0, 0, 0, 0, 0, 0, 0, 0, 0, 0, 0, 0, 0, 0, 0, 0, 0, 0, 0, 0, 0, 0, 0, 0, 0, 0, 0, 0, 0, 0, 0, 0, 0, 0, 0, 0, 0, 0, 0, 0, 0, 0, 0, 0, 0, 0, 0, 0, 0, 0, 0, 0, 0, 0, 0, 0, 0, 0, 0, 0, 0, 0, 0, 0, 0, 0, 0, 0, 0, 0, 0, 0, 0, 0, 0, 0, 0, 0, 0, 0, 0, 0, 0, 0, 0, 0, 0, 0, 0, 0, 0, 0, 0, 0, 0, 0, 0, 0, 0, 0, 0, 0, 0, 0, 0, 0, 0, 0, 0, 0, 0, 0, 0, 0, 0, 0, 0, 0, 1055, 1055, 1056, 1055, 1056, 1053, 1054, 1055, 1056, 1055, 1056, 1056, 0, 0, 0, 0, 0, 0, 0, 0, 0, 0, 0, 0, 647, 0, 0, 0, 1071, 1071, 1072, 1071, 1072, 1069, 1070, 1071, 1072, 1071, 1072, 1072, 0, 0, 0, 647, 0, 0, 0, 0, 0, 0, 0, 0, 0, 0, 0, 0, 0, 0, 0, 0, 0, 0, 0, 0, 0, 0, 0, 0, 0, 0, 0, 0, 0, 0, 0, 0, 0, 0, 0, 0, 0, 0, 0, 0, 0, 0, 0, 0, 0, 0, 0, 0, 0, 0, 0, 0, 0, 0, 0, 0, 0, 0, 0, 0, 0, 0, 0, 0, 0, 0, 0, 0, 0, 0, 0, 0, 0, 0, 0, 0, 0, 0, 0, 0, 0, 0, 0, 0, 0, 0, 0, 0, 0, 0, 0, 0, 0, 0, 0, 0, 0, 0, 0, 0, 0, 0, 0, 0, 0, 0, 0, 0, 0, 0, 0, 0, 0, 0, 0, 0],
         "height":24,
         "name":"airborne",
         "opacity":1,
         "type":"tilelayer",
         "visible":true,
         "width":28,
         "x":0,
         "y":0
        }, 
        {
         "draworder":"topdown",
         "height":48,
         "name":"doors",
         "objects":[
                {
                 "gid":802,
                 "height":0,
                 "name":"ev_door",
                 "properties":
                    {
                     "direction":"up",
                     "security":"8",
                     "width":"2"
                    },
                 "rotation":0,
                 "type":"door",
                 "visible":true,
                 "width":0,
                 "x":416,
                 "y":448
                }, 
                {
                 "gid":801,
                 "height":0,
                 "name":"door",
                 "properties":
                    {
                     "direction":"up",
                     "security":"8",
                     "width":"1"
                    },
                 "rotation":0,
                 "type":"door",
                 "visible":true,
                 "width":0,
                 "x":128,
                 "y":256
                }, 
                {
                 "gid":801,
                 "height":0,
                 "name":"door",
                 "properties":
                    {
                     "direction":"up",
                     "width":"1"
                    },
                 "rotation":0,
                 "type":"door",
                 "visible":true,
                 "width":0,
                 "x":736,
                 "y":256
                }, 
                {
                 "gid":801,
                 "height":0,
                 "name":"door",
                 "properties":
                    {
                     "direction":"up",
                     "width":"1"
                    },
                 "rotation":0,
                 "type":"door",
                 "visible":true,
                 "width":0,
                 "x":128,
                 "y":672
                }, 
                {
                 "gid":801,
                 "height":0,
                 "name":"door",
                 "properties":
                    {
                     "direction":"up",
                     "locked":"true",
                     "width":"1"
                    },
                 "rotation":0,
                 "type":"door",
                 "visible":true,
                 "width":0,
                 "x":736,
                 "y":672
                }],
         "opacity":1,
         "type":"objectgroup",
         "visible":true,
         "width":24,
         "x":0,
         "y":0
        }, 
        {
         "draworder":"topdown",
         "height":48,
         "name":"warps",
         "objects":[
                {
                 "gid":809,
                 "height":0,
                 "name":"elevator",
                 "properties":
                    {
                     "elevator":"base_east_2f",
                     "map":"elevator",
                     "x":"12",
                     "y":"10"
                    },
                 "rotation":0,
                 "type":"warp",
                 "visible":true,
                 "width":0,
                 "x":416,
                 "y":448
                }, 
                {
                 "gid":809,
                 "height":0,
                 "name":"elevator",
                 "properties":
                    {
                     "elevator":"base_east_2f",
                     "map":"elevator",
                     "x":"12",
                     "y":"10"
                    },
                 "rotation":0,
                 "type":"warp",
                 "visible":true,
                 "width":0,
                 "x":448,
                 "y":448
                }, 
                {
                 "gid":809,
                 "height":0,
                 "name":"to_base_east_2f_ne",
                 "properties":
                    {
                     "map":"base_east_2f_ne",
                     "x":"11",
                     "y":"18"
                    },
                 "rotation":0,
                 "type":"warp",
                 "visible":true,
                 "width":0,
                 "x":736,
                 "y":256
                }, 
                {
                 "gid":809,
                 "height":0,
                 "name":"to_base_east_2f_sw",
                 "properties":
                    {
                     "map":"base_east_2f_sw",
                     "x":"11",
                     "y":"18"
                    },
                 "rotation":0,
                 "type":"warp",
                 "visible":true,
                 "width":0,
                 "x":128,
                 "y":672
                }, 
                {
                 "gid":809,
                 "height":0,
                 "name":"to_base_east_2f_nw",
                 "properties":
                    {
                     "map":"base_east_2f_nw",
                     "x":"11",
                     "y":"18"
                    },
                 "rotation":0,
                 "type":"warp",
                 "visible":true,
                 "width":0,
                 "x":128,
                 "y":256
                }],
         "opacity":1,
         "type":"objectgroup",
         "visible":true,
         "width":24,
         "x":0,
         "y":0
        }, 
        {
         "draworder":"topdown",
         "height":48,
         "name":"waypoints",
         "objects":[
                {
                 "gid":809,
                 "height":0,
                 "name":"g1a",
                 "properties":
                    {
                     "behavior":"wait",
                     "direction":"right"
                    },
                 "rotation":0,
                 "type":"",
                 "visible":true,
                 "width":0,
                 "x":416,
                 "y":736
                }, 
                {
                 "gid":809,
                 "height":0,
                 "name":"g1b",
                 "properties":
                    {
                     "behavior":"continue",
                     "direction":"up"
                    },
                 "rotation":0,
                 "type":"",
                 "visible":true,
                 "width":0,
                 "x":608,
                 "y":736
                }, 
                {
                 "gid":809,
                 "height":0,
                 "name":"g1c",
                 "properties":
                    {
                     "behavior":"continue",
                     "direction":"left"
                    },
                 "rotation":0,
                 "type":"",
                 "visible":true,
                 "width":0,
                 "x":608,
                 "y":480
                }, 
                {
                 "gid":809,
                 "height":0,
                 "name":"g1d",
                 "properties":
                    {
                     "behavior":"continue",
                     "direction":"down"
                    },
                 "rotation":0,
                 "type":"",
                 "visible":true,
                 "width":0,
                 "x":480,
                 "y":480
                }, 
                {
                 "gid":809,
                 "height":0,
                 "name":"g1e",
                 "properties":
                    {
                     "behavior":"continue",
                     "direction":"left"
                    },
                 "rotation":0,
                 "type":"",
                 "visible":true,
                 "width":0,
                 "x":480,
                 "y":512
                }, 
                {
                 "gid":809,
                 "height":0,
                 "name":"g1f",
                 "properties":
                    {
                     "behavior":"continue",
                     "direction":"up"
                    },
                 "rotation":0,
                 "type":"",
                 "visible":true,
                 "width":0,
                 "x":288,
                 "y":512
                }, 
                {
                 "gid":809,
                 "height":0,
                 "name":"g1g",
                 "properties":
                    {
                     "behavior":"continue",
                     "direction":"left"
                    },
                 "rotation":0,
                 "type":"",
                 "visible":true,
                 "width":0,
                 "x":288,
                 "y":352
                }, 
                {
                 "gid":809,
                 "height":0,
                 "name":"g1h",
                 "properties":
                    {
                     "behavior":"continue",
                     "direction":"down"
                    },
                 "rotation":0,
                 "type":"",
                 "visible":true,
                 "width":0,
                 "x":256,
                 "y":352
                }, 
                {
                 "gid":809,
                 "height":0,
                 "name":"g1i",
                 "properties":
                    {
                     "behavior":"continue",
                     "direction":"left"
                    },
                 "rotation":0,
                 "type":"",
                 "visible":true,
                 "width":0,
                 "x":256,
                 "y":704
                }, 
                {
                 "gid":809,
                 "height":0,
                 "name":"g1j",
                 "properties":
                    {
                     "behavior":"continue",
                     "direction":"down"
                    },
                 "rotation":0,
                 "type":"",
                 "visible":true,
                 "width":0,
                 "x":224,
                 "y":704
                }, 
                {
                 "gid":809,
                 "height":0,
                 "name":"g1k",
                 "properties":
                    {
                     "behavior":"continue",
                     "direction":"right"
                    },
                 "rotation":0,
                 "type":"",
                 "visible":true,
                 "width":0,
                 "x":224,
                 "y":736
                }, 
                {
                 "gid":809,
                 "height":0,
                 "name":"g2a",
                 "properties":
                    {
                     "behavior":"sleep",
                     "direction":"down"
                    },
                 "rotation":0,
                 "type":"",
                 "visible":true,
                 "width":0,
                 "x":384,
                 "y":96
                }],
         "opacity":1,
         "type":"objectgroup",
         "visible":true,
         "width":24,
         "x":0,
         "y":0
        }, 
        {
         "draworder":"topdown",
         "height":48,
         "name":"npcs",
         "objects":[
                {
                 "gid":810,
                 "height":0,
                 "name":"guard1",
                 "properties":
                    {
                     "waypoints":"g1a,g1b,g1c,g1d,g1e,g1f,g1g,g1h,g1i,g1j,g1k"
                    },
                 "rotation":0,
                 "type":"commando",
                 "visible":true,
                 "width":0,
                 "x":416,
                 "y":736
                }, 
                {
                 "gid":810,
                 "height":0,
                 "name":"guard2",
                 "properties":
                    {
                     "waypoints":"g2a"
                    },
                 "rotation":0,
                 "type":"commando",
                 "visible":true,
                 "width":0,
                 "x":384,
                 "y":96
                }],
         "opacity":1,
         "type":"objectgroup",
         "visible":true,
         "width":24,
         "x":0,
         "y":0
        }, 
        {
         "draworder":"topdown",
         "height":48,
         "name":"cameras",
         "objects":[],
         "opacity":1,
         "type":"objectgroup",
         "visible":true,
         "width":24,
         "x":0,
         "y":0
        }, 
        {
         "draworder":"topdown",
         "height":24,
         "name":"lights",
         "objects":[
                {
                 "ellipse":true,
                 "height":384,
                 "name":"light1",
                 "properties":
                    {

                    },
                 "rotation":0,
                 "type":"light",
                 "visible":true,
                 "width":384,
                 "x":256,
                 "y":160
                }, 
                {
                 "ellipse":true,
                 "height":224,
                 "name":"light2",
                 "properties":
                    {

                    },
                 "rotation":0,
                 "type":"light",
                 "visible":true,
                 "width":224,
                 "x":32,
                 "y":64
                }, 
                {
                 "ellipse":true,
                 "height":224,
                 "name":"light2",
                 "properties":
                    {

                    },
                 "rotation":0,
                 "type":"light",
                 "visible":true,
                 "width":224,
                 "x":640,
                 "y":64
                }, 
                {
                 "ellipse":true,
                 "height":224,
                 "name":"light2",
                 "properties":
                    {

                    },
                 "rotation":0,
                 "type":"light",
                 "visible":true,
                 "width":224,
                 "x":32,
                 "y":480
                }, 
                {
                 "ellipse":true,
                 "height":224,
                 "name":"light2",
                 "properties":
                    {

                    },
                 "rotation":0,
                 "type":"light",
                 "visible":true,
                 "width":224,
                 "x":640,
                 "y":480
                }],
         "opacity":1,
         "type":"objectgroup",
         "visible":true,
         "width":28,
         "x":0,
         "y":0
        }],
 "orientation":"orthogonal",
 "properties":
    {
     "ambience":"0.5,0.5,0.5",
     "soundtrack":"tension"
    },
 "renderorder":"left-up",
 "tileheight":32,
 "tilesets":[
        {
         "firstgid":1,
         "image":"..\/..\/sprites\/tileset_51.png",
         "imageheight":512,
         "imagewidth":1024,
         "margin":0,
         "name":"tileset_51",
         "properties":
            {

            },
         "spacing":0,
         "tileheight":32,
         "tilewidth":32
        }, 
        {
         "firstgid":513,
         "image":"..\/..\/sprites\/supplemental.png",
         "imageheight":128,
         "imagewidth":128,
         "margin":0,
         "name":"supplemental",
         "properties":
            {

            },
         "spacing":0,
         "tileheight":32,
         "tilewidth":32
        }, 
        {
         "firstgid":529,
         "image":"..\/..\/sprites\/pipoya_exteriors.png",
         "imageheight":960,
         "imagewidth":256,
         "margin":0,
         "name":"pipoya_exteriors",
         "properties":
            {

            },
         "spacing":0,
         "tileheight":32,
         "tilewidth":32
        }, 
        {
         "firstgid":769,
         "image":"..\/..\/sprites\/common.png",
         "imageheight":256,
         "imagewidth":256,
         "margin":0,
         "name":"common",
         "properties":
            {

            },
         "spacing":0,
         "tileheight":32,
         "tilewidth":32
        }, 
        {
         "firstgid":833,
         "image":"..\/..\/sprites\/modern_interior.png",
         "imageheight":512,
         "imagewidth":512,
         "margin":0,
         "name":"modern_interior",
         "properties":
            {

            },
         "spacing":0,
         "tileheight":32,
         "tilewidth":32
        }],
 "tilewidth":32,
 "version":1,
 "width":28
}