{ "height":48,
 "layers":[
        {
         "data":[608, 608, 608, 608, 608, 608, 608, 608, 608, 608, 608, 608, 608, 608, 608, 608, 608, 608, 608, 608, 608, 608, 608, 608, 608, 608, 608, 608, 608, 608, 608, 608, 608, 608, 608, 608, 608, 608, 608, 608, 608, 608, 608, 608, 608, 608, 608, 608, 608, 608, 608, 608, 608, 608, 608, 608, 608, 608, 608, 608, 608, 608, 608, 608, 608, 608, 608, 608, 608, 608, 608, 1605, 1605, 1605, 1605, 1605, 608, 608, 608, 608, 608, 608, 608, 608, 608, 608, 608, 608, 608, 608, 608, 608, 608, 608, 608, 608, 608, 608, 608, 608, 608, 608, 608, 608, 608, 608, 608, 608, 608, 608, 608, 608, 608, 608, 608, 608, 608, 608, 608, 608, 1637, 1637, 1637, 1637, 1637, 608, 608, 608, 608, 608, 608, 608, 608, 608, 608, 608, 608, 608, 608, 608, 608, 608, 608, 608, 608, 608, 608, 608, 608, 608, 608, 608, 608, 608, 608, 608, 608, 608, 608, 608, 608, 608, 608, 608, 608, 608, 608, 608, 955, 1116, 1116, 956, 1116, 1116, 957, 608, 608, 608, 608, 608, 608, 608, 608, 608, 608, 608, 608, 608, 608, 608, 608, 608, 608, 608, 608, 608, 608, 608, 608, 608, 608, 608, 608, 608, 608, 608, 608, 608, 608, 608, 608, 608, 608, 608, 608, 608, 608, 955, 1116, 1116, 1116, 1116, 1116, 957, 608, 608, 608, 608, 608, 608, 608, 608, 608, 608, 608, 608, 608, 608, 608, 608, 608, 608, 608, 608, 608, 1079, 1079, 1079, 1079, 1079, 1079, 1079, 1079, 1079, 1079, 1079, 1079, 1079, 1079, 1079, 1079, 1079, 1079, 1079, 1079, 1079, 1083, 1116, 1116, 1116, 1116, 1116, 1085, 1079, 1079, 1079, 1079, 1079, 1079, 1079, 1079, 1079, 1079, 1079, 1079, 1079, 1079, 1079, 1079, 1079, 1079, 1079, 1079, 1079, 1116, 1116, 1116, 1116, 1116, 1116, 1116, 1116, 1116, 1116, 1116, 1116, 1116, 1116, 1116, 1116, 1116, 1116, 1116, 1116, 1116, 1116, 1116, 1116, 956, 1116, 1116, 1116, 1116, 1116, 1116, 1116, 1116, 1116, 1116, 1116, 1116, 1116, 1116, 1116, 1116, 1116, 1116, 1116, 1116, 1116, 1116, 1116, 1116, 1116, 1116, 1111, 1116, 1111, 1116, 1116, 1116, 1111, 1116, 1116, 1116, 1111, 1116, 1116, 1116, 1111, 1116, 1116, 1116, 1111, 1116, 1116, 1111, 1116, 1111, 1116, 1116, 1111, 1116, 1116, 1116, 1111, 1116, 1116, 1116, 1111, 1116, 1116, 1116, 1111, 1116, 1116, 1116, 1111, 1116, 1111, 1116, 1116, 1116, 956, 1116, 1116, 1116, 1116, 1116, 1116, 1116, 1116, 1116, 1116, 1116, 1116, 1116, 1116, 1116, 1116, 1116, 1116, 1116, 1116, 1116, 1116, 956, 1116, 1116, 1116, 1116, 1116, 1116, 1116, 1116, 1116, 1116, 1116, 1116, 1116, 1116, 1116, 1116, 1116, 1116, 1116, 1116, 1116, 1116, 956, 1116, 955, 1116, 1116, 1149, 1143, 1143, 1143, 1143, 1143, 1143, 1143, 1143, 1143, 1143, 1143, 1143, 1143, 1143, 1143, 1143, 1143, 1147, 1116, 1116, 1116, 1116, 1116, 1149, 1143, 1143, 1143, 1143, 1143, 1143, 1143, 1143, 1143, 1143, 1143, 1143, 1143, 1143, 1143, 1143, 1143, 1147, 1116, 1116, 1116, 955, 1116, 1116, 957, 1116, 1116, 1116, 1116, 1116, 1116, 1116, 1116, 1116, 1116, 1116, 1116, 1116, 1116, 1116, 1116, 1116, 955, 1116, 1116, 1116, 1116, 1116, 957, 1116, 1116, 1116, 1116, 1116, 1116, 1116, 1116, 1116, 1116, 1116, 1116, 1116, 1116, 1116, 1116, 1116, 955, 1116, 1116, 1116, 955, 956, 1116, 1116, 1116, 1116, 1116, 1116, 1116, 1116, 1116, 1116, 1116, 1116, 1116, 1116, 1116, 1116, 1116, 1116, 1116, 955, 1116, 1116, 1116, 1116, 1116, 957, 1116, 1116, 1116, 1116, 1116, 1116, 1116, 1116, 1116, 1116, 1116, 1116, 1116, 1116, 1116, 1116, 1116, 955, 1116, 956, 1116, 955, 1116, 1116, 1116, 1116, 1116, 1116, 1116, 1116, 1116, 1116, 1116, 1116, 1116, 1116, 1116, 1116, 1116, 1116, 1116, 1116, 955, 1116, 1116, 956, 1116, 1116, 957, 1116, 1116, 1116, 1116, 1116, 1116, 1116, 1116, 1116, 1116, 1116, 1116, 1116, 1116, 1116, 1116, 1116, 955, 1116, 1116, 1116, 955, 1116, 1116, 1116, 1116, 1116, 1116, 1116, 1116, 1116, 1116, 1116, 1116, 1116, 1116, 1116, 1116, 1116, 1116, 1116, 1116, 955, 1116, 1116, 1116, 1116, 1116, 957, 1116, 1116, 1116, 1116, 1116, 1116, 1116, 1116, 1116, 1116, 1116, 1116, 1116, 1116, 1116, 1116, 1116, 955, 1116, 1116, 1116, 955, 1116, 1116, 1116, 1116, 1116, 1116, 1116, 1116, 1116, 1116, 1116, 1116, 1116, 1116, 1116, 1116, 1116, 1116, 1116, 1116, 955, 1116, 1116, 1116, 1116, 1116, 957, 1116, 1116, 1116, 1116, 1116, 1116, 1116, 1116, 1116, 1116, 1116, 1116, 1116, 1116, 1116, 1116, 1116, 955, 1116, 1116, 1116, 955, 956, 1116, 1116, 1116, 1116, 1116, 1116, 1116, 1116, 1116, 1116, 1116, 1116, 1116, 1116, 1116, 1116, 1116, 1116, 1116, 955, 1116, 1116, 1116, 1116, 1116, 957, 1116, 1116, 1116, 1116, 1116, 1116, 1116, 1116, 1116, 1116, 1116, 1116, 1116, 1116, 1116, 1116, 1116, 955, 1116, 956, 1116, 955, 1116, 1116, 1116, 1116, 1116, 1116, 1116, 1116, 1116, 1116, 1116, 1116, 1116, 1116, 1116, 1116, 1116, 1116, 1116, 1116, 955, 1116, 1116, 956, 1116, 1116, 957, 1116, 1116, 1116, 1116, 1116, 1116, 1116, 1116, 1116, 1116, 1116, 1116, 1116, 1116, 1116, 1116, 1116, 955, 1116, 1116, 1116, 955, 1116, 1116, 1116, 1116, 1116, 1116, 1116, 1116, 1116, 1116, 1116, 1116, 1116, 1116, 1116, 1116, 1116, 1116, 1116, 1116, 955, 1116, 1116, 1116, 1116, 1116, 957, 1116, 1116, 1116, 1116, 1116, 1116, 1116, 1116, 1116, 1116, 1116, 1116, 1116, 1116, 1116, 1116, 1116, 955, 1116, 1116, 1116, 955, 1116, 1116, 1116, 1116, 1116, 1116, 1116, 1116, 1116, 1116, 1116, 1116, 1116, 1116, 1116, 1116, 1116, 1116, 1116, 1116, 955, 1116, 1116, 1116, 1116, 1116, 957, 1116, 1116, 1116, 1116, 1116, 1116, 1116, 1116, 1116, 1116, 1116, 1116, 1116, 1116, 1116, 1116, 1116, 955, 1116, 1116, 1116, 955, 956, 1116, 1116, 1116, 1116, 1116, 1116, 1116, 1116, 1116, 1116, 1116, 1116, 1116, 1116, 1116, 1116, 1116, 1116, 1116, 955, 1116, 1116, 1116, 1116, 1116, 957, 1116, 1116, 1116, 1116, 1116, 1116, 1116, 1116, 1116, 1116, 1116, 1116, 1116, 1116, 1116, 1116, 1116, 955, 1116, 956, 1116, 955, 1116, 1116, 1116, 1116, 1116, 1116, 1116, 1116, 1116, 1116, 1116, 1116, 1116, 1116, 1116, 1116, 1116, 1116, 1116, 1116, 955, 1116, 1116, 956, 1116, 1116, 957, 1116, 1116, 1116, 1116, 1116, 1116, 1116, 1116, 1116, 1116, 1116, 1116, 1116, 1116, 1116, 1116, 1116, 955, 1116, 1116, 1116, 955, 1116, 1116, 1116, 1116, 1116, 1116, 1116, 1116, 1116, 1116, 1116, 1116, 1116, 1116, 1116, 1116, 1116, 1116, 1116, 1116, 955, 1116, 1116, 1116, 1116, 1116, 957, 1116, 1116, 1116, 1116, 1116, 1116, 1116, 1116, 0, 1116, 1116, 1116, 1116, 1116, 1116, 1116, 1116, 955, 1116, 1116, 1116, 955, 1116, 1116, 1116, 1116, 1116, 1116, 1116, 1116, 1116, 1116, 1116, 1116, 1116, 1116, 1116, 1116, 1116, 1116, 1116, 1116, 955, 1116, 1116, 1116, 1116, 1116, 957, 1116, 1116, 1116, 1116, 1116, 1116, 1116, 1116, 0, 1116, 1116, 1116, 1116, 1116, 1116, 1116, 1116, 955, 1116, 1116, 1116, 955, 956, 1116, 1116, 1116, 1116, 1116, 1116, 1116, 1116, 1116, 1116, 1116, 1116, 1116, 1116, 1116, 1116, 1116, 1116, 1116, 955, 1116, 1116, 1116, 1116, 1116, 1085, 1079, 1079, 1079, 1079, 1079, 1079, 1079, 1079, 1079, 1079, 1079, 1079, 1079, 1079, 1079, 1079, 1079, 1083, 1116, 956, 1116, 955, 1116, 1116, 1116, 1116, 1116, 1116, 1116, 1116, 1116, 1116, 1116, 1116, 1116, 1116, 1116, 1116, 1116, 1116, 1116, 1116, 955, 1116, 1116, 956, 1116, 1116, 1116, 1116, 1116, 1116, 1116, 1116, 1116, 1116, 1116, 1116, 1116, 1116, 1116, 1116, 1116, 1116, 1116, 1116, 1116, 1116, 1116, 1116, 955, 1116, 1116, 1116, 1116, 1116, 1116, 1116, 1116, 1116, 1116, 1116, 1116, 1116, 1116, 1116, 1116, 1116, 1116, 1116, 1116, 955, 1116, 1116, 1116, 1111, 1116, 1116, 1111, 1116, 1116, 1116, 1111, 1116, 1116, 1116, 1111, 1116, 1116, 1116, 1111, 1116, 1116, 1116, 1111, 1116, 1116, 1116, 1116, 955, 1116, 1116, 1116, 1116, 1116, 1116, 1116, 1116, 1116, 1116, 1116, 1116, 1116, 1116, 1116, 1116, 1116, 1116, 1116, 1116, 955, 1116, 1116, 956, 1116, 1116, 1116, 1116, 1116, 1116, 1116, 1116, 1116, 1116, 1116, 1116, 1116, 1116, 1116, 1116, 1116, 1116, 1116, 1116, 1116, 1116, 1116, 1116, 955, 956, 1116, 1116, 1116, 1116, 1116, 1116, 1116, 1116, 1116, 1116, 1116, 1116, 1116, 1116, 1116, 1116, 1116, 1116, 1116, 955, 1116, 1116, 1116, 1116, 1116, 1149, 1143, 1143, 1143, 1143, 1143, 1143, 1143, 1143, 1143, 1143, 1143, 1143, 1143, 1143, 1143, 1143, 1143, 1147, 1116, 956, 1116, 955, 1116, 1116, 1116, 1116, 1116, 1116, 1116, 1116, 1116, 1116, 1116, 1116, 1116, 1116, 1116, 1116, 1116, 1116, 1116, 1116, 955, 1116, 1116, 1116, 1116, 1116, 957, 1116, 1116, 1116, 1116, 1116, 1116, 1116, 1116, 1116, 1116, 1116, 1116, 1116, 1116, 1116, 1116, 1116, 955, 1116, 1116, 1116, 955, 1116, 1116, 1116, 1116, 1116, 1116, 1116, 1116, 1116, 1116, 1116, 1116, 1116, 1116, 1116, 1116, 1116, 1116, 1116, 1116, 955, 1116, 1116, 1116, 1116, 1116, 957, 1116, 1116, 1116, 1116, 1116, 1116, 1116, 1116, 1116, 1116, 1116, 1116, 1116, 1116, 1116, 1116, 1116, 955, 1116, 1116, 1116, 955, 1116, 1116, 1116, 1116, 1116, 1116, 1116, 1116, 1116, 1116, 1116, 1116, 1116, 1116, 1116, 1116, 1116, 1116, 1116, 1116, 955, 1116, 1116, 956, 1116, 1116, 957, 1116, 1116, 1116, 1116, 1116, 1116, 1116, 1116, 1116, 1116, 1116, 1116, 1116, 1116, 1116, 1116, 1116, 955, 1116, 1116, 1116, 955, 956, 1116, 1116, 1116, 1116, 1116, 1116, 1116, 1116, 1116, 1116, 1116, 1116, 1116, 1116, 1116, 1116, 1116, 1116, 1116, 955, 1116, 1116, 1116, 1116, 1116, 957, 1116, 1116, 1116, 1116, 1116, 1116, 1116, 1116, 1116, 1116, 1116, 1116, 1116, 1116, 1116, 1116, 1116, 955, 1116, 956, 1116, 955, 1116, 1116, 1116, 1116, 1116, 1116, 1116, 1116, 1116, 1116, 1116, 1116, 1116, 1116, 1116, 1116, 1116, 1116, 1116, 1116, 955, 1116, 1116, 1116, 1116, 1116, 957, 1116, 1116, 1116, 1116, 1116, 1116, 1116, 1116, 1116, 1116, 1116, 1116, 1116, 1116, 1116, 1116, 1116, 955, 1116, 1116, 1116, 955, 1116, 1116, 1116, 1116, 1116, 1116, 1116, 1116, 1116, 1116, 1116, 1116, 1116, 1116, 1116, 1116, 1116, 1116, 1116, 1116, 955, 1116, 1116, 1116, 1116, 1116, 957, 1116, 1116, 1116, 1116, 1116, 1116, 1116, 1116, 1116, 1116, 1116, 1116, 1116, 1116, 1116, 1116, 1116, 955, 1116, 1116, 1116, 955, 1116, 1116, 1116, 1116, 1116, 1116, 1116, 1116, 1116, 1116, 1116, 1116, 1116, 1116, 1116, 1116, 1116, 1116, 1116, 1116, 955, 1116, 1116, 956, 1116, 1116, 957, 1116, 1116, 1116, 1116, 1116, 1116, 1116, 1116, 1116, 1116, 1116, 1116, 1116, 1116, 1116, 1116, 1116, 955, 1116, 1116, 1116, 955, 956, 1116, 1116, 1116, 1116, 1116, 1116, 1116, 1116, 1116, 1116, 1116, 1116, 1116, 1116, 1116, 1116, 1116, 1116, 1116, 955, 1116, 1116, 1116, 1116, 1116, 957, 1116, 1116, 1116, 1116, 1116, 1116, 1116, 1116, 1116, 1116, 1116, 1116, 1116, 1116, 1116, 1116, 1116, 955, 1116, 956, 1116, 955, 1116, 1116, 957, 1116, 1116, 1116, 1116, 1116, 1116, 1116, 1116, 1116, 1116, 1116, 1116, 1116, 1116, 1116, 1116, 1116, 955, 1116, 1116, 1116, 1116, 1116, 957, 1116, 1116, 1116, 1116, 1116, 1116, 1116, 1116, 1116, 1116, 1116, 1116, 1116, 1116, 1116, 1116, 1116, 955, 1116, 1116, 1116, 955, 1116, 1116, 957, 1116, 1116, 1116, 1116, 1116, 1116, 1116, 1116, 1116, 1116, 1116, 1116, 1116, 1116, 1116, 1116, 1116, 955, 1116, 1116, 1116, 1116, 1116, 957, 1116, 1116, 1116, 1116, 1116, 1116, 1116, 1116, 1116, 1116, 1116, 1116, 1116, 1116, 1116, 1116, 1116, 955, 1116, 1116, 1116, 955, 1116, 1116, 957, 1116, 1116, 1116, 1116, 1116, 1116, 1116, 1116, 1116, 1116, 1116, 1116, 1116, 1116, 1116, 1116, 1116, 955, 1116, 1116, 956, 1116, 1116, 957, 1116, 1116, 1116, 1116, 1116, 1116, 1116, 1116, 1116, 1116, 1116, 1116, 1116, 1116, 1116, 1116, 1116, 955, 1116, 1116, 1116, 955, 956, 1116, 957, 1116, 1116, 1116, 1116, 1116, 1605, 1605, 1605, 1605, 1605, 1605, 1605, 1116, 1116, 1116, 1116, 1116, 955, 1116, 1116, 1116, 1116, 1116, 957, 1116, 1116, 1116, 1116, 1116, 1116, 1116, 1116, 0, 1116, 1116, 1116, 1116, 1116, 1116, 1116, 1116, 955, 1116, 956, 1116, 1116, 1116, 1116, 957, 1116, 1116, 1116, 1116, 1116, 1637, 1637, 1637, 1637, 1637, 1637, 1637, 1116, 1116, 1116, 1116, 1116, 955, 1116, 1116, 1116, 1116, 1116, 957, 1116, 1116, 1116, 1116, 1116, 1116, 1116, 1116, 0, 1116, 1116, 1116, 1116, 1116, 1116, 1116, 1116, 955, 1116, 1116, 1116, 1116, 1116, 1116, 1085, 1079, 1079, 1079, 1079, 1079, 1079, 1079, 1079, 1079, 1079, 1079, 1079, 1079, 1079, 1079, 1079, 1079, 1083, 1116, 1116, 1116, 1116, 1116, 1085, 1079, 1079, 1079, 1079, 1079, 1079, 1079, 1079, 1079, 1079, 1079, 1079, 1079, 1079, 1079, 1079, 1079, 1083, 1116, 1116, 1116, 1116, 956, 1116, 1116, 1116, 1116, 1116, 1116, 1116, 1116, 1116, 1116, 1116, 1116, 1116, 1116, 1116, 1116, 1116, 1116, 1116, 1116, 1116, 1116, 956, 1116, 1116, 1116, 1116, 1116, 1116, 1116, 1116, 1116, 1116, 1116, 1116, 1116, 1116, 1116, 1116, 1116, 1116, 1116, 1116, 1116, 1116, 956, 1116, 1116, 1116, 1111, 1116, 1111, 1116, 1116, 1116, 1111, 1116, 1116, 1116, 1111, 1116, 1116, 1116, 1111, 1116, 1116, 1116, 1111, 1116, 1116, 1111, 1116, 1111, 1116, 1116, 1111, 1116, 1116, 1116, 1111, 1116, 1116, 1116, 1111, 1116, 1116, 1116, 1111, 1116, 1116, 1116, 1111, 1116, 1111, 1116, 1116, 1116, 1116, 1116, 1116, 1116, 1116, 1116, 1116, 1116, 1116, 1116, 1116, 1116, 1116, 1116, 1116, 1116, 1116, 1116, 1116, 1116, 1116, 1116, 1116, 1116, 1116, 1116, 1116, 1116, 1116, 1116, 1116, 1116, 1116, 1116, 1116, 1116, 1116, 1116, 1116, 1116, 1116, 1116, 1116, 1116, 1116, 1116, 1116, 1116, 1143, 1143, 1143, 1143, 1143, 1143, 1143, 1143, 1143, 1143, 1143, 1143, 1143, 1143, 1143, 1143, 1143, 1143, 1143, 1143, 1143, 1143, 1143, 1143, 1143, 1143, 1143, 1143, 1143, 1143, 1143, 1143, 1143, 1143, 1143, 1143, 1143, 1143, 1143, 1143, 1143, 1143, 1143, 1143, 1143, 1143, 1143, 1143, 1143, 608, 608, 608, 608, 608, 608, 608, 608, 608, 608, 608, 608, 608, 608, 608, 608, 608, 608, 608, 608, 608, 608, 608, 608, 608, 608, 608, 608, 608, 608, 608, 608, 608, 608, 608, 608, 608, 608, 608, 608, 608, 608, 608, 608, 608, 608, 608, 608, 608, 608, 608, 608, 608, 608, 608, 608, 608, 608, 608, 608, 608, 608, 608, 608, 608, 608, 608, 608, 608, 608, 608, 608, 608, 608, 608, 608, 608, 608, 608, 608, 608, 608, 608, 608, 608, 608, 608, 608, 608, 608, 608, 608, 608, 608, 608, 608, 608, 608],
         "height":48,
         "name":"floor",
         "opacity":1,
         "type":"tilelayer",
         "visible":true,
         "width":49,
         "x":0,
         "y":0
        }, 
        {
         "data":[97, 98, 98, 98, 98, 98, 98, 98, 98, 98, 98, 98, 98, 98, 98, 98, 98, 98, 98, 98, 98, 98, 1465, 1465, 1465, 1465, 1465, 98, 98, 98, 98, 98, 98, 98, 98, 98, 98, 98, 98, 98, 98, 98, 98, 98, 98, 98, 98, 98, 98, 97, 98, 98, 98, 98, 98, 98, 98, 98, 98, 98, 98, 98, 98, 98, 98, 98, 98, 98, 98, 98, 98, 0, 0, 0, 0, 0, 98, 98, 98, 98, 98, 98, 98, 98, 98, 98, 98, 98, 98, 98, 98, 98, 98, 98, 98, 98, 98, 98, 97, 98, 98, 98, 98, 98, 98, 98, 98, 98, 98, 98, 98, 98, 98, 98, 98, 98, 98, 98, 98, 99, 0, 0, 0, 0, 0, 97, 98, 98, 98, 98, 98, 98, 98, 98, 98, 98, 98, 98, 98, 98, 98, 98, 98, 98, 98, 98, 98, 105, 106, 106, 106, 106, 106, 106, 106, 106, 106, 106, 106, 106, 106, 106, 106, 106, 106, 106, 106, 106, 107, 0, 0, 0, 0, 0, 105, 106, 106, 106, 106, 106, 106, 106, 106, 106, 106, 106, 106, 106, 106, 106, 106, 106, 106, 106, 106, 107, 372, 809, 0, 0, 0, 0, 0, 0, 0, 0, 0, 0, 0, 0, 0, 0, 0, 0, 0, 0, 0, 0, 0, 0, 0, 0, 0, 0, 1089, 0, 0, 0, 0, 0, 0, 0, 0, 0, 0, 0, 0, 0, 0, 0, 0, 0, 0, 809, 380, 372, 0, 0, 0, 0, 0, 0, 0, 0, 0, 0, 0, 0, 0, 0, 0, 0, 0, 0, 0, 0, 0, 0, 0, 0, 0, 0, 0, 0, 0, 0, 0, 0, 0, 0, 0, 0, 0, 0, 0, 0, 0, 0, 0, 0, 0, 0, 0, 380, 372, 0, 0, 0, 0, 0, 0, 0, 0, 0, 0, 0, 0, 0, 0, 0, 0, 0, 0, 0, 0, 0, 0, 0, 0, 0, 0, 0, 0, 0, 0, 0, 0, 0, 0, 0, 0, 0, 0, 0, 0, 0, 0, 0, 0, 0, 0, 0, 380, 372, 0, 0, 0, 0, 0, 0, 0, 0, 0, 0, 0, 0, 0, 0, 0, 0, 0, 0, 0, 0, 0, 0, 0, 0, 0, 0, 0, 0, 0, 0, 0, 0, 0, 0, 0, 0, 0, 0, 0, 0, 0, 0, 0, 0, 0, 0, 0, 380, 372, 0, 0, 0, 0, 0, 0, 0, 0, 0, 0, 0, 0, 0, 0, 0, 0, 0, 0, 0, 0, 0, 0, 0, 0, 0, 0, 0, 0, 0, 0, 0, 0, 0, 0, 0, 0, 0, 0, 0, 0, 0, 0, 0, 0, 0, 0, 0, 380, 372, 0, 0, 0, 1120, 1121, 1122, 1123, 1123, 1123, 1123, 1123, 1123, 1123, 1123, 1123, 1123, 1123, 1124, 1125, 1126, 0, 0, 0, 0, 0, 0, 0, 0, 0, 0, 0, 0, 0, 0, 0, 0, 0, 0, 0, 0, 0, 0, 0, 0, 0, 0, 0, 380, 372, 0, 0, 0, 1152, 1153, 1154, 1155, 1155, 1155, 1155, 1155, 1155, 1155, 1155, 1155, 1155, 1155, 1156, 1157, 1158, 0, 0, 0, 0, 0, 0, 0, 390, 390, 390, 390, 390, 390, 390, 390, 390, 390, 390, 390, 390, 390, 390, 390, 390, 0, 0, 0, 380, 372, 0, 0, 0, 1184, 1153, 1154, 1155, 1155, 1155, 1155, 1155, 1155, 1155, 1155, 1155, 1155, 1155, 1156, 1157, 1190, 0, 0, 0, 0, 0, 0, 0, 390, 390, 390, 390, 390, 390, 390, 390, 390, 390, 390, 390, 390, 390, 390, 390, 390, 0, 0, 0, 380, 372, 0, 0, 0, 1184, 1153, 1154, 1155, 1155, 1155, 1155, 1155, 1155, 1155, 1155, 1155, 1155, 1155, 1156, 1157, 1190, 0, 0, 0, 0, 0, 0, 0, 398, 398, 398, 398, 398, 398, 398, 398, 398, 398, 398, 398, 398, 398, 398, 398, 398, 0, 0, 0, 380, 372, 0, 0, 0, 1184, 1153, 1154, 1155, 1155, 1155, 1155, 1155, 1155, 1155, 1155, 1155, 1155, 1155, 1156, 1157, 1190, 0, 0, 0, 0, 0, 0, 0, 406, 406, 406, 406, 406, 406, 406, 406, 406, 406, 406, 406, 406, 406, 406, 406, 406, 0, 0, 0, 380, 372, 0, 0, 0, 1184, 1153, 1154, 1155, 1155, 1155, 1155, 1155, 1155, 1155, 1155, 1155, 1155, 1155, 1156, 1157, 1190, 0, 0, 0, 0, 0, 0, 0, 406, 406, 406, 406, 406, 406, 406, 406, 406, 406, 406, 406, 406, 406, 406, 406, 406, 0, 0, 0, 380, 372, 0, 0, 0, 1184, 1153, 1154, 1155, 1155, 1155, 1155, 1155, 1155, 1155, 1155, 1155, 1155, 1155, 1156, 1157, 1190, 0, 0, 0, 0, 0, 0, 0, 414, 414, 414, 414, 414, 414, 414, 414, 414, 414, 414, 414, 414, 414, 414, 414, 414, 0, 0, 0, 380, 372, 0, 0, 0, 1184, 1153, 1154, 1155, 1155, 1155, 1155, 1155, 1155, 1155, 1155, 1155, 1155, 1155, 1156, 1157, 1190, 0, 0, 0, 0, 0, 0, 0, 273, 274, 274, 274, 274, 274, 274, 274, 274, 274, 274, 274, 274, 274, 274, 274, 275, 0, 0, 0, 380, 372, 0, 0, 0, 1184, 1153, 1154, 1155, 1155, 1155, 1155, 1155, 1155, 1155, 1155, 1155, 1155, 1155, 1156, 1157, 1190, 0, 0, 0, 0, 0, 0, 0, 273, 1028, 274, 1028, 274, 1028, 274, 1028, 274, 1028, 274, 1028, 274, 1028, 274, 1028, 275, 0, 0, 0, 380, 372, 0, 0, 0, 1184, 1153, 1154, 1155, 1155, 1155, 1155, 1155, 1155, 1155, 1155, 1155, 1155, 1155, 1156, 1157, 1190, 0, 0, 0, 0, 0, 0, 0, 273, 1060, 274, 1060, 274, 1060, 274, 1060, 274, 1060, 274, 1060, 274, 1060, 274, 1060, 275, 0, 0, 0, 380, 372, 0, 0, 0, 1184, 1153, 1154, 1155, 1155, 1155, 1155, 1155, 1155, 1155, 1155, 1155, 1155, 1155, 1156, 1157, 1190, 0, 0, 0, 0, 0, 0, 0, 273, 274, 274, 274, 274, 274, 274, 274, 274, 274, 274, 274, 274, 274, 274, 274, 275, 0, 0, 0, 380, 372, 0, 0, 0, 1184, 1153, 1154, 1155, 1155, 1155, 1155, 1155, 1155, 1155, 1155, 1155, 1155, 1155, 1156, 1157, 1190, 0, 0, 0, 0, 0, 0, 0, 273, 1028, 274, 1028, 274, 1028, 274, 274, 274, 274, 274, 1028, 274, 1028, 274, 1028, 275, 0, 0, 0, 380, 372, 0, 0, 0, 1184, 1153, 1154, 1155, 1155, 1155, 1155, 1155, 1155, 1155, 1155, 1155, 1155, 1155, 1156, 1157, 1190, 0, 0, 0, 0, 0, 0, 0, 273, 1060, 274, 1060, 274, 1060, 274, 275, 0, 273, 274, 1060, 274, 1060, 274, 1060, 275, 0, 0, 0, 380, 372, 0, 0, 0, 1184, 1153, 1154, 1155, 1155, 1155, 1155, 1155, 1155, 1155, 1155, 1155, 1155, 1155, 1156, 1157, 1190, 0, 0, 0, 0, 0, 0, 0, 281, 282, 282, 282, 282, 282, 282, 283, 0, 281, 282, 282, 282, 282, 282, 282, 283, 0, 0, 0, 380, 372, 0, 0, 0, 1184, 1153, 1154, 1155, 1155, 1155, 1155, 1155, 1155, 1155, 1155, 1155, 1155, 1155, 1156, 1157, 1190, 0, 0, 0, 0, 0, 0, 0, 0, 0, 0, 0, 0, 0, 0, 0, 0, 0, 0, 0, 0, 0, 0, 0, 0, 0, 0, 0, 380, 372, 0, 0, 0, 1184, 1153, 1154, 1155, 1155, 1155, 1155, 1155, 1155, 1155, 1155, 1155, 1155, 1155, 1156, 1157, 1190, 0, 0, 0, 0, 0, 0, 0, 0, 0, 0, 0, 0, 0, 0, 0, 0, 0, 0, 0, 0, 0, 0, 0, 0, 0, 0, 0, 380, 372, 0, 0, 0, 1184, 1153, 1154, 1155, 1155, 1155, 1155, 1155, 1155, 1155, 1155, 1155, 1155, 1155, 1156, 1157, 1190, 0, 0, 0, 0, 0, 0, 0, 0, 0, 0, 0, 0, 0, 0, 0, 0, 0, 0, 0, 0, 0, 0, 0, 0, 0, 0, 0, 380, 372, 0, 0, 0, 1184, 1153, 1154, 1155, 1155, 1155, 1155, 1155, 1155, 1155, 1155, 1155, 1155, 1155, 1156, 1157, 1190, 0, 0, 0, 0, 0, 0, 0, 0, 0, 0, 0, 0, 0, 0, 0, 0, 0, 0, 0, 0, 0, 0, 0, 0, 0, 0, 0, 380, 372, 0, 0, 0, 1184, 1153, 1154, 1155, 1155, 1155, 1155, 1155, 1155, 1155, 1155, 1155, 1155, 1155, 1156, 1157, 1190, 0, 0, 0, 0, 0, 0, 0, 0, 0, 0, 0, 0, 0, 0, 0, 0, 0, 0, 0, 0, 0, 0, 0, 0, 0, 0, 0, 380, 372, 0, 0, 0, 1184, 1153, 1154, 1155, 1155, 1155, 1155, 1155, 1155, 1155, 1155, 1155, 1155, 1155, 1156, 1157, 1190, 0, 0, 0, 0, 0, 0, 0, 390, 390, 390, 390, 390, 390, 390, 390, 390, 390, 390, 390, 390, 390, 390, 390, 390, 0, 0, 0, 380, 372, 0, 0, 0, 1184, 1153, 1154, 1155, 1155, 1155, 1155, 1155, 1155, 1155, 1155, 1155, 1155, 1155, 1156, 1157, 1190, 0, 0, 0, 0, 0, 0, 0, 390, 390, 390, 390, 390, 390, 390, 390, 390, 390, 390, 390, 390, 390, 390, 390, 390, 0, 0, 0, 380, 372, 0, 0, 0, 1184, 1153, 1154, 1155, 1155, 1155, 1155, 1155, 1155, 1155, 1155, 1155, 1155, 1155, 1156, 1157, 1190, 0, 0, 0, 0, 0, 0, 0, 398, 398, 398, 398, 398, 398, 398, 398, 398, 398, 398, 398, 398, 398, 398, 398, 398, 0, 0, 0, 380, 372, 0, 0, 0, 1184, 1153, 1154, 1155, 1155, 1155, 1155, 1155, 1155, 1155, 1155, 1155, 1155, 1155, 1156, 1157, 1190, 0, 0, 0, 0, 0, 0, 0, 406, 406, 406, 406, 406, 406, 406, 406, 406, 406, 406, 406, 406, 406, 406, 406, 406, 0, 0, 0, 380, 372, 0, 0, 0, 1184, 1153, 1154, 1155, 1155, 1155, 1155, 1155, 1155, 1155, 1155, 1155, 1155, 1155, 1156, 1157, 1190, 0, 0, 0, 0, 0, 0, 0, 406, 406, 406, 406, 406, 406, 406, 406, 406, 406, 406, 406, 406, 406, 406, 406, 406, 0, 0, 0, 380, 372, 0, 0, 0, 1184, 1185, 1186, 1187, 1187, 1187, 1187, 1187, 1187, 1187, 1187, 1187, 1187, 1187, 1188, 1189, 1190, 0, 0, 0, 0, 0, 0, 0, 414, 414, 414, 414, 414, 414, 414, 414, 414, 414, 414, 414, 414, 414, 414, 414, 414, 0, 0, 0, 380, 372, 0, 0, 0, 1216, 1217, 1218, 1219, 1219, 1219, 1219, 1219, 1219, 1219, 1219, 1219, 1219, 1219, 1220, 1221, 1222, 0, 0, 0, 0, 0, 0, 0, 257, 258, 258, 258, 258, 258, 258, 258, 258, 258, 258, 258, 258, 258, 258, 258, 259, 0, 0, 0, 380, 372, 0, 0, 0, 1248, 1249, 1250, 1251, 1251, 1251, 1251, 1251, 1251, 1251, 1251, 1251, 1251, 1251, 1252, 1253, 1254, 0, 0, 0, 0, 0, 0, 0, 257, 1028, 258, 1028, 258, 1028, 258, 1028, 258, 1028, 258, 1028, 258, 1028, 258, 1028, 259, 0, 0, 0, 380, 372, 0, 0, 0, 1175, 1176, 1176, 1176, 1177, 1465, 1465, 1465, 1465, 1465, 1465, 1465, 1175, 1176, 1176, 1176, 1177, 0, 0, 0, 0, 0, 0, 0, 257, 1060, 258, 1060, 258, 1060, 258, 1060, 258, 1060, 258, 1060, 258, 1060, 258, 1060, 259, 0, 0, 0, 380, 372, 0, 0, 0, 1175, 1176, 1176, 1176, 1177, 1465, 1465, 1465, 1465, 1465, 1465, 1465, 1175, 1176, 1176, 1176, 1177, 0, 0, 0, 0, 0, 0, 0, 257, 258, 258, 258, 258, 258, 258, 258, 258, 258, 258, 258, 258, 258, 258, 258, 259, 0, 0, 0, 380, 372, 0, 0, 0, 1175, 1176, 1176, 1176, 1177, 1465, 1465, 1465, 1465, 1465, 1465, 1465, 1175, 1176, 1176, 1176, 1177, 0, 0, 0, 0, 0, 0, 0, 257, 1028, 258, 1028, 258, 1028, 258, 258, 258, 258, 258, 1028, 258, 1028, 258, 1028, 259, 0, 0, 0, 380, 372, 0, 0, 0, 1175, 1176, 1176, 1176, 1177, 0, 0, 0, 0, 0, 0, 0, 1175, 1176, 1176, 1176, 1177, 0, 0, 0, 0, 0, 0, 0, 257, 1060, 258, 1060, 258, 1060, 258, 259, 0, 257, 258, 1060, 258, 1060, 258, 1060, 259, 0, 0, 0, 380, 372, 0, 0, 0, 1207, 1208, 1208, 1208, 1209, 0, 0, 0, 0, 0, 0, 0, 1207, 1208, 1208, 1208, 1209, 0, 0, 0, 0, 0, 0, 0, 265, 266, 266, 266, 266, 266, 266, 267, 0, 265, 266, 266, 266, 266, 266, 266, 267, 0, 0, 0, 380, 372, 0, 0, 0, 0, 0, 0, 0, 0, 0, 0, 0, 0, 0, 0, 0, 0, 0, 0, 0, 0, 0, 0, 0, 0, 0, 0, 0, 0, 0, 0, 0, 0, 0, 0, 0, 0, 0, 0, 0, 0, 0, 0, 0, 0, 0, 0, 0, 380, 372, 0, 0, 0, 0, 0, 0, 0, 0, 0, 0, 0, 0, 0, 0, 0, 0, 0, 0, 0, 0, 0, 0, 0, 0, 0, 0, 0, 0, 0, 0, 0, 0, 0, 0, 0, 0, 0, 0, 0, 0, 0, 0, 0, 0, 0, 0, 0, 380, 372, 0, 0, 0, 0, 0, 0, 0, 0, 0, 0, 0, 0, 0, 0, 0, 0, 0, 0, 0, 0, 0, 0, 0, 0, 0, 0, 0, 0, 0, 0, 0, 0, 0, 0, 0, 0, 0, 0, 0, 0, 0, 0, 0, 0, 0, 0, 0, 380, 372, 0, 0, 0, 0, 0, 0, 0, 0, 0, 0, 0, 0, 0, 0, 0, 0, 0, 0, 0, 0, 0, 0, 0, 0, 0, 0, 0, 0, 0, 0, 0, 0, 0, 0, 0, 0, 0, 0, 0, 0, 0, 0, 0, 0, 0, 0, 0, 380, 372, 0, 0, 0, 0, 0, 0, 0, 0, 0, 0, 0, 0, 0, 0, 0, 0, 0, 0, 0, 0, 0, 0, 0, 0, 0, 0, 0, 0, 0, 0, 0, 0, 0, 0, 0, 0, 0, 0, 0, 0, 0, 0, 0, 0, 0, 0, 0, 380, 369, 370, 370, 370, 370, 370, 370, 370, 370, 370, 370, 370, 370, 370, 370, 370, 370, 370, 370, 370, 370, 370, 370, 370, 370, 370, 370, 370, 370, 370, 370, 370, 370, 370, 370, 370, 370, 370, 370, 370, 370, 370, 370, 370, 370, 370, 370, 0, 371, 377, 378, 378, 378, 378, 378, 378, 378, 378, 378, 378, 378, 378, 378, 378, 378, 378, 378, 378, 378, 378, 378, 378, 378, 378, 378, 378, 378, 378, 378, 378, 378, 378, 378, 378, 378, 378, 378, 378, 378, 378, 378, 378, 378, 378, 378, 378, 0, 379],
         "height":48,
         "name":"walls",
         "opacity":1,
         "type":"tilelayer",
         "visible":true,
         "width":49,
         "x":0,
         "y":0
        }, 
        {
         "data":[0, 0, 0, 1103, 1104, 1104, 1104, 1104, 1104, 1104, 1104, 1104, 1104, 1104, 1104, 1104, 1104, 1104, 1105, 0, 0, 0, 0, 0, 0, 0, 0, 0, 0, 0, 1103, 1104, 1104, 1104, 1104, 1104, 1104, 1104, 1104, 1104, 1104, 1104, 1104, 1104, 1104, 1105, 0, 0, 0, 0, 0, 0, 1135, 1136, 1136, 1136, 1136, 1136, 1136, 1136, 1136, 1136, 1136, 1136, 1136, 1136, 1136, 1137, 0, 0, 0, 1058, 0, 0, 0, 1059, 0, 993, 0, 1135, 1136, 1136, 1136, 1136, 1136, 1136, 1136, 1136, 1136, 1136, 1136, 1136, 1136, 1136, 1137, 0, 0, 0, 780, 781, 782, 1167, 1168, 1168, 1168, 1168, 1168, 1168, 1168, 1168, 1168, 1168, 1168, 1168, 1168, 1168, 1169, 0, 0, 0, 1058, 0, 0, 0, 1059, 0, 1025, 0, 1167, 1168, 1168, 1168, 1168, 1168, 1168, 1168, 1168, 1168, 1168, 1168, 1168, 1168, 1168, 1169, 780, 781, 782, 372, 795, 796, 1199, 1200, 1200, 1200, 1200, 1200, 1200, 1200, 1200, 1200, 1200, 1200, 1200, 1200, 1200, 1201, 0, 0, 0, 0, 0, 0, 0, 0, 0, 1057, 0, 1199, 1200, 1200, 1200, 1200, 1200, 1200, 1200, 1200, 1200, 1200, 1200, 1200, 1200, 1200, 1201, 0, 795, 796, 0, 0, 0, 0, 0, 0, 0, 0, 0, 0, 0, 0, 0, 0, 0, 0, 0, 0, 0, 0, 0, 0, 0, 0, 0, 0, 0, 0, 0, 0, 0, 0, 0, 0, 0, 0, 0, 0, 0, 0, 0, 0, 0, 0, 0, 0, 0, 0, 0, 0, 0, 0, 0, 0, 0, 0, 0, 0, 0, 0, 0, 0, 0, 0, 0, 0, 0, 0, 0, 0, 0, 0, 0, 0, 0, 0, 0, 0, 0, 0, 0, 0, 0, 0, 0, 0, 0, 0, 0, 0, 0, 0, 0, 0, 0, 0, 0, 0, 0, 0, 0, 0, 0, 0, 0, 0, 0, 0, 0, 0, 0, 0, 0, 0, 0, 0, 0, 0, 0, 0, 0, 0, 0, 0, 0, 0, 0, 0, 0, 0, 0, 0, 0, 0, 0, 0, 0, 0, 0, 0, 0, 0, 0, 0, 0, 0, 0, 0, 0, 0, 0, 0, 0, 0, 0, 0, 0, 0, 0, 0, 0, 0, 0, 0, 0, 0, 0, 0, 0, 0, 0, 0, 0, 0, 0, 0, 0, 0, 0, 0, 0, 0, 0, 0, 0, 0, 0, 0, 0, 0, 0, 0, 0, 0, 0, 0, 0, 0, 0, 0, 0, 0, 0, 0, 0, 0, 0, 0, 0, 0, 0, 0, 0, 0, 0, 0, 0, 0, 0, 0, 0, 0, 0, 0, 0, 0, 0, 0, 0, 0, 0, 0, 0, 0, 0, 0, 0, 0, 0, 0, 0, 0, 0, 0, 0, 0, 0, 0, 0, 0, 0, 0, 0, 0, 0, 0, 0, 0, 0, 0, 0, 0, 0, 0, 0, 0, 0, 0, 0, 0, 0, 0, 0, 0, 0, 0, 0, 0, 0, 0, 0, 0, 0, 0, 0, 0, 0, 0, 0, 0, 0, 0, 0, 0, 0, 0, 0, 0, 0, 0, 0, 0, 0, 0, 0, 0, 0, 0, 0, 0, 0, 0, 0, 0, 0, 0, 0, 0, 0, 0, 0, 0, 0, 0, 0, 0, 0, 0, 0, 0, 0, 0, 0, 0, 0, 0, 0, 0, 0, 0, 0, 0, 0, 0, 0, 0, 0, 0, 0, 0, 0, 0, 0, 0, 0, 0, 0, 0, 0, 0, 0, 0, 0, 0, 0, 0, 0, 0, 0, 0, 0, 0, 0, 0, 0, 0, 0, 0, 0, 0, 0, 0, 0, 0, 0, 0, 0, 0, 0, 0, 0, 0, 0, 0, 0, 0, 0, 0, 0, 0, 0, 0, 0, 0, 0, 0, 0, 0, 0, 0, 0, 0, 0, 0, 0, 0, 0, 0, 0, 0, 0, 0, 0, 0, 0, 0, 0, 0, 0, 0, 0, 0, 0, 0, 0, 0, 0, 0, 0, 0, 0, 0, 0, 0, 0, 0, 0, 0, 0, 0, 0, 0, 0, 0, 0, 0, 0, 0, 0, 0, 0, 0, 0, 0, 0, 0, 0, 0, 0, 0, 0, 0, 0, 0, 0, 0, 0, 0, 0, 0, 0, 0, 0, 0, 0, 0, 0, 0, 0, 0, 0, 0, 0, 0, 0, 0, 0, 0, 0, 0, 0, 0, 0, 0, 0, 0, 0, 0, 0, 0, 0, 0, 0, 0, 0, 0, 0, 0, 0, 0, 0, 0, 0, 0, 0, 0, 0, 0, 0, 0, 0, 0, 0, 0, 0, 0, 0, 0, 0, 0, 0, 0, 0, 0, 0, 0, 0, 0, 0, 0, 0, 0, 0, 0, 0, 0, 0, 0, 0, 0, 0, 0, 0, 0, 0, 0, 0, 0, 0, 0, 0, 0, 0, 0, 0, 0, 0, 0, 0, 0, 0, 0, 0, 0, 0, 0, 0, 0, 0, 0, 0, 0, 0, 0, 0, 0, 0, 0, 0, 0, 0, 0, 0, 0, 0, 0, 0, 0, 0, 0, 0, 0, 0, 0, 0, 0, 0, 0, 0, 0, 0, 0, 0, 0, 0, 0, 0, 0, 0, 0, 0, 0, 0, 0, 0, 0, 0, 0, 0, 0, 0, 0, 0, 0, 0, 0, 0, 0, 0, 0, 0, 0, 0, 0, 0, 0, 0, 0, 0, 0, 0, 0, 0, 0, 0, 0, 0, 0, 0, 0, 0, 0, 0, 0, 1011, 0, 0, 0, 0, 0, 978, 0, 0, 0, 0, 0, 0, 0, 0, 0, 0, 0, 0, 0, 0, 0, 0, 0, 0, 0, 0, 0, 0, 0, 0, 0, 0, 0, 0, 0, 0, 0, 0, 0, 0, 946, 0, 0, 0, 946, 0, 0, 0, 0, 0, 0, 0, 0, 0, 0, 0, 0, 0, 0, 0, 0, 0, 0, 0, 0, 0, 0, 0, 0, 0, 0, 0, 0, 0, 0, 0, 0, 0, 0, 0, 0, 0, 0, 0, 0, 0, 0, 0, 0, 0, 0, 0, 0, 0, 0, 0, 0, 0, 0, 0, 0, 0, 0, 0, 0, 0, 0, 0, 0, 0, 0, 0, 0, 0, 0, 0, 0, 0, 0, 0, 0, 0, 0, 0, 0, 0, 0, 0, 0, 0, 0, 0, 0, 0, 0, 0, 0, 0, 1042, 0, 0, 0, 979, 0, 0, 0, 0, 0, 979, 0, 0, 0, 0, 0, 0, 0, 0, 0, 0, 0, 0, 0, 0, 0, 0, 0, 0, 0, 0, 0, 0, 0, 0, 0, 0, 0, 0, 0, 0, 0, 0, 0, 0, 0, 0, 0, 0, 1042, 0, 0, 0, 0, 0, 0, 0, 0, 0, 0, 0, 0, 0, 1043, 0, 0, 0, 0, 0, 0, 0, 0, 0, 0, 0, 0, 0, 0, 0, 0, 0, 0, 0, 0, 0, 0, 0, 0, 0, 0, 0, 0, 0, 0, 0, 0, 0, 0, 0, 0, 0, 0, 0, 0, 0, 0, 0, 0, 0, 0, 0, 0, 0, 0, 0, 0, 0, 0, 0, 0, 0, 0, 0, 0, 0, 0, 0, 0, 0, 0, 0, 0, 0, 0, 0, 0, 0, 0, 0, 0, 0, 0, 0, 0, 0, 0, 0, 0, 0, 0, 0, 0, 0, 0, 0, 0, 0, 0, 0, 0, 0, 0, 0, 0, 0, 0, 0, 0, 0, 0, 0, 0, 0, 0, 0, 0, 0, 0, 0, 0, 0, 0, 0, 0, 0, 0, 0, 0, 0, 0, 0, 0, 0, 0, 0, 0, 0, 0, 0, 0, 0, 0, 0, 0, 0, 0, 0, 0, 0, 0, 0, 0, 0, 0, 0, 0, 0, 0, 0, 0, 0, 0, 0, 0, 0, 0, 0, 0, 0, 0, 0, 0, 0, 0, 0, 0, 0, 0, 0, 0, 0, 0, 0, 0, 0, 0, 0, 0, 0, 0, 0, 0, 0, 0, 0, 0, 0, 0, 0, 0, 0, 0, 0, 0, 0, 0, 0, 0, 0, 0, 0, 0, 0, 0, 0, 0, 0, 0, 0, 0, 0, 0, 0, 0, 0, 0, 0, 0, 0, 0, 0, 0, 0, 0, 0, 0, 0, 0, 0, 0, 0, 0, 0, 0, 0, 0, 0, 0, 0, 0, 0, 0, 0, 0, 0, 0, 0, 0, 0, 0, 0, 0, 0, 0, 0, 0, 0, 0, 0, 0, 0, 0, 0, 0, 0, 0, 0, 0, 0, 0, 0, 0, 0, 0, 0, 0, 0, 0, 0, 0, 0, 0, 0, 0, 0, 0, 0, 0, 0, 0, 0, 0, 0, 0, 0, 0, 0, 0, 0, 0, 0, 0, 0, 0, 0, 0, 0, 0, 0, 0, 0, 0, 0, 0, 0, 0, 0, 0, 0, 0, 0, 0, 0, 0, 0, 0, 0, 0, 0, 0, 0, 0, 0, 0, 0, 0, 0, 0, 0, 0, 0, 0, 0, 0, 0, 0, 0, 0, 0, 0, 0, 0, 0, 0, 0, 0, 0, 0, 0, 0, 0, 0, 0, 0, 0, 0, 0, 0, 0, 0, 0, 0, 0, 0, 0, 0, 0, 0, 0, 0, 0, 0, 0, 0, 0, 0, 0, 0, 0, 0, 0, 0, 0, 0, 0, 0, 0, 0, 0, 0, 0, 0, 0, 0, 0, 0, 0, 0, 0, 0, 0, 0, 0, 0, 0, 0, 0, 0, 0, 0, 0, 0, 0, 0, 0, 0, 0, 0, 0, 0, 0, 0, 0, 0, 0, 0, 0, 0, 0, 0, 0, 0, 0, 0, 0, 0, 0, 0, 0, 0, 0, 0, 0, 0, 0, 0, 0, 0, 0, 0, 0, 0, 0, 0, 0, 0, 0, 0, 0, 0, 0, 0, 0, 0, 0, 0, 0, 0, 0, 0, 0, 0, 0, 0, 0, 0, 0, 0, 0, 0, 0, 0, 0, 0, 0, 0, 0, 0, 0, 0, 0, 0, 0, 0, 0, 0, 0, 0, 0, 0, 0, 0, 0, 0, 0, 0, 0, 0, 0, 0, 0, 0, 0, 0, 0, 0, 0, 0, 0, 0, 0, 0, 0, 0, 0, 0, 0, 0, 0, 0, 0, 0, 0, 0, 0, 0, 0, 0, 0, 0, 0, 0, 0, 0, 0, 0, 0, 0, 0, 0, 0, 0, 0, 0, 0, 0, 0, 0, 0, 0, 0, 0, 0, 0, 0, 0, 0, 0, 0, 0, 0, 0, 0, 0, 0, 0, 0, 0, 0, 0, 0, 0, 0, 0, 0, 0, 0, 0, 0, 0, 0, 0, 0, 0, 0, 0, 0, 0, 0, 0, 0, 0, 0, 0, 0, 0, 0, 0, 0, 0, 0, 0, 0, 0, 0, 0, 0, 0, 0, 0, 0, 0, 0, 0, 0, 0, 0, 0, 0, 0, 0, 0, 0, 0, 0, 0, 0, 0, 0, 0, 0, 0, 0, 0, 0, 0, 0, 0, 0, 0, 0, 0, 0, 0, 0, 979, 0, 0, 0, 1011, 0, 0, 0, 0, 0, 0, 0, 978, 0, 1044, 0, 0, 0, 0, 0, 0, 0, 0, 0, 0, 0, 0, 0, 0, 0, 0, 0, 0, 0, 0, 0, 0, 0, 0, 0, 0, 0, 0, 0, 0, 0, 0, 0, 0, 0, 0, 0, 0, 0, 0, 0, 0, 0, 0, 0, 0, 0, 0, 1044, 0, 0, 0, 0, 0, 0, 0, 0, 0, 0, 0, 0, 0, 0, 0, 0, 0, 0, 0, 0, 0, 0, 0, 0, 0, 0, 0, 0, 0, 0, 0, 0, 0, 0, 0, 0, 0, 0, 0, 0, 0, 0, 0, 0, 0, 0, 0, 0, 0, 0, 0, 0, 0, 0, 0, 0, 0, 0, 0, 0, 0, 0, 0, 0, 0, 0, 0, 0, 0, 0, 0, 0, 0, 0, 0, 0, 0, 0, 0, 0, 0, 0, 0, 0, 0, 0, 0, 979, 0, 0, 0, 0, 0, 978, 0, 0, 0, 0, 0, 0, 0, 0, 0, 0, 0, 0, 0, 0, 0, 0, 0, 0, 0, 0, 0, 0, 0, 0, 0, 0, 0, 0, 0, 0, 0, 0, 0, 0, 0, 0, 0, 0, 1043, 0, 0, 0, 0, 0, 0, 0, 0, 0, 0, 0, 0, 0, 0, 0, 0, 0, 0, 0, 0, 0, 0, 0, 0, 0, 0, 0, 0, 0, 0, 0, 0, 0, 0, 0, 0, 0, 0, 0, 0, 0, 0, 0, 0, 0, 0, 0, 0, 0, 0, 0, 0, 0, 0, 0, 0, 0, 0, 0, 0, 0, 0, 0, 0, 0, 0, 0, 0, 0, 0, 0, 0, 0, 0, 0, 0, 0, 0, 0, 0, 0, 0, 0, 0, 0, 0, 0, 0, 0, 0, 0, 0, 0, 0, 0, 0, 0, 0, 0, 0, 0, 0, 0, 0, 0, 0, 0, 0, 0, 0, 0, 0, 0, 0, 0, 0, 0, 0, 0, 0, 0, 0, 0, 0, 0, 0, 0, 0, 0, 0, 0, 0, 0, 0, 0, 0, 0, 0, 0, 0, 0, 0, 0, 0, 0, 0, 0, 0, 0, 0, 0, 0, 0, 0, 0, 0, 0, 0, 0, 0, 0, 0, 0, 0, 0, 0, 0, 0, 0, 0, 0, 0, 0, 0, 0, 0, 0, 0, 0, 0, 0, 0, 0, 0, 0, 0, 0, 0, 0, 0, 0, 0, 0, 0, 0, 0, 0, 0, 0, 0, 0, 0, 0, 0, 0, 0, 0, 0, 0, 0, 0, 0, 0, 0, 0, 0, 0, 0, 0, 0, 0, 0, 0, 0, 0, 0, 0, 0, 0, 0, 0, 0, 0, 0, 0, 0, 0, 0, 0, 0, 0, 0, 0, 0, 0, 0, 0, 0, 0, 0, 0, 0, 0, 0, 0, 0, 0, 0, 0, 0, 0, 0, 0, 0, 0, 0, 0, 0, 0, 0, 0, 0, 0, 0, 0, 0, 0, 0, 0, 0, 0, 0, 0, 0, 0, 0, 0, 0, 0, 0, 0, 0, 0, 0, 0, 0, 0, 0, 0, 0, 0, 0, 0, 0, 0, 0, 0, 0, 0, 0, 0, 0, 0, 0, 0, 0, 0, 0, 0, 0, 0, 0, 0, 0, 0, 0, 0, 0, 0, 0, 0, 0, 0, 0, 0, 0, 0, 0, 0, 0, 0, 0, 0, 0, 0, 0, 0, 0, 0, 0, 0, 0, 0, 0, 0, 0, 0, 0, 0, 0, 0, 0, 0, 0, 0, 0, 0, 0, 0, 0, 0, 0, 0, 0, 0, 0, 0, 0, 0, 0, 0, 0, 0, 0, 0, 0, 0, 0, 0, 0, 0, 0, 0, 0, 0, 0, 0, 0, 0, 0, 0, 0, 0, 0, 0, 0, 0, 0, 0, 0, 0],
         "height":48,
         "name":"decals",
         "opacity":1,
         "type":"tilelayer",
         "visible":true,
         "width":49,
         "x":0,
         "y":0
        }, 
        {
         "data":[0, 0, 0, 0, 0, 0, 0, 0, 0, 0, 0, 0, 0, 0, 0, 0, 0, 0, 0, 0, 0, 0, 0, 0, 0, 0, 0, 0, 0, 0, 0, 0, 0, 0, 0, 0, 0, 0, 0, 0, 0, 0, 0, 0, 0, 0, 0, 0, 0, 0, 0, 0, 0, 0, 0, 0, 0, 0, 0, 0, 0, 0, 0, 0, 0, 0, 0, 0, 0, 0, 0, 0, 0, 0, 0, 0, 0, 0, 0, 0, 0, 0, 0, 0, 0, 0, 0, 0, 0, 0, 0, 0, 0, 0, 0, 0, 0, 0, 0, 0, 0, 0, 0, 0, 0, 0, 0, 0, 0, 0, 0, 0, 0, 0, 0, 0, 0, 0, 0, 0, 0, 0, 0, 0, 0, 0, 0, 0, 0, 0, 0, 0, 0, 0, 0, 0, 0, 0, 0, 0, 0, 0, 0, 0, 0, 0, 0, 0, 0, 0, 0, 0, 0, 0, 0, 0, 0, 0, 0, 0, 0, 0, 0, 0, 0, 0, 0, 0, 0, 0, 0, 0, 0, 0, 0, 0, 0, 0, 0, 0, 0, 0, 0, 0, 0, 0, 0, 0, 0, 0, 0, 0, 0, 0, 0, 380, 0, 1470, 1470, 1470, 1470, 1470, 1470, 1470, 1470, 1470, 1470, 1470, 1470, 1470, 1470, 1470, 1470, 1470, 1470, 1470, 1470, 0, 0, 0, 0, 0, 0, 0, 1470, 1470, 1470, 1470, 1470, 1470, 1470, 1470, 1470, 1470, 1470, 1470, 1470, 1470, 1470, 1470, 1470, 1470, 1470, 1470, 0, 0, 0, 0, 0, 0, 0, 0, 0, 0, 0, 0, 0, 0, 0, 0, 0, 0, 0, 0, 0, 0, 0, 0, 0, 0, 0, 0, 0, 0, 0, 0, 0, 0, 0, 0, 0, 0, 0, 0, 0, 0, 0, 0, 0, 0, 0, 0, 0, 0, 0, 0, 0, 0, 0, 0, 0, 0, 0, 0, 0, 0, 0, 0, 0, 0, 0, 0, 0, 0, 0, 0, 0, 0, 0, 0, 0, 0, 0, 0, 0, 0, 0, 0, 0, 0, 0, 0, 0, 0, 0, 0, 0, 0, 0, 0, 0, 0, 0, 0, 0, 0, 0, 0, 0, 0, 0, 0, 0, 0, 0, 0, 0, 0, 0, 0, 0, 0, 0, 0, 0, 0, 0, 0, 0, 0, 0, 0, 0, 0, 0, 0, 0, 0, 0, 0, 0, 0, 0, 0, 0, 0, 0, 0, 0, 0, 0, 0, 0, 0, 0, 0, 0, 0, 0, 0, 0, 0, 0, 0, 0, 0, 0, 0, 0, 0, 0, 0, 0, 0, 0, 0, 0, 0, 0, 0, 0, 0, 0, 0, 0, 0, 0, 0, 0, 0, 0, 0, 0, 0, 0, 0, 0, 0, 0, 0, 0, 0, 0, 0, 0, 0, 0, 0, 0, 0, 0, 0, 0, 0, 0, 0, 0, 0, 0, 0, 0, 0, 0, 0, 0, 0, 0, 0, 0, 0, 0, 0, 0, 0, 0, 0, 0, 0, 0, 0, 0, 0, 0, 0, 0, 0, 0, 0, 0, 0, 0, 0, 0, 0, 0, 0, 0, 0, 0, 0, 0, 0, 0, 0, 0, 0, 0, 0, 0, 0, 0, 0, 0, 0, 0, 0, 0, 0, 0, 0, 0, 0, 0, 0, 0, 0, 0, 0, 0, 0, 0, 0, 0, 0, 0, 0, 0, 0, 0, 0, 0, 0, 0, 0, 0, 0, 0, 0, 0, 0, 0, 0, 0, 0, 0, 0, 0, 0, 0, 0, 0, 0, 0, 0, 0, 0, 0, 0, 0, 0, 0, 0, 0, 0, 0, 0, 0, 0, 0, 0, 0, 0, 0, 0, 0, 0, 0, 0, 0, 0, 0, 0, 0, 0, 0, 0, 0, 0, 0, 0, 0, 0, 0, 0, 0, 0, 0, 0, 0, 0, 0, 0, 0, 0, 0, 0, 0, 0, 0, 0, 0, 0, 0, 0, 0, 0, 0, 0, 0, 0, 0, 0, 0, 0, 0, 0, 0, 0, 0, 0, 0, 0, 0, 0, 0, 0, 0, 0, 0, 0, 0, 0, 0, 0, 0, 0, 0, 0, 0, 0, 0, 0, 0, 0, 0, 0, 0, 0, 0, 0, 0, 0, 0, 0, 0, 0, 0, 0, 0, 0, 0, 0, 0, 0, 0, 0, 0, 0, 0, 0, 0, 0, 0, 0, 0, 0, 0, 0, 0, 0, 0, 0, 0, 0, 0, 0, 0, 0, 0, 0, 0, 0, 0, 0, 0, 0, 0, 0, 0, 0, 0, 0, 0, 0, 0, 0, 0, 0, 0, 0, 0, 0, 0, 0, 0, 0, 0, 0, 0, 0, 0, 0, 0, 0, 0, 0, 0, 0, 0, 0, 0, 0, 0, 0, 0, 0, 0, 0, 0, 0, 0, 0, 0, 0, 0, 0, 0, 0, 0, 0, 0, 0, 0, 0, 0, 0, 0, 0, 0, 0, 0, 0, 0, 0, 0, 0, 0, 0, 0, 0, 0, 0, 0, 0, 0, 0, 0, 0, 0, 0, 0, 0, 0, 0, 0, 0, 0, 0, 0, 0, 0, 0, 0, 0, 0, 0, 0, 0, 0, 0, 0, 0, 0, 0, 0, 0, 0, 0, 0, 0, 0, 0, 0, 0, 0, 0, 0, 0, 0, 0, 0, 0, 0, 0, 0, 0, 0, 0, 0, 0, 0, 0, 0, 0, 0, 0, 0, 0, 0, 0, 0, 0, 0, 0, 0, 0, 0, 0, 0, 0, 0, 0, 0, 0, 0, 0, 0, 0, 0, 0, 0, 0, 0, 0, 0, 0, 0, 0, 0, 0, 0, 0, 0, 0, 0, 0, 0, 0, 0, 0, 0, 0, 0, 0, 0, 0, 0, 0, 0, 0, 0, 0, 0, 0, 0, 0, 0, 0, 0, 0, 0, 0, 0, 0, 0, 0, 0, 0, 0, 0, 0, 0, 0, 0, 0, 0, 0, 0, 0, 0, 0, 0, 0, 0, 0, 0, 0, 0, 0, 0, 0, 0, 0, 0, 0, 0, 0, 0, 0, 0, 0, 0, 0, 0, 0, 0, 0, 0, 0, 0, 0, 0, 0, 0, 0, 0, 0, 0, 0, 0, 0, 0, 0, 0, 0, 0, 0, 0, 0, 0, 0, 0, 0, 0, 0, 0, 0, 0, 0, 0, 0, 0, 0, 0, 0, 0, 0, 0, 0, 0, 0, 0, 0, 0, 0, 0, 0, 0, 0, 0, 0, 0, 0, 0, 0, 0, 0, 0, 0, 0, 0, 0, 0, 0, 0, 0, 0, 0, 0, 0, 0, 0, 0, 0, 0, 0, 0, 0, 0, 0, 0, 0, 0, 0, 0, 0, 0, 0, 0, 0, 0, 0, 0, 0, 0, 0, 0, 0, 0, 0, 0, 0, 0, 0, 0, 0, 0, 0, 0, 0, 0, 0, 0, 0, 0, 0, 0, 0, 0, 0, 0, 0, 0, 0, 0, 0, 0, 0, 0, 0, 0, 0, 0, 0, 0, 0, 0, 0, 0, 0, 0, 0, 0, 0, 0, 0, 0, 0, 0, 0, 0, 0, 0, 0, 0, 0, 0, 0, 0, 0, 0, 0, 0, 0, 0, 0, 0, 0, 0, 0, 0, 0, 0, 0, 0, 0, 0, 0, 0, 0, 0, 0, 0, 0, 0, 0, 0, 0, 0, 0, 0, 0, 0, 0, 0, 0, 0, 0, 0, 0, 0, 0, 0, 0, 0, 0, 0, 0, 0, 0, 0, 0, 0, 0, 0, 0, 0, 0, 0, 0, 0, 0, 0, 0, 0, 0, 0, 0, 0, 0, 0, 0, 0, 0, 0, 0, 0, 0, 0, 0, 0, 0, 0, 0, 0, 0, 0, 0, 0, 0, 0, 0, 0, 0, 0, 0, 0, 0, 0, 0, 0, 0, 0, 0, 0, 0, 0, 0, 0, 0, 0, 0, 0, 0, 0, 0, 0, 0, 0, 0, 0, 0, 0, 0, 0, 0, 0, 0, 0, 0, 0, 0, 0, 0, 0, 0, 0, 0, 0, 0, 0, 0, 0, 0, 0, 0, 0, 0, 0, 0, 0, 0, 0, 0, 0, 0, 0, 0, 0, 0, 0, 0, 0, 0, 0, 0, 0, 0, 0, 0, 0, 0, 0, 0, 0, 0, 0, 0, 0, 0, 0, 0, 0, 0, 0, 0, 0, 0, 0, 0, 0, 0, 0, 0, 0, 0, 0, 0, 0, 0, 0, 0, 0, 0, 0, 0, 0, 0, 0, 0, 0, 0, 0, 0, 0, 0, 0, 0, 0, 0, 0, 0, 0, 0, 0, 0, 0, 0, 0, 0, 0, 0, 0, 0, 0, 0, 0, 0, 0, 0, 0, 0, 0, 0, 0, 0, 0, 0, 0, 0, 0, 0, 0, 0, 0, 0, 0, 0, 0, 0, 0, 0, 0, 0, 0, 0, 0, 0, 0, 0, 0, 0, 0, 0, 0, 0, 0, 0, 0, 0, 0, 0, 0, 0, 0, 0, 0, 0, 0, 0, 0, 0, 0, 0, 0, 0, 0, 0, 0, 0, 0, 0, 0, 0, 0, 0, 0, 0, 0, 0, 0, 0, 0, 0, 0, 0, 0, 0, 0, 0, 0, 0, 0, 0, 0, 0, 0, 0, 0, 0, 0, 0, 0, 0, 0, 0, 0, 0, 0, 0, 0, 0, 0, 0, 0, 0, 0, 0, 0, 0, 0, 0, 0, 0, 0, 0, 0, 0, 0, 0, 0, 0, 0, 0, 0, 0, 0, 0, 0, 0, 0, 0, 0, 0, 0, 0, 0, 0, 0, 0, 0, 0, 0, 0, 0, 0, 0, 0, 0, 0, 0, 0, 0, 0, 0, 0, 0, 0, 0, 0, 0, 0, 0, 0, 0, 0, 0, 0, 0, 0, 0, 0, 0, 0, 0, 0, 0, 0, 0, 0, 0, 0, 0, 0, 0, 0, 0, 0, 0, 0, 0, 0, 0, 0, 0, 0, 0, 0, 0, 0, 0, 0, 0, 0, 0, 0, 0, 0, 0, 0, 0, 0, 0, 0, 0, 0, 0, 0, 0, 0, 0, 0, 0, 0, 0, 0, 0, 0, 0, 0, 0, 0, 0, 0, 0, 0, 0, 0, 0, 0, 0, 0, 0, 0, 0, 0, 0, 0, 0, 0, 0, 0, 0, 0, 0, 0, 0, 0, 0, 0, 0, 0, 0, 0, 0, 0, 0, 0, 0, 0, 0, 0, 0, 0, 0, 0, 0, 0, 0, 0, 0, 0, 0, 0, 0, 0, 0, 0, 0, 0, 0, 0, 0, 0, 0, 0, 0, 0, 0, 0, 0, 0, 0, 0, 0, 0, 0, 0, 0, 0, 0, 0, 0, 0, 0, 0, 0, 0, 0, 0, 0, 0, 0, 0, 0, 0, 0, 0, 0, 0, 0, 0, 0, 0, 0, 0, 0, 0, 0, 0, 0, 0, 0, 0, 0, 0, 0, 0, 0, 0, 0, 0, 0, 0, 0, 0, 0, 0, 0, 0, 0, 0, 0, 0, 0, 0, 0, 0, 0, 0, 0, 0, 0, 0, 0, 0, 0, 0, 0, 0, 0, 0, 0, 0, 0, 0, 0, 0, 0, 0, 0, 0, 0, 0, 0, 0, 0, 0, 0, 0, 0, 0, 0, 0, 0, 0, 0, 0, 0, 0, 0, 0, 0, 0, 0, 0, 0, 0, 0, 0, 0, 0, 0, 0, 0, 0, 0, 0, 0, 0, 0, 0, 0, 0, 0, 0, 0, 0, 0, 0, 0, 0, 0, 0, 0, 0, 0, 0, 0, 0, 0, 0, 0, 0, 0, 0, 0, 0, 0, 0, 0, 0, 0, 0, 0, 0, 0, 0, 0, 0, 0, 0, 0, 0, 0, 0, 0, 0, 0, 0, 0, 0, 0, 0, 0, 0, 0, 0, 0, 0, 0, 0, 0, 0, 0, 0, 0, 0, 0, 0, 0, 0, 0, 0, 0, 0, 0, 0, 0, 0, 0, 0, 0, 0, 0, 0, 0, 0, 0, 0, 0, 0, 0, 0, 0, 0, 0, 0, 0, 0, 0, 0, 0, 0, 0, 0, 0, 0, 0, 0, 0, 0, 0, 0, 0, 0, 0, 0, 0, 0, 0, 0, 0, 0, 0, 0, 0, 0, 0, 0, 0, 0, 0, 0, 0, 0, 0, 0, 0, 0, 0, 0, 0, 0, 0, 0, 0, 0, 0, 0, 0, 0, 0, 0, 0, 0, 0, 0, 0, 0, 0, 0, 0, 0, 0, 0, 0, 0, 0, 0, 0, 0, 0, 0, 0, 0, 0, 0, 0, 0, 0, 0, 0, 0, 0, 0, 0, 0, 0, 0, 0, 0, 0, 0, 0, 0, 0, 0, 0, 0, 0, 0, 0, 0, 0, 0, 0, 0, 0, 0, 0, 0, 0, 0, 0, 0, 0, 0, 0, 0, 0, 0, 0, 0, 0, 0, 0, 0, 0, 0, 0, 0, 0, 0, 0, 0, 0, 0, 0, 0, 0, 0, 0, 0, 0, 0, 0, 0, 0, 0, 0, 0, 0, 0, 0, 0, 0, 0, 0, 0, 0, 0, 0, 0, 0, 0, 0, 0, 0, 0, 0, 0, 0, 0, 0, 0, 0, 0, 0, 0, 0, 0, 0, 0, 0, 0, 0, 0, 0, 0, 0, 0, 0, 0, 0, 0, 0, 0, 0, 0, 0, 0, 0, 0, 0, 0, 0, 0, 0, 0, 0, 0, 0, 0, 0, 0, 0, 0, 0, 0, 0, 0, 0, 0, 0, 0, 0, 0, 0, 0, 0, 0, 0, 0, 0, 0, 0, 0, 0, 0, 0, 0, 0, 0, 0, 0, 0, 0, 0, 0, 0, 0, 0, 0, 0, 0, 0, 0, 0, 0, 0, 0, 0, 0, 0, 0, 0, 0, 0, 0, 0, 0, 0, 0, 0, 0, 0, 0, 0, 0, 0, 0, 0, 0, 0, 0, 0, 0, 0, 0, 0, 0, 0, 0, 0, 0, 0, 0, 0, 0, 0, 0, 0, 0, 0, 0, 0, 0, 0, 0, 0, 0, 0, 0, 0, 0, 0, 0, 0, 0, 0, 0, 0, 0, 0, 0, 0, 0, 0, 0, 0, 0, 0, 0, 0, 0, 0, 0, 0, 0, 0, 0, 0, 0, 0, 0, 0, 0, 0, 0, 0, 0, 0, 0, 0, 0, 0, 0, 0, 0, 0, 0, 0, 0, 0, 0, 0, 0, 0, 0, 0, 0, 0, 0, 0, 0, 0, 0, 0, 0, 0, 0, 0, 0, 0, 0, 0, 0, 0, 0, 0, 0, 0, 0, 0, 0, 0, 0, 0, 0, 0, 0, 0, 0, 0, 0, 0, 0, 0, 0, 0, 0, 0, 0, 0, 0, 0, 0, 0, 0, 0, 0, 0, 0, 0, 0, 0, 0, 0, 0, 0, 0, 0, 0, 0, 0, 0, 0, 0, 0, 0, 0, 0, 0, 0, 0, 0, 0, 0, 0, 0, 0],
         "height":48,
         "name":"grass",
         "opacity":1,
         "type":"tilelayer",
         "visible":true,
         "width":49,
         "x":0,
         "y":0
        }, 
        {
         "draworder":"topdown",
         "height":48,
         "name":"doors",
         "objects":[
                {
                 "gid":561,
                 "height":0,
                 "name":"door1",
                 "properties":
                    {
                     "direction":"up",
                     "width":"1"
                    },
                 "rotation":0,
                 "type":"door",
                 "visible":true,
                 "width":0,
                 "x":1152,
                 "y":1312
                }, 
                {
                 "gid":561,
                 "height":0,
                 "name":"door2",
                 "properties":
                    {
                     "direction":"up",
                     "width":"1"
                    },
                 "rotation":0,
                 "type":"door",
                 "visible":true,
                 "width":0,
                 "x":1152,
                 "y":736
                }],
         "opacity":1,
         "type":"objectgroup",
         "visible":true,
         "width":41,
         "x":0,
         "y":0
        }, 
        {
         "data":[0, 0, 0, 0, 0, 0, 0, 0, 0, 0, 0, 0, 0, 0, 0, 0, 0, 0, 0, 0, 0, 0, 0, 0, 0, 0, 0, 0, 0, 0, 0, 0, 0, 0, 0, 0, 0, 0, 0, 0, 0, 0, 0, 0, 0, 0, 0, 0, 0, 0, 0, 0, 0, 0, 0, 0, 0, 0, 0, 0, 0, 0, 0, 0, 0, 0, 0, 0, 0, 0, 0, 0, 0, 0, 0, 0, 0, 0, 0, 0, 0, 0, 0, 0, 0, 0, 0, 0, 0, 0, 0, 0, 0, 0, 0, 0, 0, 0, 0, 0, 0, 0, 0, 0, 0, 0, 0, 0, 0, 0, 0, 0, 0, 0, 0, 0, 0, 0, 0, 0, 0, 0, 0, 0, 0, 0, 0, 0, 0, 0, 0, 0, 0, 0, 0, 0, 0, 0, 0, 0, 0, 0, 0, 0, 0, 0, 0, 0, 0, 0, 0, 0, 0, 0, 0, 0, 0, 0, 0, 0, 0, 0, 0, 0, 0, 0, 0, 0, 0, 0, 0, 0, 0, 0, 0, 0, 0, 0, 0, 0, 0, 0, 0, 0, 0, 0, 0, 0, 0, 0, 0, 0, 0, 0, 0, 0, 0, 0, 0, 0, 0, 0, 0, 0, 0, 0, 0, 0, 0, 0, 0, 0, 0, 0, 0, 0, 0, 0, 0, 0, 0, 0, 0, 0, 0, 0, 0, 0, 0, 0, 0, 0, 0, 0, 0, 0, 0, 0, 0, 0, 0, 0, 0, 0, 0, 0, 0, 0, 0, 0, 0, 0, 0, 0, 0, 0, 0, 0, 0, 0, 0, 0, 0, 0, 0, 0, 0, 0, 0, 0, 0, 0, 0, 0, 0, 0, 0, 0, 0, 0, 0, 0, 0, 0, 0, 0, 0, 0, 0, 0, 0, 0, 0, 0, 0, 0, 0, 0, 0, 0, 0, 0, 0, 0, 0, 0, 0, 0, 0, 0, 0, 0, 0, 0, 0, 0, 0, 0, 0, 0, 0, 0, 0, 0, 0, 0, 0, 0, 0, 0, 0, 0, 0, 0, 0, 0, 0, 0, 0, 0, 0, 0, 0, 0, 0, 0, 0, 0, 0, 0, 0, 0, 0, 0, 0, 0, 0, 0, 0, 0, 0, 0, 0, 0, 0, 0, 0, 0, 0, 0, 0, 0, 0, 0, 0, 0, 0, 0, 0, 0, 0, 0, 0, 0, 0, 0, 0, 0, 0, 0, 0, 0, 0, 0, 0, 0, 0, 0, 0, 0, 0, 0, 0, 0, 0, 0, 0, 0, 0, 0, 0, 0, 0, 0, 0, 0, 0, 0, 0, 0, 0, 0, 0, 0, 0, 0, 0, 0, 0, 0, 0, 0, 0, 0, 0, 0, 0, 0, 0, 0, 0, 0, 0, 0, 0, 0, 0, 0, 0, 0, 0, 0, 0, 0, 0, 0, 0, 0, 0, 0, 0, 0, 0, 0, 0, 0, 0, 0, 0, 0, 0, 0, 0, 0, 0, 0, 0, 0, 0, 0, 0, 0, 0, 0, 0, 0, 0, 0, 0, 0, 0, 0, 0, 1151, 0, 0, 0, 0, 0, 0, 0, 0, 0, 0, 0, 0, 0, 0, 0, 0, 0, 1159, 0, 0, 0, 0, 0, 0, 0, 0, 0, 0, 0, 0, 0, 0, 0, 0, 0, 0, 0, 0, 0, 0, 0, 0, 0, 0, 0, 0, 0, 0, 1183, 0, 0, 0, 0, 0, 0, 0, 0, 0, 0, 0, 0, 0, 0, 0, 0, 0, 1191, 0, 0, 0, 0, 0, 0, 0, 0, 0, 0, 0, 0, 0, 0, 0, 0, 0, 0, 0, 0, 0, 0, 0, 0, 0, 0, 0, 0, 0, 0, 1215, 0, 0, 0, 0, 0, 0, 0, 0, 0, 0, 0, 0, 0, 0, 0, 0, 0, 1223, 0, 0, 0, 0, 0, 0, 0, 0, 0, 0, 0, 0, 0, 0, 0, 0, 0, 0, 0, 0, 0, 0, 0, 0, 0, 0, 0, 0, 0, 0, 1215, 0, 0, 0, 0, 0, 0, 0, 0, 0, 0, 0, 0, 0, 0, 0, 0, 0, 1223, 0, 0, 0, 0, 0, 0, 0, 0, 0, 0, 0, 0, 0, 0, 0, 0, 0, 0, 0, 0, 0, 0, 0, 0, 0, 0, 0, 0, 0, 0, 1215, 0, 0, 0, 0, 0, 0, 0, 0, 0, 0, 0, 0, 0, 0, 0, 0, 0, 1223, 0, 0, 0, 0, 0, 0, 0, 0, 0, 0, 0, 0, 0, 0, 0, 0, 0, 0, 0, 0, 0, 0, 0, 0, 0, 0, 0, 0, 0, 0, 1215, 0, 0, 0, 0, 0, 0, 0, 0, 0, 0, 0, 0, 0, 0, 0, 0, 0, 1223, 0, 0, 0, 0, 0, 0, 0, 0, 0, 0, 0, 0, 0, 0, 0, 0, 0, 0, 0, 0, 0, 0, 0, 0, 0, 0, 0, 0, 0, 0, 1215, 0, 0, 0, 0, 0, 0, 0, 0, 0, 0, 0, 0, 0, 0, 0, 0, 0, 1223, 0, 0, 0, 0, 0, 0, 0, 0, 0, 0, 0, 0, 0, 0, 0, 0, 0, 0, 0, 0, 0, 0, 0, 0, 0, 0, 0, 0, 0, 0, 1215, 0, 0, 0, 0, 0, 0, 0, 0, 0, 0, 0, 0, 0, 0, 0, 0, 0, 1223, 0, 0, 0, 0, 0, 0, 0, 0, 0, 0, 0, 0, 0, 0, 0, 0, 0, 0, 0, 0, 0, 0, 0, 0, 0, 0, 0, 0, 0, 0, 1215, 0, 0, 0, 0, 0, 0, 0, 0, 0, 0, 0, 0, 0, 0, 0, 0, 0, 1223, 0, 0, 0, 0, 0, 0, 0, 0, 0, 0, 0, 0, 0, 0, 0, 0, 0, 0, 0, 0, 0, 0, 0, 0, 0, 0, 0, 0, 0, 0, 1215, 0, 0, 0, 0, 0, 0, 0, 0, 0, 0, 0, 0, 0, 0, 0, 0, 0, 1223, 0, 0, 0, 0, 0, 0, 0, 0, 0, 0, 0, 0, 0, 0, 0, 0, 0, 0, 0, 0, 0, 0, 0, 0, 0, 0, 0, 0, 0, 0, 1215, 0, 0, 0, 0, 0, 0, 0, 0, 0, 0, 0, 0, 0, 0, 0, 0, 0, 1223, 0, 0, 0, 0, 0, 0, 0, 0, 0, 0, 0, 0, 0, 0, 0, 0, 0, 0, 0, 0, 0, 0, 0, 0, 0, 0, 0, 0, 0, 0, 1215, 0, 0, 0, 0, 0, 0, 0, 0, 0, 0, 0, 0, 0, 0, 0, 0, 0, 1223, 0, 0, 0, 0, 0, 0, 0, 0, 0, 0, 0, 0, 0, 0, 279, 0, 0, 0, 0, 0, 0, 0, 0, 0, 0, 0, 0, 0, 0, 0, 1215, 0, 0, 0, 0, 0, 0, 0, 0, 0, 0, 0, 0, 0, 0, 0, 0, 0, 1223, 0, 0, 0, 0, 0, 0, 0, 0, 0, 0, 0, 0, 0, 0, 0, 0, 0, 0, 0, 0, 0, 0, 0, 0, 0, 0, 0, 0, 0, 0, 1215, 0, 0, 0, 0, 0, 0, 0, 0, 0, 0, 0, 0, 0, 0, 0, 0, 0, 1223, 0, 0, 0, 0, 0, 0, 0, 0, 0, 0, 0, 0, 0, 0, 0, 0, 0, 0, 0, 0, 0, 0, 0, 0, 0, 0, 0, 0, 0, 0, 1215, 0, 0, 0, 0, 0, 0, 0, 0, 0, 0, 0, 0, 0, 0, 0, 0, 0, 1223, 0, 0, 0, 0, 0, 0, 0, 0, 0, 0, 0, 0, 0, 0, 0, 0, 0, 0, 0, 0, 0, 0, 0, 0, 0, 0, 0, 0, 0, 0, 1215, 0, 0, 0, 0, 0, 0, 0, 0, 0, 0, 0, 0, 0, 0, 0, 0, 0, 1223, 0, 0, 0, 0, 0, 0, 0, 0, 0, 0, 0, 0, 0, 0, 0, 0, 0, 0, 0, 0, 0, 0, 0, 0, 0, 0, 0, 0, 0, 0, 1215, 0, 0, 0, 0, 0, 0, 0, 0, 0, 0, 0, 0, 0, 0, 0, 0, 0, 1223, 0, 0, 0, 0, 0, 0, 0, 0, 0, 0, 0, 0, 0, 0, 0, 0, 0, 0, 0, 0, 0, 0, 0, 0, 0, 0, 0, 0, 0, 0, 1215, 0, 0, 0, 0, 0, 0, 0, 0, 0, 0, 0, 0, 0, 0, 0, 0, 0, 1223, 0, 0, 0, 0, 0, 0, 0, 0, 0, 0, 0, 0, 0, 0, 0, 0, 0, 0, 0, 0, 0, 0, 0, 0, 0, 0, 0, 0, 0, 0, 1215, 0, 0, 0, 0, 0, 0, 0, 0, 0, 0, 0, 0, 0, 0, 0, 0, 0, 1223, 0, 0, 0, 0, 0, 0, 0, 0, 0, 0, 0, 0, 0, 0, 0, 0, 0, 0, 0, 0, 0, 0, 0, 0, 0, 0, 0, 0, 0, 0, 1215, 0, 0, 0, 0, 0, 0, 0, 0, 0, 0, 0, 0, 0, 0, 0, 0, 0, 1223, 0, 0, 0, 0, 0, 0, 0, 0, 0, 0, 0, 0, 0, 0, 0, 0, 0, 0, 0, 0, 0, 0, 0, 0, 0, 0, 0, 0, 0, 0, 1215, 0, 0, 0, 0, 0, 0, 0, 0, 0, 0, 0, 0, 0, 0, 0, 0, 0, 1223, 0, 0, 0, 0, 0, 0, 0, 0, 0, 0, 0, 0, 0, 0, 0, 0, 0, 0, 0, 0, 0, 0, 0, 0, 0, 0, 0, 0, 0, 0, 1215, 0, 0, 0, 0, 0, 0, 0, 0, 0, 0, 0, 0, 0, 0, 0, 0, 0, 1223, 0, 0, 0, 0, 0, 0, 0, 0, 0, 0, 0, 0, 0, 0, 0, 0, 0, 0, 0, 0, 0, 0, 0, 0, 0, 0, 0, 0, 0, 0, 1215, 0, 0, 0, 0, 0, 0, 0, 0, 0, 0, 0, 0, 0, 0, 0, 0, 0, 1223, 0, 0, 0, 0, 0, 0, 0, 0, 0, 0, 0, 0, 0, 0, 0, 0, 0, 0, 0, 0, 0, 0, 0, 0, 0, 0, 0, 0, 0, 0, 1215, 0, 0, 0, 0, 0, 0, 0, 0, 0, 0, 0, 0, 0, 0, 0, 0, 0, 1223, 0, 0, 0, 0, 0, 0, 0, 0, 0, 0, 0, 0, 0, 0, 0, 0, 0, 0, 0, 0, 0, 0, 0, 0, 0, 0, 0, 0, 0, 0, 1215, 0, 0, 0, 0, 0, 0, 0, 0, 0, 0, 0, 0, 0, 0, 0, 0, 0, 1223, 0, 0, 0, 0, 0, 0, 0, 0, 0, 0, 0, 0, 0, 0, 0, 0, 0, 0, 0, 0, 0, 0, 0, 0, 0, 0, 0, 0, 0, 0, 1247, 0, 0, 0, 0, 0, 0, 0, 0, 0, 0, 0, 0, 0, 0, 0, 0, 0, 1255, 0, 0, 0, 0, 0, 0, 0, 0, 0, 0, 0, 0, 0, 0, 0, 0, 0, 0, 0, 0, 0, 0, 0, 0, 0, 0, 0, 0, 0, 0, 0, 0, 0, 0, 0, 0, 0, 0, 0, 0, 0, 0, 0, 0, 0, 0, 0, 0, 0, 0, 0, 0, 0, 0, 0, 0, 0, 0, 0, 0, 0, 0, 0, 0, 0, 0, 0, 0, 0, 0, 0, 0, 0, 0, 0, 0, 0, 0, 0, 0, 0, 0, 0, 0, 0, 0, 0, 0, 0, 0, 0, 0, 0, 0, 0, 0, 0, 0, 0, 0, 0, 0, 0, 0, 0, 0, 0, 0, 0, 0, 0, 0, 0, 0, 0, 0, 0, 0, 0, 0, 0, 0, 0, 0, 0, 0, 0, 0, 0, 0, 0, 0, 0, 0, 0, 0, 0, 0, 0, 0, 0, 0, 0, 0, 0, 0, 0, 0, 0, 0, 0, 0, 0, 0, 0, 0, 0, 0, 0, 0, 0, 0, 0, 0, 0, 0, 0, 0, 0, 0, 0, 0, 0, 0, 0, 0, 0, 0, 0, 0, 0, 0, 0, 0, 0, 0, 0, 0, 0, 0, 0, 0, 0, 0, 0, 0, 0, 0, 0, 0, 0, 0, 0, 0, 0, 0, 0, 0, 0, 0, 279, 0, 0, 0, 0, 0, 0, 0, 0, 0, 0, 0, 0, 0, 0, 0, 0, 0, 0, 0, 0, 0, 0, 0, 0, 0, 0, 0, 0, 0, 0, 0, 0, 0, 0, 0, 0, 0, 0, 0, 0, 0, 0, 0, 0, 0, 0, 0, 0, 0, 0, 0, 0, 0, 0, 0, 0, 0, 0, 0, 0, 0, 0, 0, 0, 0, 0, 0, 0, 0, 0, 0, 0, 0, 0, 0, 0, 0, 0, 0, 0, 0, 0, 0, 0, 0, 0, 0, 0, 0, 0, 0, 0, 0, 0, 0, 0, 0, 0, 0, 0, 0, 0, 0, 0, 0, 0, 0, 0, 0, 0, 0, 0, 0, 0, 0, 0, 0, 0, 0, 0, 0, 0, 0, 0, 0, 0, 0, 0, 0, 0, 0, 0, 0, 0, 0, 0, 0, 0, 0, 0, 0, 0, 0, 0, 0, 0, 0, 0, 0, 0, 0, 0, 0, 0, 0, 0, 0, 0, 0, 0, 0, 0, 0, 0, 0, 0, 0, 0, 0, 0, 0, 0, 0, 0, 0, 0, 0, 0, 0, 0, 0, 0, 0, 0, 0, 0, 0, 0, 0, 0, 0, 0, 0, 0, 0, 0, 0, 0, 0, 0, 0, 0, 0, 0, 0, 0, 0, 0, 0, 0, 0, 0, 0, 0, 0, 0, 0, 0, 0, 0, 0, 0, 0, 0, 0, 0, 0, 0, 0, 0, 0, 0, 0, 0, 0, 0, 0, 0, 0, 0, 0, 0, 0, 0, 0, 0, 0, 0, 0, 0, 0, 0, 0, 0, 0, 0, 0, 0, 0, 0, 0, 0, 0, 0, 0, 0, 0, 0, 0, 0, 0, 0, 0, 0, 0, 0, 0, 0, 0, 0, 0, 0, 0, 0, 0, 0, 0, 0, 0, 0, 0, 0, 0, 0, 0, 0, 0, 0, 0, 0, 0, 0, 0, 0, 0, 0, 0, 0, 0, 0, 0, 0, 0, 0, 0, 0, 0, 0, 0, 0, 0, 0, 0, 0, 0, 0, 0, 0, 0, 0, 0, 0, 0, 0, 0, 0, 0, 0, 0, 0, 0, 0, 0, 0, 0, 0, 0, 0, 0, 0, 0, 0, 0, 0, 0, 0, 0, 0, 0, 0, 0, 0, 0, 0, 0, 0, 0, 0, 0, 0, 0, 0, 0, 0, 0, 0, 0, 0, 0, 0, 0, 0, 0, 0, 0, 0, 0, 0, 0, 0, 0, 0, 0, 0, 0, 0, 0, 0, 0, 0, 0, 0, 0, 0],
         "height":48,
         "name":"airborne",
         "opacity":1,
         "type":"tilelayer",
         "visible":true,
         "width":49,
         "x":0,
         "y":0
        }, 
        {
         "draworder":"topdown",
         "height":48,
         "name":"warps",
         "objects":[
                {
                 "gid":569,
                 "height":0,
                 "name":"to_jungle",
                 "properties":
                    {
                     "map":"jungle",
                     "x":"20",
                     "y":"2"
                    },
                 "rotation":0,
                 "type":"warp",
                 "visible":true,
                 "width":0,
                 "x":1504,
                 "y":1536
                }, 
                {
                 "gid":569,
                 "height":0,
                 "name":"to_tank_hangar",
                 "properties":
                    {
                     "map":"tank_hangar",
                     "x":"9",
                     "y":"30"
                    },
                 "rotation":0,
                 "type":"warp",
                 "visible":true,
                 "width":0,
                 "x":288,
                 "y":1312
                }, 
                {
                 "gid":569,
                 "height":0,
                 "name":"to_tank_hangar",
                 "properties":
                    {
                     "map":"tank_hangar",
                     "x":"10",
                     "y":"30"
                    },
                 "rotation":0,
                 "type":"warp",
                 "visible":true,
                 "width":0,
                 "x":320,
                 "y":1312
                }, 
                {
                 "gid":569,
                 "height":0,
                 "name":"to_tank_hangar",
                 "properties":
                    {
                     "map":"tank_hangar",
                     "x":"11",
                     "y":"30"
                    },
                 "rotation":0,
                 "type":"warp",
                 "visible":true,
                 "width":0,
                 "x":352,
                 "y":1312
                }, 
                {
                 "gid":569,
                 "height":0,
                 "name":"to_tank_hangar",
                 "properties":
                    {
                     "map":"tank_hangar",
                     "x":"12",
                     "y":"30"
                    },
                 "rotation":0,
                 "type":"warp",
                 "visible":true,
                 "width":0,
                 "x":384,
                 "y":1312
                }, 
                {
                 "gid":569,
                 "height":0,
                 "name":"to_tank_hangar",
                 "properties":
                    {
                     "map":"tank_hangar",
                     "x":"13",
                     "y":"30"
                    },
                 "rotation":0,
                 "type":"warp",
                 "visible":true,
                 "width":0,
                 "x":416,
                 "y":1312
                }, 
                {
                 "gid":569,
                 "height":0,
                 "name":"to_tank_hangar",
                 "properties":
                    {
                     "map":"tank_hangar",
                     "x":"14",
                     "y":"30"
                    },
                 "rotation":0,
                 "type":"warp",
                 "visible":true,
                 "width":0,
                 "x":448,
                 "y":1312
                }, 
                {
                 "gid":569,
                 "height":0,
                 "name":"to_tank_hangar",
                 "properties":
                    {
                     "map":"tank_hangar",
                     "x":"15",
                     "y":"30"
                    },
                 "rotation":0,
                 "type":"warp",
                 "visible":true,
                 "width":0,
                 "x":480,
                 "y":1312
                }, 
                {
                 "gid":569,
                 "height":0,
                 "name":"to_base_tunnel",
                 "properties":
                    {
                     "map":"base_tunnel",
                     "x":"12",
                     "y":"46"
                    },
                 "rotation":0,
                 "type":"warp",
                 "visible":true,
                 "width":0,
                 "x":704,
                 "y":96
                }, 
                {
                 "gid":569,
                 "height":0,
                 "name":"to_base_tunnel",
                 "properties":
                    {
                     "map":"base_tunnel",
                     "x":"12",
                     "y":"46"
                    },
                 "rotation":0,
                 "type":"warp",
                 "visible":true,
                 "width":0,
                 "x":736,
                 "y":96
                }, 
                {
                 "gid":569,
                 "height":0,
                 "name":"to_base_tunnel",
                 "properties":
                    {
                     "map":"base_tunnel",
                     "x":"12",
                     "y":"46"
                    },
                 "rotation":0,
                 "type":"warp",
                 "visible":true,
                 "width":0,
                 "x":768,
                 "y":96
                }, 
                {
                 "gid":569,
                 "height":0,
                 "name":"to_base_tunnel",
                 "properties":
                    {
                     "map":"base_tunnel",
                     "x":"12",
                     "y":"46"
                    },
                 "rotation":0,
                 "type":"warp",
                 "visible":true,
                 "width":0,
                 "x":800,
                 "y":96
                }, 
                {
                 "gid":569,
                 "height":0,
                 "name":"to_base_tunnel",
                 "properties":
                    {
                     "map":"base_tunnel",
                     "x":"12",
                     "y":"46"
                    },
                 "rotation":0,
                 "type":"warp",
                 "visible":true,
                 "width":0,
                 "x":832,
                 "y":96
                }, 
                {
                 "gid":569,
                 "height":0,
                 "name":"to_base_barracks",
                 "properties":
                    {
                     "map":"base_barracks",
                     "x":"11",
                     "y":"23"
                    },
                 "rotation":0,
                 "type":"warp",
                 "visible":true,
                 "width":0,
                 "x":1152,
                 "y":1312
                }, 
                {
                 "gid":569,
                 "height":0,
                 "name":"to_base_armory",
                 "properties":
                    {
                     "map":"base_armory",
                     "x":"11",
                     "y":"22"
                    },
                 "rotation":0,
                 "type":"warp",
                 "visible":true,
                 "width":0,
                 "x":1152,
                 "y":736
                }],
         "opacity":1,
         "type":"objectgroup",
         "visible":true,
         "width":72,
         "x":0,
         "y":0
        }, 
        {
         "draworder":"topdown",
         "height":48,
         "name":"npcs",
         "objects":[
                {
                 "gid":570,
                 "height":0,
                 "name":"guard1",
                 "properties":
                    {
                     "waypoints":"g1a,g1b,g1c,g1d"
                    },
                 "rotation":0,
                 "type":"commando",
                 "visible":true,
                 "width":0,
                 "x":768,
                 "y":256
                }, 
                {
                 "gid":570,
                 "height":0,
                 "name":"guard2",
                 "properties":
                    {
                     "waypoints":"g2a,g2b,g2c,g2d,g2e,g2f"
                    },
                 "rotation":0,
                 "type":"commando",
                 "visible":true,
                 "width":0,
                 "x":896,
                 "y":192
                }, 
                {
                 "gid":570,
                 "height":0,
                 "name":"guard3",
                 "properties":
                    {
                     "waypoints":"g3a,g3b,g3c,g3d,g3e,g3f,g3g,g3h,g3i"
                    },
                 "rotation":0,
                 "type":"commando",
                 "visible":true,
                 "width":0,
                 "x":1504,
                 "y":1312
                }],
         "opacity":1,
         "type":"objectgroup",
         "visible":true,
         "width":72,
         "x":0,
         "y":0
        }, 
        {
         "draworder":"topdown",
         "height":48,
         "name":"waypoints",
         "objects":[
                {
                 "gid":569,
                 "height":0,
                 "name":"g1a",
                 "properties":
                    {
                     "behavior":"wait",
                     "direction":"down"
                    },
                 "rotation":0,
                 "type":"",
                 "visible":true,
                 "width":0,
                 "x":768,
                 "y":256
                }, 
                {
                 "gid":569,
                 "height":0,
                 "name":"g1b",
                 "properties":
                    {
                     "behavior":"wait",
                     "direction":"right"
                    },
                 "rotation":0,
                 "type":"",
                 "visible":true,
                 "width":0,
                 "x":768,
                 "y":832
                }, 
                {
                 "gid":569,
                 "height":0,
                 "name":"g1c",
                 "properties":
                    {
                     "behavior":"continue",
                     "direction":"down"
                    },
                 "rotation":0,
                 "type":"",
                 "visible":true,
                 "width":0,
                 "x":768,
                 "y":832
                }, 
                {
                 "gid":569,
                 "height":0,
                 "name":"g1d",
                 "properties":
                    {
                     "behavior":"continue",
                     "direction":"up"
                    },
                 "rotation":0,
                 "type":"",
                 "visible":true,
                 "width":0,
                 "x":768,
                 "y":1216
                }, 
                {
                 "gid":569,
                 "height":0,
                 "name":"g2a",
                 "properties":
                    {
                     "behavior":"continue",
                     "direction":"right"
                    },
                 "rotation":0,
                 "type":"",
                 "visible":true,
                 "width":0,
                 "x":896,
                 "y":192
                }, 
                {
                 "gid":569,
                 "height":0,
                 "name":"g2b",
                 "properties":
                    {
                     "behavior":"wait",
                     "direction":"down"
                    },
                 "rotation":0,
                 "type":"",
                 "visible":true,
                 "width":0,
                 "x":1504,
                 "y":192
                }, 
                {
                 "gid":569,
                 "height":0,
                 "name":"g2c",
                 "properties":
                    {
                     "behavior":"continue",
                     "direction":"left"
                    },
                 "rotation":0,
                 "type":"",
                 "visible":true,
                 "width":0,
                 "x":1504,
                 "y":224
                }, 
                {
                 "gid":569,
                 "height":0,
                 "name":"g2d",
                 "properties":
                    {
                     "behavior":"wait",
                     "direction":"down"
                    },
                 "rotation":0,
                 "type":"",
                 "visible":true,
                 "width":0,
                 "x":32,
                 "y":224
                }, 
                {
                 "gid":569,
                 "height":0,
                 "name":"g2e",
                 "properties":
                    {
                     "behavior":"continue",
                     "direction":"up"
                    },
                 "rotation":0,
                 "type":"",
                 "visible":true,
                 "width":0,
                 "x":32,
                 "y":224
                }, 
                {
                 "gid":569,
                 "height":0,
                 "name":"g2f",
                 "properties":
                    {
                     "behavior":"continue",
                     "direction":"right"
                    },
                 "rotation":0,
                 "type":"",
                 "visible":true,
                 "width":0,
                 "x":32,
                 "y":192
                }, 
                {
                 "gid":569,
                 "height":0,
                 "name":"g3a",
                 "properties":
                    {
                     "behavior":"continue",
                     "direction":"up"
                    },
                 "rotation":0,
                 "type":"",
                 "visible":true,
                 "width":0,
                 "x":1504,
                 "y":1312
                }, 
                {
                 "gid":569,
                 "height":0,
                 "name":"g3b",
                 "properties":
                    {
                     "behavior":"continue",
                     "direction":"left"
                    },
                 "rotation":0,
                 "type":"",
                 "visible":true,
                 "width":0,
                 "x":1504,
                 "y":480
                }, 
                {
                 "gid":569,
                 "height":0,
                 "name":"g3c",
                 "properties":
                    {
                     "behavior":"continue",
                     "direction":"down"
                    },
                 "rotation":0,
                 "type":"",
                 "visible":true,
                 "width":0,
                 "x":1440,
                 "y":480
                }, 
                {
                 "gid":569,
                 "height":0,
                 "name":"g3d",
                 "properties":
                    {
                     "behavior":"continue",
                     "direction":"left"
                    },
                 "rotation":0,
                 "type":"",
                 "visible":true,
                 "width":0,
                 "x":1440,
                 "y":1408
                }, 
                {
                 "gid":569,
                 "height":0,
                 "name":"g3e",
                 "properties":
                    {
                     "behavior":"continue",
                     "direction":"up"
                    },
                 "rotation":0,
                 "type":"",
                 "visible":true,
                 "width":0,
                 "x":32,
                 "y":1408
                }, 
                {
                 "gid":569,
                 "height":0,
                 "name":"g3f",
                 "properties":
                    {
                     "behavior":"continue",
                     "direction":"right"
                    },
                 "rotation":0,
                 "type":"",
                 "visible":true,
                 "width":0,
                 "x":32,
                 "y":1216
                }, 
                {
                 "gid":569,
                 "height":0,
                 "name":"g3g",
                 "properties":
                    {
                     "behavior":"continue",
                     "direction":"down"
                    },
                 "rotation":0,
                 "type":"",
                 "visible":true,
                 "width":0,
                 "x":64,
                 "y":1216
                }, 
                {
                 "gid":569,
                 "height":0,
                 "name":"g3h",
                 "properties":
                    {
                     "behavior":"continue",
                     "direction":"right"
                    },
                 "rotation":0,
                 "type":"",
                 "visible":true,
                 "width":0,
                 "x":64,
                 "y":1408
                }, 
                {
                 "gid":569,
                 "height":0,
                 "name":"g3i",
                 "properties":
                    {
                     "behavior":"continue",
                     "direction":"up"
                    },
                 "rotation":0,
                 "type":"",
                 "visible":true,
                 "width":0,
                 "x":1504,
                 "y":1408
                }],
         "opacity":1,
         "type":"objectgroup",
         "visible":true,
         "width":72,
         "x":0,
         "y":0
        }, 
        {
         "draworder":"topdown",
         "height":48,
         "name":"cover",
         "objects":[
                {
                 "height":32,
                 "name":"grass",
                 "properties":
                    {

                    },
                 "rotation":0,
                 "type":"grass",
                 "visible":true,
                 "width":640,
                 "x":896,
                 "y":128
                }, 
                {
                 "height":32,
                 "name":"grass",
                 "properties":
                    {

                    },
                 "rotation":0,
                 "type":"grass",
                 "visible":true,
                 "width":640,
                 "x":32,
                 "y":128
                }],
         "opacity":1,
         "type":"objectgroup",
         "visible":true,
         "width":72,
         "x":0,
         "y":0
        }, 
        {
         "draworder":"topdown",
         "height":48,
         "name":"triggers",
         "objects":[
                {
                 "gid":569,
                 "height":0,
                 "name":"find_mountain_base",
                 "properties":
                    {
                     "name":"find_mountain_base",
                     "order":"270",
                     "quest":"main",
                     "title":"Find the mountain base"
                    },
                 "rotation":0,
                 "type":"objective",
                 "visible":true,
                 "width":0,
                 "x":1504,
                 "y":1504
                }],
         "opacity":1,
         "type":"objectgroup",
         "visible":true,
         "width":49,
         "x":0,
         "y":0
        }],
 "orientation":"orthogonal",
 "properties":
    {
     "ambience":"0.25,0.25,0.5",
     "soundtrack":"rain",
     "weather":"rain"
    },
 "renderorder":"left-up",
 "tileheight":32,
 "tilesets":[
        {
         "firstgid":1,
         "image":"..\/..\/sprites\/pipoya_outdoor.png",
         "imageheight":704,
         "imagewidth":256,
         "margin":0,
         "name":"pipoya_outdoor",
         "properties":
            {

            },
         "spacing":0,
         "tileheight":32,
         "tilewidth":32
        }, 
        {
         "firstgid":177,
         "image":"..\/..\/sprites\/pipoya_exteriors.png",
         "imageheight":960,
         "imagewidth":256,
         "margin":0,
         "name":"pipoya_exteriors",
         "properties":
            {

            },
         "spacing":0,
         "tileheight":32,
         "tilewidth":32
        }, 
        {
         "firstgid":417,
         "image":"..\/..\/sprites\/pipoya_fences.png",
         "imageheight":448,
         "imagewidth":256,
         "margin":0,
         "name":"pipoya_fences",
         "properties":
            {

            },
         "spacing":0,
         "tileheight":32,
         "tilewidth":32
        }, 
        {
         "firstgid":529,
         "image":"..\/..\/sprites\/common.png",
         "imageheight":256,
         "imagewidth":256,
         "margin":0,
         "name":"common",
         "properties":
            {

            },
         "spacing":0,
         "tileheight":32,
         "tilewidth":32
        }, 
        {
         "firstgid":593,
         "image":"..\/..\/sprites\/owlishmedia_pixel_tiles.png",
         "imageheight":800,
         "imagewidth":448,
         "margin":0,
         "name":"owlishmedia_pixel_tiles",
         "properties":
            {

            },
         "spacing":0,
         "tileheight":32,
         "tilewidth":32
        }, 
        {
         "firstgid":943,
         "image":"..\/..\/sprites\/ruins_tileset.png",
         "imageheight":512,
         "imagewidth":1024,
         "margin":0,
         "name":"ruins_tileset",
         "properties":
            {

            },
         "spacing":0,
         "tileheight":32,
         "tilewidth":32
        }, 
        {
         "firstgid":1455,
         "image":"..\/..\/sprites\/supplemental.png",
         "imageheight":128,
         "imagewidth":128,
         "margin":0,
         "name":"supplemental",
         "properties":
            {

            },
         "spacing":0,
         "tileheight":32,
         "tilewidth":32
        }, 
        {
         "firstgid":1471,
         "image":"..\/..\/sprites\/pipoya_misc.png",
         "imageheight":384,
         "imagewidth":256,
         "margin":0,
         "name":"pipoya_misc",
         "properties":
            {

            },
         "spacing":0,
         "tileheight":32,
         "tilewidth":32
        }, 
        {
         "firstgid":1567,
         "image":"..\/..\/sprites\/tileset_51.png",
         "imageheight":512,
         "imagewidth":1024,
         "margin":0,
         "name":"tileset_51",
         "properties":
            {

            },
         "spacing":0,
         "tileheight":32,
         "tilewidth":32
        }],
 "tilewidth":32,
 "version":1,
 "width":49
}