{ "height":20,
 "layers":[
        {
         "data":[227, 227, 227, 227, 227, 227, 227, 227, 227, 227, 227, 227, 227, 227, 227, 227, 227, 227, 227, 227, 227, 227, 227, 227, 1025, 227, 227, 227, 227, 227, 227, 227, 227, 227, 227, 227, 227, 227, 227, 227, 227, 227, 227, 227, 0, 227, 227, 227, 227, 227, 227, 227, 227, 227, 227, 227, 227, 227, 227, 227, 227, 227, 227, 227, 227, 227, 227, 227, 227, 227, 227, 227, 227, 227, 227, 227, 227, 227, 227, 227, 227, 227, 227, 227, 227, 227, 227, 227, 227, 227, 227, 227, 227, 227, 227, 0, 0, 0, 0, 0, 227, 227, 227, 227, 227, 227, 227, 0, 0, 0, 0, 0, 227, 227, 227, 227, 227, 227, 0, 0, 0, 0, 0, 227, 227, 227, 227, 227, 227, 227, 0, 0, 0, 0, 0, 227, 227, 227, 227, 227, 227, 227, 227, 227, 227, 227, 227, 227, 227, 227, 227, 227, 227, 227, 227, 227, 227, 227, 227, 227, 227, 227, 227, 227, 227, 227, 227, 227, 227, 227, 227, 227, 227, 227, 227, 227, 227, 227, 227, 227, 227, 227, 227, 227, 227, 227, 227, 227, 227, 227, 227, 227, 227, 227, 227, 227, 227, 227, 227, 227, 227, 227, 227, 227, 227, 227, 227, 227, 227, 227, 227, 227, 227, 227, 227, 227, 227, 227, 227, 227, 227, 227, 227, 227, 227, 227, 227, 227, 227, 227, 227, 227, 227, 227, 227, 227, 227, 227, 227, 227, 227, 227, 0, 0, 0, 0, 0, 0, 0, 0, 0, 0, 0, 227, 227, 227, 227, 227, 227, 227, 227, 227, 227, 227, 227, 0, 0, 0, 0, 0, 0, 0, 0, 0, 0, 0, 227, 227, 227, 227, 227, 227, 227, 227, 227, 227, 227, 227, 0, 0, 0, 0, 0, 0, 0, 0, 0, 0, 0, 227, 227, 227, 227, 227, 227, 227, 227, 227, 227, 227, 227, 0, 0, 0, 0, 0, 0, 0, 0, 0, 0, 0, 227, 227, 227, 227, 227, 227, 227, 227, 227, 227, 227, 227, 227, 0, 0, 0, 0, 0, 0, 0, 0, 0, 0, 227, 227, 227, 227, 227, 227, 227, 227, 227, 227, 227, 227, 227, 0, 0, 0, 0, 0, 0, 0, 0, 0, 0, 227, 227, 227, 227, 227, 227, 227, 227, 227, 227, 227, 227, 227, 0, 0, 0, 0, 0, 0, 0, 0, 0, 0, 227, 227, 1025, 227, 227, 227, 227, 227, 227, 227, 227, 227, 227, 0, 0, 0, 0, 0, 0, 0, 0, 0, 0, 227, 227, 227, 227, 227, 227, 227, 227, 227, 227, 227, 227, 227, 0, 0, 0, 0, 0, 0, 0, 0, 0, 0, 227, 227, 227, 227, 227, 227, 227, 227, 227, 227, 227, 227, 0, 0, 0, 0, 0, 0, 0, 0, 0, 0, 0],
         "height":20,
         "name":"floor",
         "opacity":1,
         "type":"tilelayer",
         "visible":true,
         "width":23,
         "x":0,
         "y":0
        }, 
        {
         "data":[412, 642, 642, 642, 642, 642, 642, 642, 642, 642, 642, 642, 642, 642, 642, 642, 642, 642, 642, 642, 642, 642, 410, 412, 0, 650, 650, 650, 650, 650, 650, 650, 650, 650, 650, 650, 650, 650, 650, 650, 650, 650, 650, 650, 650, 410, 412, 0, 0, 0, 0, 0, 0, 0, 0, 0, 0, 0, 0, 0, 0, 0, 0, 0, 0, 0, 0, 0, 410, 412, 0, 641, 642, 642, 642, 642, 642, 643, 0, 0, 0, 0, 0, 641, 642, 642, 642, 642, 642, 643, 0, 410, 412, 0, 644, 0, 0, 0, 0, 0, 644, 0, 0, 0, 0, 0, 644, 0, 0, 0, 0, 0, 644, 0, 410, 412, 0, 644, 0, 0, 0, 0, 0, 644, 0, 1000, 1001, 1002, 0, 644, 0, 0, 0, 0, 0, 644, 0, 410, 412, 0, 641, 642, 642, 642, 642, 642, 643, 0, 1016, 1017, 1018, 0, 641, 642, 642, 642, 642, 642, 643, 0, 410, 412, 515, 515, 650, 650, 650, 650, 650, 651, 0, 0, 0, 0, 0, 649, 650, 650, 650, 650, 650, 651, 0, 410, 412, 515, 515, 0, 0, 0, 0, 0, 0, 0, 0, 0, 0, 0, 0, 0, 0, 0, 0, 0, 0, 0, 476, 412, 515, 238, 239, 239, 239, 239, 239, 239, 240, 0, 378, 380, 378, 379, 379, 379, 379, 379, 379, 379, 507, 411, 412, 519, 302, 303, 303, 303, 303, 303, 303, 304, 0, 410, 412, 410, 0, 0, 0, 0, 0, 0, 0, 0, 0, 412, 0, 388, 388, 388, 388, 388, 388, 388, 388, 0, 410, 412, 410, 0, 0, 0, 0, 0, 0, 0, 0, 0, 412, 0, 452, 452, 452, 452, 452, 452, 452, 452, 0, 280, 281, 410, 0, 0, 0, 0, 0, 0, 0, 0, 0, 412, 0, 0, 0, 0, 0, 0, 0, 0, 0, 0, 312, 313, 410, 0, 0, 0, 0, 0, 0, 0, 0, 0, 412, 1013, 996, 0, 0, 238, 239, 239, 239, 240, 0, 344, 345, 410, 0, 0, 0, 0, 0, 0, 0, 0, 0, 412, 642, 642, 643, 0, 302, 303, 303, 303, 304, 0, 0, 0, 410, 0, 0, 0, 0, 0, 0, 0, 0, 0, 412, 642, 642, 643, 0, 388, 388, 388, 388, 388, 0, 0, 0, 410, 0, 0, 0, 0, 0, 0, 0, 0, 0, 412, 650, 0, 651, 0, 452, 452, 452, 452, 452, 0, 0, 0, 410, 0, 0, 0, 0, 0, 0, 0, 0, 0, 473, 0, 0, 0, 0, 0, 0, 0, 0, 0, 0, 0, 0, 476, 0, 0, 0, 0, 0, 0, 0, 0, 0, 505, 506, 379, 379, 379, 379, 379, 379, 379, 379, 379, 0, 507, 411, 0, 0, 0, 0, 0, 0, 0, 0, 0],
         "height":20,
         "name":"walls",
         "opacity":1,
         "type":"tilelayer",
         "visible":true,
         "width":23,
         "x":0,
         "y":0
        }, 
        {
         "data":[0, 1009, 0, 0, 0, 0, 0, 0, 0, 0, 0, 0, 0, 0, 0, 0, 0, 0, 0, 0, 0, 0, 0, 0, 0, 0, 0, 0, 0, 0, 0, 0, 0, 0, 0, 0, 0, 0, 0, 0, 0, 0, 0, 0, 0, 0, 0, 0, 0, 0, 0, 0, 0, 0, 0, 0, 0, 0, 0, 0, 0, 0, 0, 0, 0, 0, 0, 0, 0, 0, 0, 0, 0, 0, 0, 0, 0, 0, 0, 0, 0, 0, 0, 0, 0, 0, 0, 0, 0, 0, 0, 0, 0, 0, 0, 0, 0, 0, 0, 0, 0, 0, 0, 0, 0, 0, 0, 0, 0, 0, 0, 0, 0, 0, 0, 0, 0, 0, 0, 0, 0, 0, 0, 0, 0, 0, 0, 0, 0, 0, 0, 0, 0, 0, 0, 0, 0, 0, 0, 0, 0, 0, 0, 0, 0, 0, 0, 0, 0, 0, 0, 0, 0, 0, 0, 0, 0, 0, 0, 0, 0, 0, 0, 0, 0, 0, 0, 0, 0, 0, 0, 0, 0, 0, 0, 0, 0, 0, 0, 0, 0, 0, 0, 0, 0, 0, 0, 0, 0, 0, 0, 0, 0, 0, 0, 0, 0, 0, 0, 0, 0, 0, 0, 0, 0, 475, 0, 0, 0, 0, 0, 0, 0, 0, 0, 0, 0, 0, 0, 0, 0, 0, 0, 0, 0, 0, 0, 0, 0, 0, 0, 0, 0, 0, 0, 0, 0, 0, 0, 0, 0, 0, 0, 0, 0, 0, 0, 0, 0, 0, 0, 0, 0, 0, 0, 0, 0, 0, 0, 0, 0, 0, 0, 0, 0, 0, 0, 0, 0, 0, 0, 0, 0, 0, 0, 0, 0, 0, 0, 0, 0, 0, 0, 0, 0, 0, 0, 442, 444, 0, 0, 0, 0, 0, 0, 0, 0, 0, 0, 0, 0, 0, 0, 0, 0, 0, 0, 0, 0, 0, 0, 0, 0, 0, 0, 0, 0, 0, 0, 0, 0, 0, 0, 0, 0, 0, 0, 0, 0, 0, 0, 0, 0, 0, 0, 0, 0, 0, 0, 0, 0, 0, 0, 0, 0, 0, 0, 0, 0, 0, 0, 0, 0, 0, 0, 0, 0, 0, 0, 0, 0, 0, 0, 0, 0, 0, 0, 0, 0, 0, 1009, 0, 0, 0, 0, 0, 0, 0, 0, 0, 0, 0, 0, 0, 0, 0, 0, 0, 0, 0, 0, 0, 0, 0, 0, 0, 0, 0, 0, 0, 0, 0, 0, 0, 0, 0, 0, 0, 0, 0, 0, 0, 0, 0, 0, 474, 0, 0, 0, 0, 0, 0, 0, 0, 0, 0, 475, 0, 0, 0, 0, 0, 0, 0, 0, 0, 0, 0, 0, 0, 0, 0, 0, 0, 0, 0, 0, 0, 0, 0, 0, 0, 0, 0, 0, 0, 0, 0, 0, 0],
         "height":20,
         "name":"decals",
         "opacity":1,
         "type":"tilelayer",
         "visible":true,
         "width":23,
         "x":0,
         "y":0
        }, 
        {
         "data":[0, 0, 0, 0, 0, 0, 0, 0, 0, 0, 0, 0, 0, 0, 0, 0, 0, 0, 0, 0, 0, 0, 0, 0, 0, 0, 0, 0, 0, 0, 0, 0, 0, 0, 0, 0, 0, 0, 0, 0, 0, 0, 0, 0, 0, 0, 0, 0, 0, 0, 0, 0, 0, 0, 0, 0, 0, 0, 0, 0, 0, 0, 0, 0, 0, 0, 0, 0, 0, 0, 0, 0, 0, 0, 0, 0, 0, 0, 0, 0, 0, 0, 0, 0, 0, 0, 0, 0, 0, 0, 0, 0, 0, 0, 0, 0, 0, 0, 0, 0, 0, 0, 0, 0, 0, 0, 0, 0, 0, 0, 0, 0, 0, 0, 0, 0, 0, 0, 0, 0, 0, 0, 0, 0, 0, 0, 0, 0, 0, 0, 0, 0, 0, 0, 0, 0, 0, 0, 0, 0, 0, 0, 0, 0, 0, 0, 0, 0, 0, 0, 0, 0, 0, 0, 0, 0, 0, 0, 0, 0, 0, 0, 0, 0, 0, 0, 0, 0, 0, 0, 0, 0, 0, 0, 0, 0, 0, 0, 0, 0, 0, 0, 0, 0, 0, 0, 0, 0, 0, 0, 0, 0, 0, 0, 0, 0, 0, 0, 0, 0, 0, 0, 0, 0, 0, 0, 0, 0, 0, 0, 0, 0, 0, 0, 0, 0, 0, 0, 0, 0, 0, 0, 0, 0, 0, 0, 0, 0, 0, 0, 0, 0, 0, 0, 0, 0, 0, 0, 0, 0, 0, 0, 0, 0, 0, 0, 0, 0, 0, 0, 0, 0, 0, 0, 0, 0, 0, 0, 0, 0, 0, 0, 0, 0, 0, 0, 0, 0, 0, 0, 0, 0, 0, 0, 0, 0, 0, 0, 0, 0, 0, 0, 0, 0, 0, 0, 0, 0, 0, 0, 0, 0, 0, 0, 0, 0, 0, 0, 0, 0, 0, 0, 0, 0, 0, 0, 0, 0, 0, 0, 0, 0, 0, 0, 0, 0, 0, 0, 0, 0, 0, 0, 0, 0, 0, 0, 0, 0, 0, 0, 0, 0, 0, 0, 0, 0, 0, 0, 0, 0, 0, 0, 0, 0, 0, 0, 0, 0, 0, 0, 0, 0, 0, 0, 0, 0, 0, 0, 0, 0, 0, 0, 0, 0, 0, 0, 0, 0, 0, 0, 0, 0, 0, 0, 0, 0, 0, 0, 0, 0, 0, 0, 0, 0, 0, 0, 0, 0, 0, 0, 0, 0, 0, 0, 0, 0, 0, 0, 0, 0, 0, 0, 0, 0, 0, 0, 0, 0, 0, 0, 0, 0, 0, 0, 0, 0, 0, 0, 0, 0, 0, 0, 0, 0, 0, 0, 0, 0, 0, 0, 0, 0, 0, 0, 0, 0, 0, 0, 0, 0, 0, 0, 0, 0, 0, 0, 0, 0, 0, 0, 0, 0, 0, 0, 0, 0, 0, 0, 0, 0],
         "height":20,
         "name":"grass",
         "opacity":1,
         "type":"tilelayer",
         "visible":true,
         "width":23,
         "x":0,
         "y":0
        }, 
        {
         "data":[0, 0, 0, 0, 0, 0, 0, 0, 0, 0, 0, 0, 0, 0, 0, 0, 0, 0, 0, 0, 0, 0, 0, 0, 0, 0, 0, 0, 0, 0, 0, 0, 0, 0, 0, 0, 0, 0, 0, 0, 0, 0, 0, 0, 0, 0, 0, 0, 0, 0, 0, 0, 0, 0, 0, 0, 0, 0, 0, 0, 0, 0, 0, 0, 0, 0, 0, 0, 0, 0, 0, 0, 0, 0, 0, 0, 0, 0, 0, 0, 0, 0, 0, 0, 0, 0, 0, 0, 0, 0, 0, 0, 0, 0, 0, 0, 0, 0, 0, 0, 0, 0, 0, 0, 0, 0, 0, 0, 0, 0, 0, 0, 0, 0, 0, 0, 0, 0, 0, 0, 0, 0, 0, 0, 0, 0, 0, 0, 0, 0, 0, 0, 0, 0, 0, 0, 0, 0, 0, 0, 0, 0, 0, 0, 0, 0, 0, 0, 0, 0, 0, 0, 0, 0, 0, 0, 0, 0, 0, 0, 0, 0, 0, 0, 0, 0, 0, 0, 0, 0, 0, 0, 0, 0, 0, 0, 0, 0, 0, 0, 0, 0, 0, 0, 0, 0, 0, 0, 0, 0, 0, 0, 0, 0, 0, 0, 0, 0, 0, 0, 0, 0, 0, 0, 0, 0, 0, 0, 0, 0, 0, 0, 0, 0, 0, 0, 0, 0, 0, 0, 0, 0, 0, 0, 0, 0, 0, 0, 0, 0, 0, 0, 0, 0, 0, 0, 0, 0, 0, 0, 0, 0, 0, 0, 0, 0, 0, 0, 0, 0, 0, 0, 0, 0, 0, 0, 0, 0, 0, 0, 0, 0, 0, 0, 0, 0, 0, 0, 0, 0, 0, 0, 0, 0, 0, 0, 0, 0, 0, 0, 0, 0, 0, 0, 0, 0, 0, 0, 0, 0, 0, 0, 0, 0, 0, 0, 0, 0, 0, 0, 0, 0, 0, 0, 0, 0, 0, 0, 0, 0, 0, 0, 0, 0, 0, 0, 0, 0, 0, 0, 0, 0, 0, 0, 0, 0, 0, 0, 0, 0, 0, 0, 0, 0, 0, 0, 0, 0, 0, 0, 0, 0, 0, 0, 0, 0, 0, 0, 0, 0, 0, 0, 0, 0, 0, 0, 0, 0, 0, 0, 0, 0, 0, 0, 0, 0, 0, 0, 0, 0, 0, 0, 0, 0, 0, 0, 0, 0, 0, 0, 0, 0, 0, 0, 0, 0, 0, 0, 0, 0, 0, 0, 0, 0, 0, 0, 0, 0, 0, 0, 0, 0, 0, 0, 0, 0, 0, 0, 0, 0, 0, 0, 0, 0, 0, 0, 0, 0, 0, 0, 0, 0, 0, 0, 0, 0, 0, 0, 0, 0, 0, 0, 0, 0, 0, 0, 0, 0, 0, 0, 0, 0, 0, 0, 0, 0, 0, 0, 0, 0, 0, 0, 0, 0, 0, 0, 0, 0, 0, 0],
         "height":20,
         "name":"airborne",
         "opacity":1,
         "type":"tilelayer",
         "visible":true,
         "width":23,
         "x":0,
         "y":0
        }, 
        {
         "draworder":"topdown",
         "height":48,
         "name":"doors",
         "objects":[
                {
                 "gid":785,
                 "height":0,
                 "name":"door",
                 "properties":
                    {
                     "direction":"down",
                     "locked":"true",
                     "width":"1"
                    },
                 "rotation":0,
                 "type":"door",
                 "visible":true,
                 "width":0,
                 "x":352,
                 "y":640
                }],
         "opacity":1,
         "type":"objectgroup",
         "visible":true,
         "width":24,
         "x":0,
         "y":0
        }, 
        {
         "draworder":"topdown",
         "height":48,
         "name":"warps",
         "objects":[
                {
                 "gid":791,
                 "height":0,
                 "name":"to_south_duct",
                 "properties":
                    {
                     "map":"base_east_1f_south_duct",
                     "x":"3",
                     "y":"2"
                    },
                 "rotation":0,
                 "type":"warp",
                 "visible":true,
                 "width":0,
                 "x":64,
                 "y":576
                }, 
                {
                 "gid":791,
                 "height":0,
                 "name":"to_west_duct",
                 "properties":
                    {
                     "map":"base_east_1f_west_duct",
                     "x":"1",
                     "y":"38"
                    },
                 "rotation":0,
                 "type":"warp",
                 "visible":true,
                 "width":0,
                 "x":32,
                 "y":64
                }],
         "opacity":1,
         "type":"objectgroup",
         "visible":true,
         "width":24,
         "x":0,
         "y":0
        }, 
        {
         "draworder":"topdown",
         "height":48,
         "name":"waypoints",
         "objects":[
                {
                 "gid":809,
                 "height":0,
                 "name":"g1a",
                 "properties":
                    {
                     "behavior":"sleep",
                     "direction":"down"
                    },
                 "rotation":0,
                 "type":"",
                 "visible":true,
                 "width":0,
                 "x":32,
                 "y":384
                }, 
                {
                 "gid":809,
                 "height":0,
                 "name":"g2a",
                 "properties":
                    {
                     "behavior":"wait",
                     "direction":"left"
                    },
                 "rotation":0,
                 "type":"",
                 "visible":true,
                 "width":0,
                 "x":672,
                 "y":288
                }, 
                {
                 "gid":809,
                 "height":0,
                 "name":"g2b",
                 "properties":
                    {
                     "behavior":"wait",
                     "direction":"right"
                    },
                 "rotation":0,
                 "type":"",
                 "visible":true,
                 "width":0,
                 "x":96,
                 "y":288
                }],
         "opacity":1,
         "type":"objectgroup",
         "visible":true,
         "width":24,
         "x":0,
         "y":0
        }, 
        {
         "draworder":"topdown",
         "height":48,
         "name":"npcs",
         "objects":[
                {
                 "gid":810,
                 "height":0,
                 "name":"guard1",
                 "properties":
                    {
                     "waypoints":"g1a"
                    },
                 "rotation":0,
                 "type":"commando",
                 "visible":true,
                 "width":0,
                 "x":32,
                 "y":384
                }, 
                {
                 "gid":810,
                 "height":0,
                 "name":"guard2",
                 "properties":
                    {
                     "waypoints":"g2a,g2b"
                    },
                 "rotation":0,
                 "type":"commando",
                 "visible":true,
                 "width":0,
                 "x":672,
                 "y":288
                }],
         "opacity":1,
         "type":"objectgroup",
         "visible":true,
         "width":24,
         "x":0,
         "y":0
        }, 
        {
         "draworder":"topdown",
         "height":20,
         "name":"items",
         "objects":[
                {
                 "gid":819,
                 "height":0,
                 "name":"landmine",
                 "properties":
                    {

                    },
                 "rotation":0,
                 "type":"landmine",
                 "visible":true,
                 "width":0,
                 "x":416,
                 "y":192
                }, 
                {
                 "gid":819,
                 "height":0,
                 "name":"landmine",
                 "properties":
                    {

                    },
                 "rotation":0,
                 "type":"landmine",
                 "visible":true,
                 "width":0,
                 "x":288,
                 "y":192
                }, 
                {
                 "gid":819,
                 "height":0,
                 "name":"landmine",
                 "properties":
                    {

                    },
                 "rotation":0,
                 "type":"landmine",
                 "visible":true,
                 "width":0,
                 "x":352,
                 "y":96
                }],
         "opacity":1,
         "type":"objectgroup",
         "visible":true,
         "width":23,
         "x":0,
         "y":0
        }, 
        {
         "draworder":"topdown",
         "height":48,
         "name":"cameras",
         "objects":[
                {
                 "gid":822,
                 "height":0,
                 "name":"camera",
                 "properties":
                    {
                     "delta":"-12",
                     "direction":"down"
                    },
                 "rotation":0,
                 "type":"camera",
                 "visible":true,
                 "width":0,
                 "x":672,
                 "y":32
                }],
         "opacity":1,
         "type":"objectgroup",
         "visible":true,
         "width":24,
         "x":0,
         "y":0
        }, 
        {
         "draworder":"topdown",
         "height":20,
         "name":"ducts",
         "objects":[
                {
                 "gid":809,
                 "height":0,
                 "name":"duct1",
                 "properties":
                    {

                    },
                 "rotation":0,
                 "type":"duct",
                 "visible":true,
                 "width":0,
                 "x":64,
                 "y":576
                }, 
                {
                 "gid":809,
                 "height":0,
                 "name":"duct2",
                 "properties":
                    {

                    },
                 "rotation":0,
                 "type":"duct",
                 "visible":true,
                 "width":0,
                 "x":32,
                 "y":64
                }],
         "opacity":1,
         "type":"objectgroup",
         "visible":true,
         "width":23,
         "x":0,
         "y":0
        }, 
        {
         "draworder":"topdown",
         "height":24,
         "name":"lights",
         "objects":[],
         "opacity":1,
         "type":"objectgroup",
         "visible":true,
         "width":28,
         "x":0,
         "y":0
        }],
 "orientation":"orthogonal",
 "properties":
    {
     "ambience":"0.5,0.5,0.5",
     "soundtrack":"tension"
    },
 "renderorder":"left-up",
 "tileheight":32,
 "tilesets":[
        {
         "firstgid":1,
         "image":"..\/..\/sprites\/tileset_51.png",
         "imageheight":512,
         "imagewidth":1024,
         "margin":0,
         "name":"tileset_51",
         "properties":
            {

            },
         "spacing":0,
         "tileheight":32,
         "tilewidth":32
        }, 
        {
         "firstgid":513,
         "image":"..\/..\/sprites\/supplemental.png",
         "imageheight":128,
         "imagewidth":128,
         "margin":0,
         "name":"supplemental",
         "properties":
            {

            },
         "spacing":0,
         "tileheight":32,
         "tilewidth":32
        }, 
        {
         "firstgid":529,
         "image":"..\/..\/sprites\/pipoya_exteriors.png",
         "imageheight":960,
         "imagewidth":256,
         "margin":0,
         "name":"pipoya_exteriors",
         "properties":
            {

            },
         "spacing":0,
         "tileheight":32,
         "tilewidth":32
        }, 
        {
         "firstgid":769,
         "image":"..\/..\/sprites\/common.png",
         "imageheight":256,
         "imagewidth":256,
         "margin":0,
         "name":"common",
         "properties":
            {

            },
         "spacing":0,
         "tileheight":32,
         "tilewidth":32
        }, 
        {
         "firstgid":833,
         "image":"..\/..\/sprites\/modern_interior.png",
         "imageheight":512,
         "imagewidth":512,
         "margin":0,
         "name":"modern_interior",
         "properties":
            {

            },
         "spacing":0,
         "tileheight":32,
         "tilewidth":32
        }],
 "tilewidth":32,
 "version":1,
 "width":23
}