{ "height":20,
 "layers":[
        {
         "data":[0, 0, 0, 0, 0, 0, 0, 0, 0, 0, 0, 0, 0, 0, 0, 0, 0, 0, 0, 0, 0, 0, 0, 0, 0, 0, 0, 0, 0, 0, 0, 0, 0, 0, 0, 0, 0, 0, 0, 0, 0, 0, 0, 0, 0, 0, 0, 290, 290, 290, 290, 290, 290, 290, 290, 290, 290, 290, 290, 290, 290, 290, 290, 290, 290, 290, 290, 290, 0, 0, 290, 290, 290, 290, 290, 290, 290, 290, 290, 290, 290, 290, 290, 290, 290, 290, 290, 290, 290, 290, 290, 0, 0, 290, 290, 290, 290, 290, 290, 290, 290, 290, 290, 290, 290, 290, 290, 290, 290, 290, 290, 290, 290, 290, 0, 0, 290, 290, 290, 290, 290, 290, 290, 290, 290, 290, 290, 290, 290, 290, 290, 290, 290, 290, 290, 290, 290, 0, 0, 290, 290, 290, 290, 290, 290, 290, 290, 290, 290, 290, 290, 290, 290, 290, 290, 290, 290, 290, 290, 290, 0, 0, 290, 290, 290, 290, 290, 290, 290, 0, 0, 0, 0, 0, 0, 0, 0, 290, 290, 290, 290, 290, 290, 0, 0, 290, 290, 290, 290, 290, 290, 290, 0, 0, 0, 0, 0, 0, 0, 0, 290, 290, 290, 290, 290, 290, 0, 0, 290, 290, 290, 290, 290, 290, 290, 0, 0, 0, 0, 0, 0, 0, 0, 290, 290, 290, 290, 290, 290, 0, 0, 0, 0, 0, 0, 0, 290, 290, 0, 0, 0, 0, 0, 0, 0, 0, 290, 0, 0, 0, 0, 0, 0, 0, 0, 0, 0, 0, 0, 290, 290, 0, 0, 0, 0, 0, 0, 0, 0, 290, 0, 0, 0, 0, 0, 0, 0, 0, 0, 0, 0, 0, 290, 290, 0, 0, 0, 0, 0, 0, 0, 0, 290, 0, 0, 0, 0, 0, 0, 0, 0, 0, 0, 0, 0, 290, 290, 0, 0, 0, 0, 0, 0, 0, 0, 290, 0, 0, 0, 0, 0, 0, 0, 0, 0, 0, 0, 0, 290, 290, 290, 290, 290, 290, 290, 290, 290, 290, 290, 0, 0, 0, 0, 0, 0, 0, 0, 0, 0, 0, 0, 290, 290, 290, 290, 290, 290, 290, 290, 290, 290, 290, 0, 0, 0, 0, 0, 0, 0, 0, 0, 0, 0, 0, 290, 290, 290, 290, 290, 290, 290, 290, 290, 290, 290, 0, 0, 0, 0, 0, 0, 0, 0, 0, 0, 0, 0, 290, 290, 290, 290, 290, 290, 290, 290, 290, 290, 290, 0, 0, 0, 0, 0, 0, 0, 0, 0, 0, 0, 0, 290, 290, 290, 290, 290, 290, 290, 290, 290, 290, 290, 0, 0, 0, 0, 0, 0, 0, 0, 0, 0, 0, 0, 0, 0, 0, 0, 0, 290, 0, 0, 0, 0, 0, 0, 0, 0, 0, 0, 0],
         "height":20,
         "name":"floor",
         "opacity":1,
         "type":"tilelayer",
         "visible":true,
         "width":23,
         "x":0,
         "y":0
        }, 
        {
         "data":[412, 610, 610, 610, 610, 610, 610, 610, 610, 610, 610, 610, 610, 610, 610, 610, 610, 610, 610, 610, 610, 610, 410, 412, 618, 618, 618, 618, 618, 618, 618, 618, 618, 618, 618, 618, 618, 618, 618, 618, 618, 618, 618, 618, 618, 410, 412, 0, 0, 0, 280, 281, 0, 0, 0, 0, 0, 0, 0, 0, 0, 0, 0, 280, 281, 0, 0, 0, 410, 412, 0, 0, 0, 312, 313, 380, 0, 0, 0, 0, 0, 0, 0, 0, 0, 0, 312, 313, 0, 0, 0, 410, 412, 0, 0, 0, 312, 442, 281, 0, 0, 0, 0, 0, 0, 0, 0, 0, 0, 312, 313, 0, 0, 0, 410, 412, 0, 0, 0, 344, 345, 313, 0, 0, 0, 0, 0, 0, 0, 0, 0, 0, 344, 345, 0, 0, 0, 410, 412, 0, 0, 0, 0, 344, 345, 0, 0, 0, 0, 0, 0, 0, 0, 515, 0, 0, 0, 0, 0, 0, 410, 412, 0, 0, 0, 0, 0, 0, 0, 238, 239, 239, 239, 239, 239, 239, 240, 0, 0, 0, 0, 0, 0, 410, 473, 0, 0, 0, 0, 0, 0, 0, 270, 271, 271, 271, 271, 271, 271, 272, 0, 0, 0, 0, 0, 0, 476, 505, 506, 379, 379, 379, 380, 0, 0, 270, 271, 271, 271, 271, 271, 271, 272, 0, 378, 379, 379, 379, 507, 508, 0, 0, 0, 0, 0, 412, 515, 0, 302, 303, 303, 303, 303, 303, 303, 304, 0, 410, 0, 0, 0, 0, 0, 0, 0, 0, 0, 0, 412, 515, 0, 1, 1, 1, 1, 1, 1, 1, 1, 0, 410, 0, 0, 0, 0, 0, 0, 0, 0, 0, 0, 412, 515, 0, 1, 2, 1, 0, 0, 1, 518, 4, 0, 410, 0, 0, 0, 0, 0, 0, 0, 0, 0, 0, 412, 515, 0, 33, 33, 33, 0, 0, 33, 33, 35, 0, 410, 0, 0, 0, 0, 0, 0, 0, 0, 0, 0, 412, 515, 0, 0, 0, 0, 0, 0, 0, 0, 0, 0, 410, 0, 0, 0, 0, 0, 0, 0, 0, 0, 0, 412, 515, 515, 515, 515, 0, 0, 0, 0, 515, 515, 0, 410, 0, 0, 0, 0, 0, 0, 0, 0, 0, 0, 412, 515, 515, 515, 519, 0, 0, 0, 0, 515, 515, 0, 410, 0, 0, 0, 0, 0, 0, 0, 0, 0, 0, 412, 519, 519, 519, 0, 0, 0, 0, 0, 519, 519, 0, 410, 0, 0, 0, 0, 0, 0, 0, 0, 0, 0, 473, 0, 0, 0, 0, 0, 0, 0, 0, 0, 0, 0, 476, 0, 0, 0, 0, 0, 0, 0, 0, 0, 0, 505, 506, 379, 379, 379, 379, 0, 379, 379, 379, 379, 507, 508, 0, 0, 0, 0, 0],
         "height":20,
         "name":"walls",
         "opacity":1,
         "type":"tilelayer",
         "visible":true,
         "width":23,
         "x":0,
         "y":0
        }, 
        {
         "data":[0, 0, 0, 0, 0, 0, 0, 0, 0, 0, 0, 495, 0, 0, 0, 0, 0, 0, 0, 0, 0, 0, 0, 0, 0, 516, 0, 378, 380, 0, 0, 0, 0, 0, 0, 0, 0, 0, 0, 0, 378, 380, 0, 516, 0, 0, 0, 0, 0, 0, 442, 444, 0, 0, 0, 0, 0, 0, 0, 0, 0, 0, 0, 442, 444, 0, 0, 0, 0, 0, 0, 0, 0, 0, 378, 0, 0, 0, 0, 0, 0, 0, 0, 0, 0, 0, 0, 0, 0, 0, 0, 0, 0, 0, 0, 0, 0, 280, 444, 0, 0, 0, 0, 0, 0, 0, 0, 0, 0, 0, 0, 0, 0, 0, 0, 0, 0, 0, 0, 0, 312, 0, 0, 0, 0, 0, 0, 0, 0, 0, 0, 0, 0, 0, 0, 0, 0, 0, 0, 0, 0, 0, 0, 0, 0, 0, 0, 0, 0, 0, 0, 0, 0, 0, 0, 0, 0, 0, 0, 0, 0, 0, 0, 0, 0, 0, 0, 0, 0, 0, 0, 0, 0, 0, 0, 0, 0, 0, 0, 0, 0, 0, 0, 0, 0, 474, 0, 0, 0, 0, 0, 0, 0, 0, 0, 0, 0, 0, 0, 0, 0, 0, 0, 0, 0, 475, 0, 0, 0, 0, 0, 0, 0, 0, 0, 0, 0, 0, 0, 0, 0, 0, 0, 0, 0, 0, 0, 0, 0, 0, 0, 0, 0, 0, 0, 0, 0, 0, 0, 0, 0, 0, 0, 0, 0, 0, 0, 0, 0, 0, 0, 0, 0, 0, 0, 0, 0, 0, 0, 0, 0, 0, 0, 0, 495, 495, 0, 0, 0, 0, 0, 0, 0, 0, 0, 0, 0, 0, 0, 0, 0, 0, 0, 0, 0, 0, 0, 0, 0, 0, 0, 0, 0, 0, 0, 0, 0, 0, 0, 0, 0, 0, 0, 0, 0, 0, 0, 0, 0, 0, 0, 0, 0, 0, 0, 0, 0, 0, 0, 0, 0, 0, 0, 0, 0, 0, 0, 0, 0, 0, 0, 0, 0, 0, 0, 0, 0, 0, 0, 0, 0, 0, 0, 0, 0, 0, 0, 0, 0, 0, 0, 0, 0, 0, 0, 0, 0, 0, 0, 0, 0, 0, 0, 0, 0, 0, 0, 0, 0, 0, 0, 0, 0, 0, 0, 0, 0, 0, 0, 0, 0, 0, 0, 0, 0, 0, 0, 0, 0, 0, 0, 0, 0, 0, 0, 0, 0, 0, 0, 0, 0, 0, 0, 0, 0, 0, 0, 0, 0, 0, 0, 0, 0, 0, 0, 0, 0, 0, 0, 0, 474, 0, 0, 0, 0, 0, 0, 0, 0, 0, 475, 0, 0, 0, 0, 0, 0, 0, 0, 0, 0, 0, 0, 0, 0, 0, 0, 0, 0, 0, 0, 0, 0, 0, 0, 0, 0, 0, 0, 0],
         "height":20,
         "name":"decals",
         "opacity":1,
         "type":"tilelayer",
         "visible":true,
         "width":23,
         "x":0,
         "y":0
        }, 
        {
         "data":[0, 0, 0, 0, 0, 0, 0, 0, 0, 0, 0, 0, 0, 0, 0, 0, 0, 0, 0, 0, 0, 0, 0, 0, 0, 0, 0, 0, 0, 0, 0, 0, 0, 0, 0, 0, 0, 0, 0, 0, 0, 0, 0, 0, 0, 0, 0, 0, 0, 0, 0, 0, 0, 0, 0, 0, 0, 0, 0, 0, 0, 0, 0, 0, 0, 0, 0, 0, 0, 0, 0, 0, 0, 0, 0, 0, 0, 0, 0, 0, 0, 0, 0, 0, 0, 0, 0, 0, 0, 0, 0, 0, 0, 0, 0, 0, 0, 0, 0, 0, 0, 0, 0, 0, 0, 0, 0, 0, 0, 0, 0, 0, 0, 0, 0, 0, 0, 0, 0, 0, 0, 0, 0, 0, 0, 0, 0, 0, 0, 0, 0, 0, 0, 0, 0, 0, 0, 0, 0, 0, 0, 0, 0, 0, 0, 0, 0, 0, 0, 0, 0, 0, 0, 0, 0, 0, 0, 0, 0, 0, 0, 0, 0, 0, 0, 0, 0, 0, 0, 0, 0, 0, 0, 0, 0, 0, 0, 0, 0, 0, 0, 0, 0, 0, 0, 0, 0, 0, 0, 0, 0, 0, 0, 0, 0, 0, 0, 0, 0, 0, 0, 0, 0, 0, 0, 0, 0, 0, 0, 0, 0, 0, 0, 0, 0, 0, 0, 0, 0, 0, 0, 0, 0, 0, 0, 0, 0, 0, 0, 0, 0, 0, 0, 0, 0, 0, 0, 0, 0, 0, 0, 0, 0, 0, 0, 0, 0, 0, 0, 0, 0, 0, 0, 0, 0, 0, 0, 0, 0, 0, 0, 0, 0, 0, 0, 0, 0, 0, 0, 0, 0, 0, 0, 0, 0, 0, 0, 0, 0, 0, 0, 0, 0, 0, 0, 0, 0, 0, 0, 0, 0, 0, 0, 0, 0, 0, 0, 0, 0, 0, 0, 0, 0, 0, 0, 0, 0, 0, 0, 0, 0, 0, 0, 0, 0, 0, 0, 0, 0, 0, 0, 0, 0, 0, 0, 0, 0, 0, 0, 0, 0, 0, 0, 0, 0, 0, 0, 0, 0, 0, 0, 0, 0, 0, 0, 0, 0, 0, 0, 0, 0, 0, 0, 0, 0, 0, 0, 0, 0, 0, 0, 0, 0, 0, 0, 0, 0, 0, 0, 0, 0, 0, 0, 0, 0, 0, 0, 0, 0, 0, 0, 0, 0, 0, 0, 0, 0, 0, 0, 0, 0, 0, 0, 0, 0, 0, 0, 0, 0, 0, 0, 0, 0, 0, 0, 0, 0, 0, 0, 0, 0, 0, 0, 0, 0, 0, 0, 0, 0, 0, 0, 0, 0, 0, 0, 0, 0, 0, 0, 0, 0, 0, 0, 0, 0, 0, 0, 0, 0, 0, 0, 0, 0, 0, 0, 0, 0, 0, 0, 0, 0, 0, 0, 0, 0, 0, 0, 0, 0, 0],
         "height":20,
         "name":"grass",
         "opacity":1,
         "type":"tilelayer",
         "visible":true,
         "width":23,
         "x":0,
         "y":0
        }, 
        {
         "data":[0, 0, 0, 0, 0, 0, 0, 0, 0, 0, 0, 0, 0, 0, 0, 0, 0, 0, 0, 0, 0, 0, 0, 0, 0, 0, 0, 0, 0, 0, 0, 0, 0, 0, 0, 0, 0, 0, 0, 0, 0, 0, 0, 0, 0, 0, 0, 0, 0, 0, 0, 0, 0, 0, 0, 0, 0, 0, 0, 0, 0, 0, 0, 0, 0, 0, 0, 0, 0, 0, 0, 0, 0, 0, 0, 0, 0, 0, 0, 0, 0, 0, 0, 0, 0, 0, 0, 0, 0, 0, 0, 0, 0, 0, 0, 0, 0, 0, 0, 0, 0, 0, 0, 0, 0, 0, 0, 0, 0, 0, 0, 0, 0, 0, 0, 0, 0, 0, 0, 0, 0, 0, 0, 0, 0, 0, 0, 0, 0, 0, 0, 0, 0, 0, 0, 0, 0, 0, 0, 0, 0, 0, 0, 0, 0, 0, 0, 0, 0, 0, 0, 0, 0, 0, 0, 0, 0, 0, 0, 0, 0, 0, 0, 0, 0, 0, 0, 0, 0, 0, 0, 0, 0, 0, 0, 0, 0, 0, 0, 0, 0, 0, 0, 0, 0, 0, 0, 0, 0, 0, 0, 0, 0, 0, 0, 0, 0, 0, 0, 0, 0, 0, 0, 0, 0, 0, 0, 0, 0, 0, 0, 0, 0, 0, 0, 0, 0, 0, 0, 0, 0, 0, 0, 0, 0, 0, 0, 0, 0, 0, 0, 0, 0, 0, 0, 0, 0, 0, 0, 0, 0, 0, 0, 0, 0, 0, 0, 0, 0, 0, 0, 0, 0, 0, 0, 0, 0, 0, 0, 0, 0, 0, 0, 0, 0, 0, 0, 0, 0, 0, 0, 0, 0, 0, 0, 0, 0, 0, 0, 0, 0, 0, 0, 0, 0, 0, 0, 631, 631, 0, 0, 0, 0, 0, 0, 0, 0, 0, 0, 0, 0, 0, 0, 0, 0, 0, 0, 0, 0, 0, 0, 0, 0, 0, 0, 0, 0, 0, 0, 0, 0, 0, 0, 0, 0, 0, 0, 0, 0, 0, 0, 0, 0, 0, 0, 0, 0, 0, 0, 0, 0, 0, 0, 0, 0, 0, 0, 0, 0, 0, 0, 0, 0, 0, 0, 0, 0, 0, 0, 0, 0, 0, 0, 0, 0, 0, 0, 0, 0, 0, 0, 0, 0, 0, 0, 0, 0, 0, 0, 0, 0, 0, 0, 0, 0, 0, 0, 0, 0, 0, 0, 0, 0, 0, 0, 0, 0, 0, 0, 0, 0, 0, 0, 0, 0, 0, 0, 0, 0, 0, 0, 0, 0, 0, 0, 0, 0, 0, 0, 0, 0, 0, 0, 0, 0, 0, 0, 0, 0, 0, 0, 0, 0, 0, 0, 0, 0, 0, 0, 0, 0, 0, 0, 0, 0, 0, 0, 0, 0, 0, 0, 0, 0, 0, 0, 0, 0, 0, 0, 0],
         "height":20,
         "name":"airborne",
         "opacity":1,
         "type":"tilelayer",
         "visible":true,
         "width":23,
         "x":0,
         "y":0
        }, 
        {
         "draworder":"topdown",
         "height":48,
         "name":"doors",
         "objects":[
                {
                 "gid":785,
                 "height":0,
                 "name":"exit",
                 "properties":
                    {
                     "direction":"down",
                     "width":"1"
                    },
                 "rotation":0,
                 "type":"door",
                 "visible":true,
                 "width":0,
                 "x":352,
                 "y":640
                }, 
                {
                 "gid":802,
                 "height":0,
                 "name":"elevator",
                 "properties":
                    {
                     "direction":"up",
                     "width":"2"
                    },
                 "rotation":0,
                 "type":"door",
                 "visible":true,
                 "width":0,
                 "x":352,
                 "y":448
                }],
         "opacity":1,
         "type":"objectgroup",
         "visible":true,
         "width":24,
         "x":0,
         "y":0
        }, 
        {
         "draworder":"topdown",
         "height":48,
         "name":"warps",
         "objects":[
                {
                 "gid":809,
                 "height":0,
                 "name":"to_base_east_2f",
                 "properties":
                    {
                     "map":"base_east_2f",
                     "x":"23",
                     "y":"8"
                    },
                 "rotation":0,
                 "type":"warp",
                 "visible":true,
                 "width":0,
                 "x":352,
                 "y":640
                }, 
                {
                 "gid":809,
                 "height":0,
                 "name":"elevator",
                 "properties":
                    {
                     "elevator":"base_east_2f_ne",
                     "map":"elevator",
                     "x":"12",
                     "y":"10"
                    },
                 "rotation":0,
                 "type":"warp",
                 "visible":true,
                 "width":0,
                 "x":352,
                 "y":448
                }, 
                {
                 "gid":809,
                 "height":0,
                 "name":"elevator",
                 "properties":
                    {
                     "elevator":"base_east_2f_ne",
                     "map":"elevator",
                     "x":"12",
                     "y":"10"
                    },
                 "rotation":0,
                 "type":"warp",
                 "visible":true,
                 "width":0,
                 "x":384,
                 "y":448
                }],
         "opacity":1,
         "type":"objectgroup",
         "visible":true,
         "width":24,
         "x":0,
         "y":0
        }, 
        {
         "draworder":"topdown",
         "height":48,
         "name":"waypoints",
         "objects":[],
         "opacity":1,
         "type":"objectgroup",
         "visible":true,
         "width":24,
         "x":0,
         "y":0
        }, 
        {
         "draworder":"topdown",
         "height":48,
         "name":"npcs",
         "objects":[],
         "opacity":1,
         "type":"objectgroup",
         "visible":true,
         "width":24,
         "x":0,
         "y":0
        }, 
        {
         "draworder":"topdown",
         "height":20,
         "name":"items",
         "objects":[
                {
                 "gid":819,
                 "height":0,
                 "name":"landmine",
                 "properties":
                    {

                    },
                 "rotation":0,
                 "type":"landmine",
                 "visible":true,
                 "width":0,
                 "x":352,
                 "y":128
                }, 
                {
                 "gid":819,
                 "height":0,
                 "name":"landmine",
                 "properties":
                    {

                    },
                 "rotation":0,
                 "type":"landmine",
                 "visible":true,
                 "width":0,
                 "x":320,
                 "y":128
                }, 
                {
                 "gid":819,
                 "height":0,
                 "name":"landmine",
                 "properties":
                    {

                    },
                 "rotation":0,
                 "type":"landmine",
                 "visible":true,
                 "width":0,
                 "x":384,
                 "y":128
                }, 
                {
                 "gid":819,
                 "height":0,
                 "name":"landmine",
                 "properties":
                    {

                    },
                 "rotation":0,
                 "type":"landmine",
                 "visible":true,
                 "width":0,
                 "x":352,
                 "y":160
                }, 
                {
                 "gid":819,
                 "height":0,
                 "name":"landmine",
                 "properties":
                    {

                    },
                 "rotation":0,
                 "type":"landmine",
                 "visible":true,
                 "width":0,
                 "x":320,
                 "y":160
                }, 
                {
                 "gid":819,
                 "height":0,
                 "name":"landmine",
                 "properties":
                    {

                    },
                 "rotation":0,
                 "type":"landmine",
                 "visible":true,
                 "width":0,
                 "x":384,
                 "y":160
                }, 
                {
                 "gid":819,
                 "height":0,
                 "name":"landmine",
                 "properties":
                    {

                    },
                 "rotation":0,
                 "type":"landmine",
                 "visible":true,
                 "width":0,
                 "x":288,
                 "y":128
                }, 
                {
                 "gid":819,
                 "height":0,
                 "name":"landmine",
                 "properties":
                    {

                    },
                 "rotation":0,
                 "type":"landmine",
                 "visible":true,
                 "width":0,
                 "x":416,
                 "y":128
                }, 
                {
                 "gid":819,
                 "height":0,
                 "name":"landmine",
                 "properties":
                    {

                    },
                 "rotation":0,
                 "type":"landmine",
                 "visible":true,
                 "width":0,
                 "x":288,
                 "y":96
                }, 
                {
                 "gid":819,
                 "height":0,
                 "name":"landmine",
                 "properties":
                    {

                    },
                 "rotation":0,
                 "type":"landmine",
                 "visible":true,
                 "width":0,
                 "x":416,
                 "y":96
                }, 
                {
                 "gid":819,
                 "height":0,
                 "name":"landmine",
                 "properties":
                    {

                    },
                 "rotation":0,
                 "type":"landmine",
                 "visible":true,
                 "width":0,
                 "x":384,
                 "y":96
                }, 
                {
                 "gid":819,
                 "height":0,
                 "name":"landmine",
                 "properties":
                    {

                    },
                 "rotation":0,
                 "type":"landmine",
                 "visible":true,
                 "width":0,
                 "x":320,
                 "y":96
                }, 
                {
                 "gid":819,
                 "height":0,
                 "name":"landmine",
                 "properties":
                    {

                    },
                 "rotation":0,
                 "type":"landmine",
                 "visible":true,
                 "width":0,
                 "x":416,
                 "y":160
                }, 
                {
                 "gid":819,
                 "height":0,
                 "name":"landmine",
                 "properties":
                    {

                    },
                 "rotation":0,
                 "type":"landmine",
                 "visible":true,
                 "width":0,
                 "x":288,
                 "y":160
                }, 
                {
                 "gid":830,
                 "height":0,
                 "name":"booster",
                 "properties":
                    {

                    },
                 "rotation":0,
                 "type":"booster",
                 "visible":true,
                 "width":0,
                 "x":352,
                 "y":96
                }],
         "opacity":1,
         "type":"objectgroup",
         "visible":true,
         "width":23,
         "x":0,
         "y":0
        }, 
        {
         "draworder":"topdown",
         "height":48,
         "name":"cameras",
         "objects":[
                {
                 "gid":815,
                 "height":0,
                 "name":"guncamera1",
                 "properties":
                    {
                     "direction":"left"
                    },
                 "rotation":0,
                 "type":"gun",
                 "visible":true,
                 "width":0,
                 "x":704,
                 "y":256
                }, 
                {
                 "gid":816,
                 "height":0,
                 "name":"guncamera2",
                 "properties":
                    {
                     "direction":"right"
                    },
                 "rotation":0,
                 "type":"gun",
                 "visible":true,
                 "width":0,
                 "x":0,
                 "y":256
                }],
         "opacity":1,
         "type":"objectgroup",
         "visible":true,
         "width":24,
         "x":0,
         "y":0
        }, 
        {
         "draworder":"topdown",
         "height":20,
         "name":"ducts",
         "objects":[],
         "opacity":1,
         "type":"objectgroup",
         "visible":true,
         "width":23,
         "x":0,
         "y":0
        }, 
        {
         "draworder":"topdown",
         "height":24,
         "name":"lights",
         "objects":[
                {
                 "ellipse":true,
                 "height":320,
                 "name":"light",
                 "properties":
                    {

                    },
                 "rotation":0,
                 "type":"light",
                 "visible":true,
                 "width":320,
                 "x":224,
                 "y":192
                }, 
                {
                 "ellipse":true,
                 "height":352,
                 "name":"light2",
                 "properties":
                    {

                    },
                 "rotation":0,
                 "type":"light",
                 "visible":true,
                 "width":352,
                 "x":192,
                 "y":-160
                }],
         "opacity":1,
         "type":"objectgroup",
         "visible":true,
         "width":28,
         "x":0,
         "y":0
        }],
 "orientation":"orthogonal",
 "properties":
    {
     "ambience":"0.5,0.5,0.5",
     "soundtrack":"tension"
    },
 "renderorder":"left-up",
 "tileheight":32,
 "tilesets":[
        {
         "firstgid":1,
         "image":"..\/..\/sprites\/tileset_51.png",
         "imageheight":512,
         "imagewidth":1024,
         "margin":0,
         "name":"tileset_51",
         "properties":
            {

            },
         "spacing":0,
         "tileheight":32,
         "tilewidth":32
        }, 
        {
         "firstgid":513,
         "image":"..\/..\/sprites\/supplemental.png",
         "imageheight":128,
         "imagewidth":128,
         "margin":0,
         "name":"supplemental",
         "properties":
            {

            },
         "spacing":0,
         "tileheight":32,
         "tilewidth":32
        }, 
        {
         "firstgid":529,
         "image":"..\/..\/sprites\/pipoya_exteriors.png",
         "imageheight":960,
         "imagewidth":256,
         "margin":0,
         "name":"pipoya_exteriors",
         "properties":
            {

            },
         "spacing":0,
         "tileheight":32,
         "tilewidth":32
        }, 
        {
         "firstgid":769,
         "image":"..\/..\/sprites\/common.png",
         "imageheight":256,
         "imagewidth":256,
         "margin":0,
         "name":"common",
         "properties":
            {

            },
         "spacing":0,
         "tileheight":32,
         "tilewidth":32
        }, 
        {
         "firstgid":833,
         "image":"..\/..\/sprites\/modern_interior.png",
         "imageheight":512,
         "imagewidth":512,
         "margin":0,
         "name":"modern_interior",
         "properties":
            {

            },
         "spacing":0,
         "tileheight":32,
         "tilewidth":32
        }],
 "tilewidth":32,
 "version":1,
 "width":23
}