{ "height":37,
 "layers":[
        {
         "data":[594, 594, 594, 594, 594, 594, 594, 594, 594, 594, 594, 4, 4, 4, 4, 4, 4, 4, 4, 4, 4, 4, 4, 4, 4, 4, 4, 4, 4, 4, 1, 1, 4, 4, 4, 4, 4, 594, 0, 0, 0, 0, 0, 0, 0, 0, 0, 0, 0, 0, 0, 0, 0, 0, 0, 0, 0, 0, 0, 0, 0, 0, 0, 0, 0, 0, 0, 0, 0, 0, 0, 0, 0, 4, 594, 594, 594, 594, 594, 594, 594, 594, 594, 594, 594, 4, 4, 4, 4, 4, 4, 4, 4, 4, 4, 4, 4, 4, 4, 4, 4, 4, 4, 4, 4, 4, 4, 4, 4, 4, 4, 594, 594, 594, 594, 594, 594, 594, 594, 594, 594, 594, 4, 4, 4, 4, 4, 4, 4, 4, 4, 4, 4, 4, 4, 4, 4, 4, 4, 4, 4, 4, 4, 4, 4, 4, 4, 4, 594, 594, 594, 594, 594, 594, 594, 594, 594, 594, 594, 4, 4, 4, 4, 4, 4, 4, 4, 4, 4, 4, 4, 4, 4, 4, 4, 4, 4, 4, 4, 4, 4, 4, 4, 4, 4, 594, 594, 594, 594, 594, 594, 594, 594, 594, 594, 594, 4, 4, 4, 4, 4, 4, 4, 4, 4, 4, 4, 4, 4, 4, 4, 4, 4, 4, 4, 4, 4, 4, 4, 4, 4, 4, 594, 594, 594, 594, 594, 594, 594, 594, 594, 594, 594, 4, 4, 4, 4, 4, 4, 4, 4, 4, 4, 4, 4, 4, 4, 4, 4, 4, 4, 4, 4, 4, 4, 4, 4, 4, 4, 594, 594, 594, 594, 594, 594, 594, 594, 594, 594, 594, 4, 4, 4, 4, 4, 4, 4, 4, 4, 4, 4, 4, 4, 4, 4, 4, 4, 4, 4, 4, 4, 4, 4, 4, 4, 4, 594, 594, 594, 594, 594, 594, 594, 594, 594, 594, 594, 4, 4, 4, 4, 4, 4, 4, 4, 4, 4, 4, 4, 4, 4, 4, 4, 4, 4, 4, 4, 4, 4, 4, 4, 4, 4, 594, 594, 594, 594, 594, 594, 594, 594, 594, 594, 594, 4, 4, 4, 4, 4, 4, 4, 4, 4, 4, 4, 4, 4, 4, 4, 4, 4, 4, 4, 4, 4, 4, 4, 4, 4, 4, 594, 594, 594, 594, 594, 594, 594, 594, 594, 594, 594, 4, 4, 4, 4, 4, 4, 4, 4, 4, 4, 4, 4, 4, 4, 4, 4, 4, 4, 4, 4, 4, 4, 4, 4, 4, 4, 594, 594, 594, 594, 594, 594, 594, 594, 594, 594, 594, 4, 4, 4, 4, 4, 4, 4, 4, 4, 4, 4, 4, 4, 4, 4, 4, 4, 4, 4, 4, 4, 4, 4, 4, 4, 4, 594, 594, 594, 594, 594, 594, 594, 594, 594, 594, 594, 4, 4, 4, 4, 4, 4, 4, 4, 4, 4, 4, 4, 4, 4, 4, 4, 4, 4, 4, 4, 4, 4, 4, 4, 4, 4, 594, 594, 594, 594, 594, 594, 594, 594, 594, 594, 594, 4, 4, 4, 4, 4, 4, 4, 4, 4, 4, 4, 4, 4, 4, 4, 4, 4, 4, 4, 4, 4, 4, 4, 4, 4, 4, 594, 594, 594, 594, 594, 594, 594, 594, 594, 594, 594, 4, 4, 4, 4, 4, 4, 4, 4, 4, 4, 4, 4, 4, 4, 4, 4, 4, 4, 4, 4, 4, 4, 4, 4, 4, 4, 594, 594, 594, 594, 594, 594, 594, 594, 594, 594, 594, 4, 4, 4, 4, 4, 4, 4, 4, 4, 4, 4, 4, 4, 4, 4, 4, 4, 4, 4, 4, 4, 4, 4, 4, 4, 4, 594, 594, 594, 594, 594, 594, 594, 594, 594, 594, 594, 4, 4, 4, 4, 4, 4, 4, 4, 4, 4, 4, 4, 4, 4, 4, 4, 4, 4, 4, 4, 4, 4, 4, 4, 4, 4, 594, 594, 594, 594, 594, 594, 594, 594, 594, 594, 594, 4, 4, 4, 4, 4, 4, 4, 4, 4, 4, 4, 4, 4, 4, 4, 4, 4, 4, 4, 4, 4, 4, 4, 4, 4, 4, 594, 594, 594, 594, 594, 594, 594, 594, 594, 594, 594, 4, 4, 4, 4, 4, 4, 4, 4, 4, 4, 4, 4, 4, 4, 4, 4, 4, 4, 4, 4, 4, 4, 4, 4, 4, 4, 594, 594, 594, 594, 594, 594, 594, 594, 594, 594, 594, 4, 4, 4, 4, 4, 4, 4, 4, 4, 4, 4, 4, 4, 4, 4, 4, 4, 4, 4, 4, 4, 4, 4, 4, 4, 4, 594, 594, 594, 594, 594, 594, 594, 594, 594, 594, 594, 4, 4, 4, 4, 4, 4, 4, 4, 4, 4, 4, 4, 4, 4, 4, 4, 4, 4, 4, 4, 4, 4, 4, 4, 4, 4, 594, 594, 594, 594, 594, 594, 594, 594, 594, 594, 594, 4, 4, 4, 4, 4, 4, 4, 4, 4, 4, 4, 4, 4, 4, 4, 4, 4, 4, 4, 4, 4, 4, 4, 4, 4, 4, 594, 594, 594, 594, 594, 594, 594, 594, 594, 594, 594, 4, 4, 4, 4, 4, 4, 4, 4, 4, 4, 4, 4, 4, 4, 4, 4, 4, 4, 4, 4, 4, 4, 4, 4, 4, 4, 594, 594, 594, 594, 594, 594, 594, 594, 594, 594, 594, 4, 4, 4, 4, 4, 4, 4, 4, 4, 4, 4, 4, 4, 4, 4, 4, 4, 4, 4, 4, 4, 4, 4, 4, 4, 4, 594, 594, 594, 594, 594, 594, 594, 594, 594, 594, 594, 4, 4, 4, 4, 4, 4, 4, 4, 4, 4, 4, 4, 4, 4, 4, 4, 4, 4, 4, 4, 4, 4, 4, 4, 4, 4, 594, 594, 594, 594, 594, 594, 594, 594, 594, 594, 594, 4, 4, 4, 4, 4, 4, 4, 4, 4, 4, 4, 4, 4, 4, 4, 4, 4, 4, 4, 4, 4, 4, 4, 4, 4, 4, 594, 594, 594, 594, 594, 594, 594, 594, 594, 594, 594, 4, 4, 4, 4, 4, 4, 4, 4, 4, 4, 4, 4, 4, 4, 4, 4, 4, 4, 4, 4, 4, 4, 4, 4, 4, 4, 594, 594, 594, 594, 594, 594, 594, 594, 594, 594, 594, 4, 4, 4, 4, 4, 4, 4, 4, 4, 4, 4, 4, 4, 4, 4, 4, 4, 4, 4, 4, 4, 4, 4, 4, 4, 4, 594, 594, 594, 594, 594, 594, 594, 594, 594, 594, 594, 4, 4, 4, 4, 4, 4, 4, 4, 4, 4, 4, 4, 4, 4, 4, 4, 4, 4, 4, 4, 4, 4, 4, 4, 4, 4, 594, 594, 594, 594, 594, 594, 594, 594, 594, 594, 594, 4, 4, 4, 4, 4, 4, 4, 4, 4, 4, 4, 4, 4, 4, 4, 4, 4, 4, 4, 4, 4, 4, 4, 4, 4, 4, 594, 594, 594, 594, 594, 594, 594, 594, 594, 594, 594, 4, 4, 4, 4, 4, 4, 4, 4, 4, 4, 4, 4, 4, 4, 4, 4, 4, 4, 4, 4, 4, 4, 4, 4, 4, 4, 594, 594, 594, 594, 594, 594, 594, 594, 594, 594, 594, 4, 4, 4, 4, 4, 4, 4, 4, 4, 4, 4, 4, 4, 4, 4, 4, 4, 4, 4, 4, 4, 4, 4, 4, 4, 4, 594, 594, 594, 594, 594, 594, 594, 594, 594, 594, 594, 4, 4, 4, 4, 4, 4, 4, 4, 4, 4, 4, 4, 4, 4, 4, 4, 4, 4, 4, 4, 4, 4, 4, 4, 4, 4, 594, 594, 594, 594, 594, 594, 594, 594, 594, 594, 594, 4, 4, 4, 4, 4, 4, 4, 4, 4, 4, 4, 4, 4, 4, 4, 4, 4, 4, 4, 4, 4, 4, 4, 4, 4, 4, 4, 4, 4, 4, 4, 4, 4, 4, 4, 4, 4, 4, 4, 4, 4, 4, 4, 4, 4, 4, 4, 4, 4, 4, 4, 4, 4, 4, 4, 4, 4, 4, 4, 4, 4, 4, 4, 4, 4, 4, 4, 4, 4, 4, 4, 4, 4, 4, 4, 4, 4, 4, 4, 4, 4, 4, 4, 4, 4, 4, 4, 4, 4, 4, 4, 4, 4, 4, 4, 4, 4, 4, 4, 4, 4, 4, 4, 4, 4, 4, 4, 4, 4, 4, 4, 4, 4, 4, 4, 4, 4, 4, 4, 4, 4, 4, 4, 4, 4, 4, 4, 4, 4, 4, 4, 4, 4, 4, 4, 4, 4],
         "height":37,
         "name":"floor",
         "opacity":1,
         "type":"tilelayer",
         "visible":true,
         "width":37,
         "x":0,
         "y":0
        }, 
        {
         "data":[73, 90, 90, 90, 90, 90, 90, 90, 90, 90, 90, 1, 1, 90, 90, 90, 90, 90, 90, 90, 90, 90, 90, 90, 90, 90, 90, 90, 90, 90, 113, 115, 90, 90, 90, 90, 75, 111, 98, 98, 98, 98, 98, 98, 98, 98, 98, 98, 81, 83, 98, 98, 98, 98, 98, 98, 98, 98, 98, 98, 98, 98, 98, 98, 98, 98, 98, 121, 123, 98, 98, 98, 98, 103, 105, 106, 106, 106, 106, 106, 106, 106, 106, 106, 106, 81, 83, 106, 106, 106, 106, 106, 106, 106, 106, 106, 106, 106, 106, 106, 106, 106, 106, 106, 129, 131, 106, 106, 106, 106, 103, 0, 0, 0, 0, 0, 819, 0, 0, 0, 0, 0, 81, 83, 0, 0, 0, 0, 0, 0, 0, 0, 0, 0, 0, 0, 0, 0, 0, 0, 0, 97, 99, 0, 0, 0, 0, 103, 95, 0, 0, 0, 0, 0, 0, 0, 0, 0, 0, 81, 83, 0, 0, 0, 0, 0, 0, 0, 0, 0, 0, 0, 73, 75, 0, 0, 0, 0, 105, 107, 0, 0, 0, 0, 103, 103, 805, 0, 0, 0, 0, 0, 0, 0, 0, 0, 81, 83, 0, 0, 0, 0, 0, 0, 0, 0, 0, 0, 0, 81, 83, 0, 0, 0, 0, 0, 0, 0, 0, 0, 0, 103, 103, 819, 0, 0, 0, 0, 0, 0, 0, 0, 0, 81, 83, 0, 0, 0, 0, 0, 0, 0, 0, 0, 0, 0, 81, 83, 0, 0, 0, 0, 0, 0, 0, 0, 0, 0, 103, 103, 770, 770, 770, 771, 0, 0, 769, 770, 770, 770, 81, 83, 0, 0, 0, 0, 0, 0, 0, 0, 0, 0, 0, 81, 83, 0, 0, 0, 0, 0, 0, 0, 0, 0, 0, 103, 103, 801, 802, 801, 802, 0, 0, 801, 802, 801, 802, 81, 83, 0, 0, 0, 0, 0, 0, 0, 0, 0, 0, 0, 81, 83, 0, 113, 114, 114, 114, 114, 114, 114, 115, 0, 103, 103, 801, 802, 801, 802, 0, 0, 801, 802, 801, 802, 81, 83, 0, 0, 0, 0, 0, 0, 0, 0, 0, 0, 0, 81, 83, 0, 129, 130, 130, 130, 130, 130, 130, 131, 0, 103, 103, 784, 784, 784, 785, 0, 0, 783, 784, 784, 784, 81, 83, 0, 0, 0, 0, 0, 0, 0, 0, 0, 0, 0, 81, 83, 0, 97, 98, 98, 98, 98, 98, 98, 98, 0, 103, 103, 0, 0, 0, 0, 0, 0, 0, 0, 0, 0, 81, 83, 0, 0, 0, 0, 0, 0, 0, 0, 0, 0, 0, 81, 83, 0, 105, 106, 106, 106, 106, 106, 106, 107, 0, 103, 103, 0, 797, 770, 770, 770, 771, 0, 797, 798, 0, 81, 83, 0, 0, 0, 0, 0, 0, 0, 0, 0, 0, 0, 81, 83, 0, 0, 0, 0, 0, 0, 0, 0, 0, 0, 103, 103, 0, 801, 784, 784, 784, 785, 0, 801, 802, 0, 81, 83, 0, 0, 0, 0, 0, 0, 0, 0, 0, 0, 0, 81, 83, 0, 0, 0, 0, 0, 0, 0, 0, 0, 0, 103, 103, 0, 801, 802, 0, 0, 0, 0, 801, 802, 0, 81, 83, 0, 0, 0, 0, 0, 0, 0, 0, 0, 0, 0, 81, 83, 0, 0, 0, 0, 0, 0, 0, 0, 0, 0, 103, 103, 0, 801, 802, 0, 0, 0, 0, 801, 802, 0, 81, 83, 0, 0, 0, 0, 0, 0, 0, 0, 0, 0, 0, 81, 83, 113, 114, 115, 0, 0, 0, 0, 113, 114, 115, 103, 103, 0, 801, 802, 0, 0, 0, 0, 801, 802, 0, 81, 83, 0, 0, 0, 0, 0, 0, 0, 0, 0, 0, 0, 81, 83, 129, 130, 131, 0, 0, 0, 0, 129, 130, 131, 103, 103, 0, 801, 802, 0, 769, 770, 770, 801, 802, 0, 81, 83, 0, 0, 0, 0, 0, 0, 0, 0, 0, 0, 0, 81, 83, 97, 98, 99, 0, 0, 0, 0, 97, 98, 99, 103, 103, 0, 783, 785, 0, 783, 784, 784, 784, 785, 0, 81, 83, 0, 0, 0, 0, 0, 0, 0, 0, 0, 0, 0, 81, 83, 105, 106, 107, 0, 0, 0, 0, 105, 106, 107, 103, 103, 0, 0, 0, 0, 0, 0, 0, 0, 0, 0, 81, 83, 0, 0, 0, 0, 0, 0, 0, 0, 0, 0, 0, 81, 83, 0, 0, 0, 0, 0, 0, 0, 0, 0, 0, 103, 103, 770, 770, 770, 771, 0, 0, 769, 770, 770, 770, 81, 83, 0, 0, 0, 0, 0, 0, 0, 0, 0, 0, 0, 81, 83, 0, 0, 0, 0, 0, 0, 0, 0, 0, 0, 103, 103, 801, 802, 801, 802, 0, 0, 801, 802, 801, 802, 81, 83, 0, 0, 0, 0, 0, 0, 0, 0, 0, 0, 0, 81, 83, 0, 0, 0, 0, 0, 0, 0, 0, 0, 0, 103, 103, 784, 784, 784, 785, 0, 0, 783, 784, 784, 784, 81, 83, 0, 0, 0, 0, 0, 0, 0, 0, 0, 0, 0, 81, 83, 0, 0, 0, 113, 114, 114, 115, 0, 0, 0, 103, 103, 0, 0, 0, 0, 0, 0, 0, 0, 0, 0, 81, 83, 0, 0, 0, 0, 0, 0, 0, 0, 0, 0, 0, 81, 83, 0, 0, 0, 129, 130, 130, 131, 0, 0, 0, 103, 103, 0, 0, 797, 798, 0, 769, 770, 770, 0, 0, 81, 83, 0, 0, 0, 0, 0, 0, 0, 0, 0, 0, 0, 81, 83, 0, 0, 0, 97, 98, 98, 98, 0, 0, 0, 103, 103, 0, 0, 801, 802, 0, 801, 802, 802, 0, 0, 81, 83, 0, 0, 0, 0, 0, 0, 0, 0, 0, 0, 0, 81, 83, 0, 0, 0, 105, 106, 106, 107, 0, 0, 0, 103, 103, 0, 0, 801, 802, 0, 783, 784, 802, 0, 0, 81, 83, 0, 0, 0, 0, 0, 0, 0, 0, 0, 0, 0, 81, 83, 0, 0, 0, 0, 0, 0, 0, 0, 0, 0, 103, 103, 0, 0, 801, 802, 0, 0, 801, 802, 0, 0, 81, 83, 0, 0, 0, 0, 0, 0, 0, 0, 0, 0, 0, 81, 83, 0, 0, 0, 0, 0, 0, 0, 0, 0, 0, 103, 103, 0, 0, 769, 770, 771, 0, 801, 802, 0, 0, 81, 83, 0, 0, 0, 0, 0, 0, 0, 0, 0, 0, 0, 81, 83, 0, 0, 0, 0, 0, 0, 0, 0, 0, 0, 103, 103, 0, 0, 783, 784, 785, 0, 783, 785, 0, 0, 81, 83, 0, 0, 0, 0, 0, 0, 0, 0, 0, 0, 0, 81, 83, 0, 113, 114, 115, 0, 0, 113, 114, 115, 0, 103, 103, 0, 0, 0, 0, 0, 0, 0, 0, 0, 0, 81, 83, 0, 0, 0, 0, 0, 0, 0, 0, 0, 0, 0, 81, 83, 0, 129, 130, 131, 0, 0, 129, 130, 131, 0, 103, 103, 770, 770, 770, 771, 0, 0, 769, 770, 770, 770, 81, 83, 0, 0, 0, 0, 0, 0, 0, 0, 0, 0, 0, 81, 83, 0, 97, 98, 99, 0, 0, 97, 98, 99, 0, 103, 103, 801, 802, 801, 802, 0, 0, 801, 802, 801, 802, 89, 91, 0, 0, 0, 0, 0, 0, 0, 0, 0, 0, 0, 81, 83, 0, 105, 106, 107, 0, 0, 105, 106, 107, 0, 111, 103, 784, 784, 784, 785, 0, 0, 783, 784, 784, 784, 97, 99, 0, 0, 0, 0, 0, 0, 0, 0, 0, 0, 0, 81, 83, 0, 0, 0, 0, 0, 0, 0, 0, 0, 0, 96, 103, 0, 0, 0, 0, 0, 0, 0, 0, 0, 0, 105, 107, 0, 0, 0, 0, 0, 0, 0, 0, 0, 0, 0, 81, 83, 0, 0, 0, 0, 0, 0, 0, 0, 0, 0, 104, 103, 0, 0, 0, 0, 0, 0, 0, 0, 0, 0, 0, 0, 0, 0, 0, 0, 0, 0, 0, 0, 0, 0, 0, 81, 83, 0, 0, 0, 0, 0, 0, 0, 0, 0, 0, 0, 81, 74, 74, 74, 74, 74, 74, 74, 74, 74, 74, 74, 74, 74, 74, 74, 74, 74, 74, 74, 74, 74, 74, 74, 1, 1, 74, 74, 74, 74, 74, 74, 74, 74, 74, 74, 110],
         "height":37,
         "name":"walls",
         "opacity":1,
         "type":"tilelayer",
         "visible":true,
         "width":37,
         "x":0,
         "y":0
        }, 
        {
         "data":[0, 0, 0, 0, 0, 0, 0, 0, 0, 0, 0, 11, 12, 0, 0, 0, 0, 0, 0, 0, 0, 0, 0, 0, 0, 0, 0, 0, 0, 0, 0, 0, 0, 0, 0, 0, 0, 0, 0, 0, 0, 790, 791, 792, 0, 0, 0, 0, 27, 28, 0, 0, 0, 0, 0, 0, 0, 0, 0, 0, 0, 0, 0, 0, 0, 0, 0, 52, 52, 0, 0, 0, 0, 0, 0, 0, 0, 0, 804, 805, 806, 0, 0, 0, 0, 27, 28, 0, 0, 0, 0, 0, 0, 0, 0, 0, 0, 0, 0, 0, 0, 0, 0, 0, 0, 0, 0, 0, 0, 0, 0, 0, 0, 0, 0, 818, 0, 820, 0, 0, 0, 0, 27, 28, 0, 0, 0, 0, 0, 0, 0, 0, 0, 0, 0, 0, 0, 0, 0, 0, 0, 0, 0, 0, 0, 0, 0, 0, 0, 0, 0, 0, 0, 0, 0, 0, 0, 0, 0, 27, 28, 0, 0, 0, 0, 0, 0, 0, 0, 0, 0, 0, 11, 12, 0, 0, 0, 0, 0, 0, 0, 0, 0, 0, 0, 0, 0, 0, 0, 0, 0, 0, 0, 0, 0, 0, 27, 28, 0, 0, 0, 0, 0, 0, 0, 0, 0, 0, 0, 27, 28, 0, 0, 0, 0, 0, 0, 0, 0, 0, 0, 0, 0, 0, 820, 0, 0, 0, 0, 0, 0, 0, 0, 27, 28, 0, 0, 0, 0, 0, 0, 0, 0, 0, 0, 0, 27, 28, 0, 0, 0, 0, 0, 0, 0, 0, 0, 0, 0, 0, 0, 0, 0, 0, 0, 0, 0, 0, 0, 0, 27, 28, 0, 0, 0, 0, 0, 0, 0, 0, 0, 0, 0, 27, 28, 0, 0, 0, 0, 0, 0, 0, 0, 0, 0, 0, 0, 770, 770, 770, 771, 0, 0, 769, 770, 770, 770, 27, 28, 0, 0, 0, 0, 0, 0, 0, 0, 0, 0, 0, 27, 28, 0, 0, 0, 0, 57, 0, 0, 0, 0, 0, 0, 0, 770, 770, 770, 771, 0, 0, 769, 770, 770, 770, 27, 28, 0, 0, 0, 0, 0, 0, 0, 0, 0, 0, 0, 27, 28, 0, 0, 50, 0, 0, 0, 52, 0, 0, 0, 0, 0, 0, 0, 0, 0, 0, 0, 0, 0, 0, 0, 27, 28, 0, 0, 0, 0, 0, 0, 0, 0, 0, 0, 0, 27, 28, 0, 0, 0, 0, 0, 0, 0, 0, 0, 0, 0, 0, 0, 0, 0, 0, 0, 0, 0, 0, 0, 0, 27, 28, 0, 0, 0, 0, 0, 0, 0, 0, 0, 0, 0, 27, 28, 0, 0, 0, 0, 0, 0, 0, 0, 0, 0, 0, 0, 0, 0, 0, 0, 0, 0, 0, 0, 0, 0, 27, 28, 0, 0, 0, 0, 0, 0, 0, 0, 0, 0, 0, 27, 28, 0, 0, 0, 0, 0, 0, 0, 0, 0, 0, 0, 0, 0, 0, 802, 0, 0, 0, 0, 0, 0, 0, 27, 28, 0, 0, 0, 0, 0, 0, 0, 0, 0, 0, 0, 27, 28, 0, 0, 0, 0, 0, 0, 0, 0, 0, 0, 0, 0, 0, 0, 0, 0, 0, 0, 0, 0, 0, 0, 27, 28, 0, 0, 0, 0, 0, 0, 0, 0, 0, 0, 0, 27, 28, 0, 0, 0, 0, 0, 0, 0, 0, 0, 0, 0, 0, 0, 0, 0, 0, 0, 0, 0, 0, 0, 0, 27, 28, 0, 0, 0, 0, 0, 0, 0, 0, 0, 0, 0, 27, 28, 0, 44, 0, 0, 0, 0, 0, 53, 53, 53, 0, 0, 0, 0, 0, 0, 0, 0, 0, 0, 0, 0, 27, 28, 0, 0, 0, 0, 0, 0, 0, 0, 0, 0, 0, 27, 28, 51, 0, 0, 0, 0, 0, 0, 53, 53, 53, 0, 0, 0, 0, 0, 0, 0, 0, 0, 0, 0, 0, 27, 28, 0, 0, 0, 0, 0, 0, 0, 0, 0, 0, 0, 27, 28, 0, 0, 0, 0, 0, 0, 0, 0, 0, 0, 0, 0, 0, 0, 0, 0, 0, 0, 0, 0, 0, 0, 27, 28, 0, 0, 0, 0, 0, 0, 0, 0, 0, 0, 0, 27, 28, 0, 0, 0, 0, 0, 0, 0, 0, 0, 0, 0, 0, 0, 0, 0, 0, 0, 0, 0, 0, 0, 0, 27, 28, 0, 0, 0, 0, 0, 0, 0, 0, 0, 0, 0, 27, 28, 0, 0, 0, 0, 0, 0, 0, 0, 0, 0, 0, 0, 0, 0, 0, 0, 0, 0, 0, 0, 0, 0, 27, 28, 0, 0, 0, 0, 0, 0, 0, 0, 0, 0, 0, 27, 28, 0, 0, 0, 0, 0, 0, 0, 0, 0, 0, 0, 0, 0, 770, 770, 0, 0, 0, 0, 770, 770, 0, 27, 28, 0, 0, 0, 0, 0, 0, 0, 0, 0, 0, 0, 27, 28, 0, 0, 0, 0, 0, 0, 0, 0, 0, 0, 0, 0, 0, 0, 0, 0, 0, 0, 0, 0, 0, 0, 27, 28, 0, 0, 0, 0, 0, 0, 0, 0, 0, 0, 0, 27, 28, 0, 0, 0, 0, 57, 61, 0, 0, 0, 0, 0, 0, 0, 0, 0, 0, 0, 0, 0, 0, 0, 0, 27, 28, 0, 0, 0, 0, 0, 0, 0, 0, 0, 0, 0, 27, 28, 0, 0, 0, 0, 0, 0, 0, 0, 0, 0, 0, 0, 0, 0, 0, 0, 0, 0, 0, 0, 0, 0, 27, 28, 0, 0, 0, 0, 0, 0, 0, 0, 0, 0, 0, 27, 28, 0, 0, 0, 0, 0, 0, 0, 0, 0, 0, 0, 0, 0, 0, 0, 0, 0, 769, 801, 0, 0, 0, 27, 28, 0, 0, 0, 0, 0, 0, 0, 0, 0, 0, 0, 27, 28, 0, 0, 0, 0, 0, 0, 0, 0, 0, 0, 0, 0, 0, 0, 0, 0, 0, 0, 801, 0, 0, 0, 27, 28, 0, 0, 0, 0, 0, 0, 0, 0, 0, 0, 0, 27, 28, 0, 0, 0, 0, 0, 0, 0, 0, 0, 0, 0, 0, 0, 0, 0, 0, 0, 0, 0, 0, 0, 0, 27, 28, 0, 0, 0, 0, 0, 0, 0, 0, 0, 0, 0, 27, 28, 0, 0, 0, 0, 0, 0, 0, 0, 0, 0, 0, 0, 0, 0, 801, 802, 0, 0, 0, 0, 0, 0, 27, 28, 0, 0, 0, 0, 0, 0, 0, 0, 0, 0, 0, 27, 28, 0, 0, 0, 0, 0, 0, 0, 0, 0, 0, 0, 0, 0, 0, 0, 0, 0, 0, 0, 0, 0, 0, 27, 28, 0, 0, 0, 0, 0, 0, 0, 0, 0, 0, 0, 27, 28, 0, 0, 0, 0, 0, 0, 0, 51, 0, 0, 0, 0, 0, 0, 0, 0, 0, 0, 0, 0, 0, 0, 27, 28, 0, 0, 0, 0, 0, 0, 0, 0, 0, 0, 0, 27, 28, 0, 0, 52, 0, 0, 0, 0, 0, 0, 0, 0, 0, 0, 0, 0, 0, 0, 0, 0, 0, 0, 0, 27, 28, 0, 0, 0, 0, 0, 0, 0, 0, 0, 0, 0, 27, 28, 0, 0, 0, 0, 0, 0, 0, 0, 0, 0, 0, 0, 770, 770, 770, 771, 0, 0, 769, 770, 770, 770, 19, 20, 0, 0, 0, 0, 0, 0, 0, 0, 0, 0, 0, 27, 28, 0, 0, 0, 0, 0, 0, 0, 0, 0, 0, 0, 0, 0, 0, 0, 0, 0, 0, 0, 0, 0, 0, 0, 0, 0, 0, 0, 0, 0, 0, 0, 0, 0, 0, 0, 27, 28, 0, 0, 0, 0, 0, 0, 0, 0, 0, 0, 0, 0, 0, 0, 0, 0, 0, 0, 0, 0, 0, 0, 0, 0, 0, 0, 0, 0, 0, 0, 0, 0, 0, 0, 0, 27, 28, 0, 0, 0, 0, 0, 0, 0, 0, 0, 0, 0, 0, 0, 0, 0, 0, 0, 0, 0, 0, 0, 0, 0, 0, 0, 0, 0, 0, 0, 0, 0, 0, 0, 0, 0, 27, 28, 0, 0, 0, 0, 0, 0, 0, 0, 0, 0, 0, 0, 0, 0, 0, 0, 0, 0, 0, 0, 0, 0, 0, 0, 0, 0, 0, 0, 0, 0, 0, 0, 0, 0, 0, 19, 20, 0, 0, 0, 0, 0, 0, 0, 0, 0, 0, 0],
         "height":37,
         "name":"decals",
         "opacity":1,
         "type":"tilelayer",
         "visible":true,
         "width":37,
         "x":0,
         "y":0
        }, 
        {
         "data":[0, 0, 0, 0, 0, 0, 0, 0, 0, 0, 0, 0, 0, 0, 0, 0, 0, 0, 0, 0, 0, 0, 0, 0, 0, 0, 0, 0, 0, 0, 0, 0, 0, 0, 0, 0, 0, 0, 0, 0, 0, 0, 0, 0, 0, 0, 0, 0, 0, 0, 0, 0, 0, 0, 0, 0, 0, 0, 0, 0, 0, 0, 0, 0, 0, 0, 0, 0, 0, 0, 0, 0, 0, 0, 0, 0, 0, 0, 0, 0, 0, 0, 0, 0, 0, 0, 0, 0, 0, 0, 0, 0, 0, 0, 0, 0, 0, 0, 0, 0, 0, 0, 0, 0, 0, 0, 0, 0, 0, 0, 0, 0, 0, 0, 0, 0, 0, 0, 0, 0, 0, 0, 0, 0, 0, 0, 0, 0, 0, 0, 0, 0, 0, 0, 0, 0, 0, 0, 0, 0, 0, 0, 0, 1470, 1470, 1470, 1470, 0, 0, 0, 0, 0, 0, 0, 0, 0, 1470, 1470, 1470, 0, 0, 0, 0, 0, 0, 0, 0, 0, 0, 0, 0, 0, 0, 0, 0, 0, 0, 0, 0, 0, 1470, 1470, 1470, 1470, 0, 0, 0, 0, 0, 0, 0, 0, 0, 1470, 1470, 1470, 0, 0, 1470, 1470, 1470, 1470, 1470, 1470, 1470, 1470, 1470, 1470, 1470, 0, 0, 1470, 1470, 1470, 1470, 1470, 1470, 1470, 1470, 1470, 1470, 0, 0, 0, 0, 0, 0, 0, 0, 0, 1470, 1470, 1470, 0, 0, 1470, 1470, 1470, 1470, 1470, 1470, 1470, 1470, 1470, 1470, 1470, 0, 0, 1470, 1470, 1470, 1470, 1470, 1470, 1470, 1470, 1470, 1470, 0, 0, 0, 0, 0, 0, 0, 0, 0, 0, 0, 0, 0, 0, 1470, 1470, 1470, 1470, 1470, 1470, 1470, 1470, 1470, 1470, 1470, 0, 0, 0, 0, 0, 0, 0, 0, 0, 0, 0, 0, 0, 0, 0, 0, 0, 0, 0, 0, 0, 0, 0, 0, 0, 0, 1470, 1470, 1470, 1470, 1470, 1470, 1470, 1470, 1470, 1470, 1470, 0, 0, 0, 0, 0, 0, 0, 0, 0, 0, 0, 0, 0, 0, 0, 0, 0, 0, 0, 0, 0, 0, 0, 0, 0, 0, 1470, 1470, 1470, 1470, 1470, 1470, 1470, 1470, 1470, 1470, 1470, 0, 0, 0, 0, 0, 0, 0, 0, 0, 0, 0, 0, 0, 0, 0, 0, 0, 0, 0, 0, 0, 0, 0, 0, 0, 0, 1470, 1470, 1470, 1470, 1470, 1470, 1470, 1470, 1470, 1470, 1470, 0, 0, 0, 0, 0, 0, 0, 0, 0, 0, 0, 0, 0, 0, 0, 0, 0, 0, 0, 0, 0, 0, 0, 0, 0, 0, 1470, 1470, 1470, 1470, 1470, 1470, 1470, 1470, 1470, 1470, 1470, 0, 0, 0, 1470, 1470, 1470, 1470, 1470, 1470, 1470, 1470, 0, 0, 0, 0, 0, 0, 0, 0, 0, 0, 0, 0, 0, 0, 0, 1470, 1470, 1470, 1470, 1470, 1470, 1470, 1470, 1470, 1470, 1470, 0, 0, 0, 1470, 1470, 1470, 1470, 1470, 1470, 1470, 1470, 0, 0, 0, 0, 0, 0, 0, 0, 0, 0, 0, 0, 0, 0, 0, 1470, 1470, 1470, 1470, 1470, 1470, 1470, 1470, 1470, 1470, 1470, 0, 0, 0, 1470, 1470, 1470, 1470, 1470, 1470, 1470, 1470, 0, 0, 0, 0, 0, 0, 0, 0, 0, 0, 0, 0, 0, 0, 0, 1470, 1470, 1470, 1470, 1470, 1470, 1470, 1470, 1470, 1470, 1470, 0, 0, 0, 0, 0, 0, 0, 0, 0, 0, 0, 0, 0, 0, 0, 0, 0, 0, 0, 0, 0, 0, 0, 0, 0, 0, 1470, 1470, 1470, 1470, 1470, 1470, 1470, 1470, 1470, 1470, 1470, 0, 0, 0, 0, 0, 0, 0, 0, 0, 0, 0, 0, 0, 0, 0, 0, 0, 0, 0, 0, 0, 0, 0, 0, 0, 0, 1470, 1470, 1470, 1470, 1470, 1470, 1470, 1470, 1470, 1470, 1470, 0, 0, 0, 0, 0, 0, 0, 0, 0, 0, 0, 0, 0, 0, 0, 0, 0, 0, 0, 0, 0, 0, 0, 0, 0, 0, 1470, 1470, 1470, 1470, 1470, 1470, 1470, 1470, 1470, 1470, 1470, 0, 0, 0, 0, 0, 0, 0, 0, 0, 0, 0, 0, 0, 0, 0, 0, 0, 0, 0, 0, 0, 0, 0, 0, 0, 0, 1470, 1470, 1470, 1470, 1470, 1470, 1470, 1470, 1470, 1470, 1470, 0, 0, 1470, 1470, 0, 0, 0, 0, 0, 0, 1470, 1470, 0, 0, 0, 0, 0, 0, 0, 0, 0, 0, 0, 0, 0, 0, 1470, 1470, 1470, 1470, 1470, 1470, 1470, 1470, 1470, 1470, 1470, 0, 0, 1470, 1470, 0, 0, 0, 0, 0, 0, 1470, 1470, 0, 0, 0, 0, 0, 0, 0, 0, 0, 0, 0, 0, 0, 0, 1470, 1470, 1470, 1470, 1470, 1470, 1470, 1470, 1470, 1470, 1470, 0, 0, 1470, 1470, 0, 0, 0, 0, 0, 0, 1470, 1470, 0, 0, 0, 0, 0, 0, 0, 0, 0, 0, 0, 0, 0, 0, 1470, 1470, 1470, 1470, 1470, 1470, 1470, 1470, 1470, 1470, 1470, 0, 0, 1470, 1470, 0, 0, 0, 0, 0, 0, 1470, 1470, 0, 0, 0, 0, 0, 0, 0, 0, 0, 0, 0, 0, 0, 0, 1470, 1470, 1470, 1470, 1470, 1470, 1470, 1470, 1470, 1470, 1470, 0, 0, 1470, 1470, 0, 0, 0, 0, 0, 0, 1470, 1470, 0, 0, 0, 0, 0, 0, 0, 0, 0, 0, 0, 0, 0, 0, 1470, 1470, 1470, 1470, 1470, 1470, 1470, 1470, 1470, 1470, 1470, 0, 0, 1470, 1470, 0, 0, 0, 0, 0, 0, 1470, 1470, 0, 0, 0, 0, 0, 0, 0, 0, 0, 0, 0, 0, 0, 0, 1470, 1470, 1470, 1470, 1470, 1470, 1470, 1470, 1470, 1470, 1470, 0, 0, 1470, 1470, 0, 0, 0, 0, 0, 0, 1470, 1470, 0, 0, 0, 0, 0, 0, 0, 0, 0, 0, 0, 0, 0, 0, 1470, 1470, 1470, 1470, 1470, 1470, 1470, 1470, 1470, 1470, 1470, 0, 0, 1470, 1470, 0, 0, 0, 0, 0, 0, 1470, 1470, 0, 0, 0, 0, 0, 0, 0, 0, 0, 0, 0, 0, 0, 0, 1470, 1470, 1470, 1470, 1470, 1470, 1470, 1470, 1470, 1470, 1470, 0, 0, 1470, 1470, 0, 0, 0, 0, 0, 0, 1470, 1470, 0, 0, 0, 0, 0, 0, 0, 0, 0, 0, 0, 0, 0, 0, 1470, 1470, 1470, 1470, 1470, 1470, 1470, 1470, 1470, 1470, 1470, 0, 0, 1470, 1470, 0, 0, 0, 0, 0, 0, 1470, 1470, 0, 0, 0, 0, 0, 0, 0, 0, 0, 0, 0, 0, 0, 0, 1470, 1470, 1470, 1470, 1470, 1470, 1470, 1470, 1470, 1470, 1470, 0, 0, 1470, 1470, 0, 0, 0, 0, 0, 0, 1470, 1470, 0, 0, 0, 0, 0, 0, 0, 0, 0, 0, 0, 0, 0, 0, 1470, 1470, 1470, 1470, 1470, 1470, 1470, 1470, 1470, 1470, 1470, 0, 0, 1470, 0, 0, 0, 0, 0, 0, 0, 0, 0, 0, 0, 0, 0, 0, 0, 0, 0, 0, 0, 0, 0, 0, 0, 1470, 1470, 1470, 1470, 1470, 1470, 1470, 1470, 1470, 1470, 1470, 0, 0, 1470, 0, 0, 0, 0, 0, 0, 0, 0, 0, 0, 0, 0, 0, 0, 0, 0, 0, 0, 0, 0, 0, 0, 0, 1470, 1470, 1470, 1470, 1470, 1470, 1470, 1470, 1470, 1470, 1470, 0, 0, 1470, 0, 0, 0, 0, 0, 0, 0, 0, 0, 0, 0, 0, 0, 0, 0, 0, 0, 0, 0, 0, 0, 0, 0, 1470, 1470, 1470, 1470, 1470, 1470, 1470, 1470, 1470, 1470, 1470, 0, 0, 1470, 1470, 1470, 1470, 1470, 1470, 1470, 1470, 1470, 0, 0, 0, 0, 0, 0, 0, 0, 0, 0, 0, 0, 0, 0, 0, 1470, 1470, 1470, 1470, 1470, 1470, 1470, 1470, 1470, 1470, 1470, 0, 0, 1470, 1470, 1470, 1470, 1470, 1470, 1470, 1470, 1470, 0, 0, 0, 1470, 1470, 1470, 1470, 1470, 1470, 1470, 1470, 1470, 1470, 1470, 1470, 0, 0, 0, 0, 0, 0, 0, 0, 0, 0, 0, 0, 0, 1470, 1470, 1470, 1470, 1470, 1470, 1470, 1470, 1470, 0, 0, 0, 1470, 1470, 1470, 1470, 1470, 1470, 1470, 1470, 1470, 1470, 1470, 1470, 0, 0, 0, 0, 0, 0, 0, 0, 0, 0, 0, 0, 0, 1470, 1470, 1470, 1470, 1470, 1470, 1470, 1470, 1470, 0, 0, 0, 0, 0, 0, 0, 0, 0, 0, 0, 0, 0, 0, 0, 0, 0, 0, 0, 0, 0, 0, 0, 0, 0, 0, 0, 0, 0, 0, 0, 0, 0, 0, 0, 0, 0, 0, 0],
         "height":37,
         "name":"grass",
         "opacity":1,
         "type":"tilelayer",
         "visible":true,
         "width":37,
         "x":0,
         "y":0
        }, 
        {
         "draworder":"topdown",
         "height":48,
         "name":"doors",
         "objects":[],
         "opacity":1,
         "type":"objectgroup",
         "visible":true,
         "width":41,
         "x":0,
         "y":0
        }, 
        {
         "draworder":"topdown",
         "height":37,
         "name":"items",
         "objects":[
                {
                 "gid":589,
                 "height":0,
                 "name":"medkit",
                 "properties":
                    {

                    },
                 "rotation":0,
                 "type":"medkit",
                 "visible":true,
                 "width":0,
                 "x":320,
                 "y":128
                }],
         "opacity":1,
         "type":"objectgroup",
         "visible":true,
         "width":37,
         "x":0,
         "y":0
        }, 
        {
         "data":[0, 0, 0, 0, 0, 0, 0, 0, 0, 0, 0, 0, 0, 0, 0, 0, 0, 0, 0, 0, 0, 0, 0, 0, 0, 0, 0, 0, 0, 0, 0, 0, 0, 0, 0, 0, 0, 0, 0, 0, 0, 0, 0, 0, 0, 0, 0, 0, 0, 0, 0, 0, 0, 0, 0, 0, 0, 0, 0, 0, 0, 0, 0, 0, 0, 0, 0, 0, 0, 0, 0, 0, 0, 0, 0, 0, 0, 0, 0, 0, 0, 0, 0, 0, 0, 0, 0, 0, 0, 0, 0, 0, 0, 0, 0, 0, 0, 0, 0, 0, 0, 0, 0, 0, 0, 0, 0, 0, 0, 0, 0, 0, 0, 0, 0, 0, 0, 0, 0, 0, 0, 0, 0, 0, 0, 0, 0, 0, 0, 0, 0, 0, 0, 0, 0, 0, 0, 0, 0, 0, 0, 0, 0, 0, 0, 0, 0, 0, 790, 791, 792, 0, 0, 0, 0, 0, 0, 0, 0, 0, 0, 0, 0, 0, 0, 0, 0, 0, 0, 0, 0, 0, 0, 0, 0, 0, 0, 0, 0, 0, 0, 0, 0, 0, 0, 804, 0, 806, 0, 0, 0, 0, 0, 0, 0, 0, 0, 0, 0, 0, 0, 0, 0, 0, 0, 0, 0, 0, 0, 0, 0, 0, 0, 0, 0, 0, 0, 0, 0, 0, 0, 0, 0, 0, 0, 0, 0, 0, 0, 0, 0, 0, 0, 0, 0, 0, 0, 0, 0, 0, 0, 0, 0, 0, 0, 0, 0, 0, 0, 0, 0, 0, 0, 0, 0, 0, 0, 0, 0, 0, 0, 0, 0, 0, 0, 0, 0, 0, 0, 0, 0, 0, 0, 0, 0, 0, 0, 0, 0, 0, 0, 0, 0, 0, 0, 0, 0, 0, 0, 0, 0, 0, 0, 0, 0, 0, 0, 0, 0, 0, 0, 0, 0, 0, 0, 0, 0, 0, 0, 0, 0, 0, 0, 0, 0, 0, 0, 0, 0, 0, 0, 0, 0, 0, 0, 0, 0, 0, 0, 0, 0, 0, 0, 0, 0, 0, 0, 0, 0, 0, 0, 0, 0, 0, 0, 0, 0, 0, 0, 0, 0, 0, 0, 0, 0, 0, 0, 0, 0, 0, 0, 0, 0, 0, 0, 0, 0, 0, 0, 0, 0, 0, 0, 0, 0, 0, 0, 0, 0, 0, 0, 0, 0, 0, 0, 0, 0, 0, 0, 0, 0, 0, 0, 0, 0, 0, 0, 0, 0, 0, 0, 0, 0, 0, 0, 0, 0, 0, 0, 0, 0, 0, 0, 0, 0, 0, 0, 0, 0, 0, 0, 0, 0, 0, 0, 0, 0, 0, 0, 0, 0, 0, 0, 0, 0, 0, 0, 0, 0, 0, 0, 0, 0, 0, 0, 0, 0, 0, 0, 0, 0, 0, 0, 0, 0, 0, 0, 0, 0, 0, 0, 0, 0, 0, 0, 0, 0, 0, 0, 0, 0, 0, 0, 0, 0, 0, 0, 0, 0, 0, 0, 0, 0, 0, 0, 0, 0, 0, 0, 0, 0, 0, 0, 0, 0, 0, 0, 0, 0, 0, 0, 0, 0, 0, 0, 0, 0, 0, 0, 0, 0, 0, 0, 0, 0, 0, 0, 0, 0, 0, 0, 0, 0, 0, 0, 0, 0, 0, 0, 0, 0, 0, 0, 0, 0, 0, 0, 0, 0, 0, 0, 0, 0, 0, 0, 0, 0, 0, 0, 0, 0, 0, 0, 0, 0, 0, 0, 0, 0, 0, 0, 0, 0, 0, 0, 0, 0, 0, 0, 0, 0, 0, 0, 0, 0, 0, 0, 0, 0, 0, 0, 0, 0, 0, 0, 0, 0, 0, 0, 0, 0, 0, 0, 0, 0, 0, 0, 0, 0, 0, 0, 0, 0, 0, 0, 0, 0, 0, 0, 0, 0, 0, 0, 0, 0, 0, 0, 0, 0, 0, 0, 0, 0, 0, 0, 0, 0, 0, 0, 0, 0, 0, 0, 0, 0, 0, 0, 0, 0, 0, 0, 0, 0, 0, 0, 0, 0, 0, 0, 0, 0, 0, 0, 0, 0, 0, 0, 0, 0, 0, 0, 0, 0, 0, 0, 0, 0, 0, 0, 0, 0, 0, 0, 0, 0, 0, 0, 0, 0, 0, 0, 0, 0, 0, 0, 0, 0, 0, 0, 0, 0, 0, 0, 0, 0, 0, 0, 0, 0, 0, 0, 0, 0, 0, 0, 0, 0, 0, 0, 0, 0, 0, 0, 0, 0, 0, 0, 0, 0, 0, 0, 0, 0, 0, 0, 0, 0, 0, 0, 0, 0, 0, 0, 0, 0, 0, 0, 0, 0, 0, 0, 0, 0, 0, 0, 0, 0, 0, 0, 0, 0, 0, 0, 0, 0, 0, 0, 0, 0, 0, 0, 0, 0, 0, 0, 0, 0, 0, 0, 0, 0, 0, 0, 0, 0, 0, 0, 0, 0, 0, 0, 0, 0, 0, 0, 0, 0, 0, 0, 0, 0, 0, 0, 0, 0, 0, 0, 0, 0, 0, 0, 0, 0, 0, 0, 0, 0, 0, 0, 0, 0, 0, 0, 0, 0, 0, 0, 0, 0, 0, 0, 0, 0, 0, 0, 0, 0, 0, 0, 0, 0, 0, 0, 0, 0, 0, 0, 0, 0, 0, 0, 0, 0, 0, 0, 0, 0, 0, 0, 0, 0, 0, 0, 0, 0, 0, 0, 0, 0, 0, 0, 0, 0, 0, 0, 0, 0, 0, 0, 0, 0, 0, 0, 0, 0, 0, 0, 0, 0, 0, 0, 0, 0, 0, 0, 0, 0, 0, 0, 0, 0, 0, 0, 0, 0, 0, 0, 0, 0, 0, 0, 0, 0, 0, 0, 0, 0, 0, 0, 0, 0, 0, 0, 0, 0, 0, 0, 0, 0, 0, 0, 0, 0, 0, 0, 0, 0, 0, 0, 0, 0, 0, 0, 0, 0, 0, 0, 0, 0, 0, 0, 0, 0, 0, 0, 0, 0, 0, 0, 0, 0, 0, 0, 0, 0, 0, 0, 0, 0, 0, 0, 0, 0, 0, 0, 0, 0, 0, 0, 0, 0, 0, 0, 0, 0, 0, 0, 0, 0, 0, 0, 0, 0, 0, 0, 0, 0, 0, 0, 0, 0, 0, 0, 0, 0, 0, 0, 0, 0, 0, 0, 0, 0, 0, 0, 0, 0, 0, 0, 0, 0, 0, 0, 0, 0, 0, 0, 0, 0, 0, 0, 0, 0, 0, 0, 0, 0, 0, 0, 0, 0, 0, 0, 0, 0, 0, 0, 0, 0, 0, 0, 0, 0, 0, 0, 0, 0, 0, 0, 0, 0, 0, 0, 0, 0, 0, 0, 0, 0, 0, 0, 0, 0, 0, 0, 0, 0, 0, 0, 0, 0, 0, 0, 0, 0, 0, 0, 0, 0, 0, 0, 0, 0, 0, 0, 0, 0, 0, 0, 0, 0, 0, 0, 0, 0, 0, 0, 0, 0, 0, 0, 0, 0, 0, 0, 0, 0, 0, 0, 0, 0, 0, 0, 0, 0, 0, 0, 0, 0, 0, 0, 0, 0, 0, 0, 0, 0, 0, 0, 0, 0, 0, 0, 0, 0, 0, 0, 0, 0, 0, 0, 0, 0, 0, 0, 0, 0, 0, 0, 0, 0, 0, 0, 0, 0, 0, 0, 0, 0, 0, 0, 0, 0, 0, 0, 0, 0, 0, 0, 0, 0, 0, 0, 0, 0, 0, 0, 0, 0, 0, 0, 0, 0, 0, 0, 0, 0, 0, 0, 0, 0, 0, 0, 0, 0, 0, 0, 0, 0, 0, 0, 0, 0, 0, 0, 0, 0, 0, 0, 0, 0, 0, 0, 0, 0, 0, 0, 0, 0, 0, 0, 0, 0, 0, 0, 0, 0, 0, 0, 0, 0, 0, 0, 0, 0, 0, 0, 0, 0, 0, 0, 0, 0, 0, 0, 0, 0, 0, 0, 0, 0, 0, 0, 0, 0, 0, 0, 0, 0, 0, 0, 0, 0, 0, 0, 0, 0, 0, 0, 0, 0, 0, 0, 0, 0, 0, 0, 0, 0, 0, 0, 0, 0, 0, 0, 0, 0, 0, 0, 0, 0, 0, 0, 0, 0, 0, 0, 0, 0, 0, 0, 0, 0, 0, 0, 0, 0, 0, 0, 0, 0, 0, 0, 0, 0, 0, 0, 0, 0, 0, 0, 0, 0, 0, 0, 0, 0, 0, 0, 0, 0, 0, 0, 0, 0, 0, 0, 0, 0, 0, 0, 0, 0, 0, 0, 0, 0, 0, 0, 0, 0, 0, 0, 0, 0, 0, 0, 0, 0, 0, 0, 0, 0, 0, 0, 0, 0, 0, 0],
         "height":37,
         "name":"airborne",
         "opacity":1,
         "type":"tilelayer",
         "visible":true,
         "width":37,
         "x":0,
         "y":0
        }, 
        {
         "draworder":"topdown",
         "height":48,
         "name":"warps",
         "objects":[
                {
                 "gid":569,
                 "height":0,
                 "name":"to_forest_conduit",
                 "properties":
                    {
                     "map":"forest_conduit",
                     "x":"1",
                     "y":"4"
                    },
                 "rotation":0,
                 "type":"warp",
                 "visible":true,
                 "width":0,
                 "x":1152,
                 "y":1152
                }, 
                {
                 "gid":569,
                 "height":0,
                 "name":"to_lake",
                 "properties":
                    {
                     "map":"lake",
                     "x":"39",
                     "y":"46"
                    },
                 "rotation":0,
                 "type":"warp",
                 "visible":true,
                 "width":0,
                 "x":0,
                 "y":128
                }],
         "opacity":1,
         "type":"objectgroup",
         "visible":true,
         "width":72,
         "x":0,
         "y":0
        }, 
        {
         "draworder":"topdown",
         "height":48,
         "name":"cover",
         "objects":[
                {
                 "height":96,
                 "name":"grass",
                 "properties":
                    {

                    },
                 "rotation":0,
                 "type":"grass",
                 "visible":true,
                 "width":96,
                 "x":256,
                 "y":128
                }, 
                {
                 "height":64,
                 "name":"grass",
                 "properties":
                    {

                    },
                 "rotation":0,
                 "type":"grass",
                 "visible":true,
                 "width":384,
                 "x":32,
                 "y":1088
                }, 
                {
                 "height":928,
                 "name":"grass",
                 "properties":
                    {

                    },
                 "rotation":0,
                 "type":"grass",
                 "visible":true,
                 "width":352,
                 "x":416,
                 "y":160
                }, 
                {
                 "height":96,
                 "name":"grass",
                 "properties":
                    {

                    },
                 "rotation":0,
                 "type":"grass",
                 "visible":true,
                 "width":256,
                 "x":864,
                 "y":352
                }, 
                {
                 "height":128,
                 "name":"grass",
                 "properties":
                    {

                    },
                 "rotation":0,
                 "type":"grass",
                 "visible":true,
                 "width":128,
                 "x":1024,
                 "y":96
                }, 
                {
                 "height":64,
                 "name":"grass",
                 "properties":
                    {

                    },
                 "rotation":0,
                 "type":"grass",
                 "visible":true,
                 "width":192,
                 "x":832,
                 "y":160
                }, 
                {
                 "height":576,
                 "name":"grass",
                 "properties":
                    {

                    },
                 "rotation":0,
                 "type":"grass",
                 "visible":true,
                 "width":64,
                 "x":832,
                 "y":576
                }, 
                {
                 "height":128,
                 "name":"grass",
                 "properties":
                    {

                    },
                 "rotation":0,
                 "type":"grass",
                 "visible":true,
                 "width":224,
                 "x":896,
                 "y":1024
                }, 
                {
                 "height":352,
                 "name":"grass",
                 "properties":
                    {

                    },
                 "rotation":0,
                 "type":"grass",
                 "visible":true,
                 "width":64,
                 "x":1088,
                 "y":576
                }],
         "opacity":1,
         "type":"objectgroup",
         "visible":true,
         "width":72,
         "x":0,
         "y":0
        }, 
        {
         "draworder":"topdown",
         "height":48,
         "name":"npcs",
         "objects":[
                {
                 "gid":570,
                 "height":0,
                 "name":"guard1",
                 "properties":
                    {
                     "color":"127,127,63",
                     "waypoints":"g1a,g1b,g1c,g1d"
                    },
                 "rotation":0,
                 "type":"guard",
                 "visible":true,
                 "width":0,
                 "x":32,
                 "y":384
                }, 
                {
                 "gid":570,
                 "height":0,
                 "name":"guard2",
                 "properties":
                    {
                     "color":"127,127,63",
                     "waypoints":"g2a,g2b,g2c,g2d,g2e,g2f,g2g,g2h,g2i"
                    },
                 "rotation":0,
                 "type":"guard",
                 "visible":true,
                 "width":0,
                 "x":928,
                 "y":416
                }, 
                {
                 "gid":570,
                 "height":0,
                 "name":"guard3",
                 "properties":
                    {
                     "color":"127,127,63",
                     "waypoints":"g3a,g3b"
                    },
                 "rotation":0,
                 "type":"guard",
                 "visible":true,
                 "width":0,
                 "x":576,
                 "y":192
                }, 
                {
                 "gid":570,
                 "height":0,
                 "name":"guard4",
                 "properties":
                    {
                     "color":"127,127,63",
                     "waypoints":"g4a,g4b"
                    },
                 "rotation":0,
                 "type":"guard",
                 "visible":true,
                 "width":0,
                 "x":416,
                 "y":1088
                }, 
                {
                 "gid":570,
                 "height":0,
                 "name":"guard5",
                 "properties":
                    {
                     "color":"127,127,63",
                     "waypoints":"g5a,g5b"
                    },
                 "rotation":0,
                 "type":"guard",
                 "visible":true,
                 "width":0,
                 "x":736,
                 "y":1088
                }, 
                {
                 "gid":570,
                 "height":0,
                 "name":"guard6",
                 "properties":
                    {
                     "color":"127,127,63",
                     "waypoints":"g6a"
                    },
                 "rotation":0,
                 "type":"guard",
                 "visible":true,
                 "width":0,
                 "x":32,
                 "y":992
                }],
         "opacity":1,
         "type":"objectgroup",
         "visible":true,
         "width":72,
         "x":0,
         "y":0
        }, 
        {
         "draworder":"topdown",
         "height":48,
         "name":"waypoints",
         "objects":[
                {
                 "gid":569,
                 "height":0,
                 "name":"g1a",
                 "properties":
                    {
                     "behavior":"wait",
                     "direction":"right"
                    },
                 "rotation":0,
                 "type":"",
                 "visible":true,
                 "width":0,
                 "x":32,
                 "y":384
                }, 
                {
                 "gid":569,
                 "height":0,
                 "name":"g1b",
                 "properties":
                    {
                     "behavior":"continue",
                     "direction":"down"
                    },
                 "rotation":0,
                 "type":"",
                 "visible":true,
                 "width":0,
                 "x":320,
                 "y":384
                }, 
                {
                 "gid":569,
                 "height":0,
                 "name":"g1c",
                 "properties":
                    {
                     "behavior":"wait",
                     "direction":"left"
                    },
                 "rotation":0,
                 "type":"",
                 "visible":true,
                 "width":0,
                 "x":320,
                 "y":640
                }, 
                {
                 "gid":569,
                 "height":0,
                 "name":"g1d",
                 "properties":
                    {
                     "behavior":"continue",
                     "direction":"up"
                    },
                 "rotation":0,
                 "type":"",
                 "visible":true,
                 "width":0,
                 "x":32,
                 "y":640
                }, 
                {
                 "gid":569,
                 "height":0,
                 "name":"g2a",
                 "properties":
                    {
                     "behavior":"continue",
                     "direction":"down"
                    },
                 "rotation":0,
                 "type":"",
                 "visible":true,
                 "width":0,
                 "x":928,
                 "y":416
                }, 
                {
                 "gid":569,
                 "height":0,
                 "name":"g2b",
                 "properties":
                    {
                     "behavior":"continue",
                     "direction":"left"
                    },
                 "rotation":0,
                 "type":"",
                 "visible":true,
                 "width":0,
                 "x":928,
                 "y":640
                }, 
                {
                 "gid":569,
                 "height":0,
                 "name":"g2c",
                 "properties":
                    {
                     "behavior":"continue",
                     "direction":"down"
                    },
                 "rotation":0,
                 "type":"",
                 "visible":true,
                 "width":0,
                 "x":832,
                 "y":640
                }, 
                {
                 "gid":569,
                 "height":0,
                 "name":"g2d",
                 "properties":
                    {
                     "behavior":"continue",
                     "direction":"right"
                    },
                 "rotation":0,
                 "type":"",
                 "visible":true,
                 "width":0,
                 "x":832,
                 "y":928
                }, 
                {
                 "gid":569,
                 "height":0,
                 "name":"g2e",
                 "properties":
                    {
                     "behavior":"continue",
                     "direction":"up"
                    },
                 "rotation":0,
                 "type":"",
                 "visible":true,
                 "width":0,
                 "x":1120,
                 "y":928
                }, 
                {
                 "gid":569,
                 "height":0,
                 "name":"g2f",
                 "properties":
                    {
                     "behavior":"continue",
                     "direction":"left"
                    },
                 "rotation":0,
                 "type":"",
                 "visible":true,
                 "width":0,
                 "x":1120,
                 "y":640
                }, 
                {
                 "gid":569,
                 "height":0,
                 "name":"g2g",
                 "properties":
                    {
                     "behavior":"continue",
                     "direction":"up"
                    },
                 "rotation":0,
                 "type":"",
                 "visible":true,
                 "width":0,
                 "x":1024,
                 "y":640
                }, 
                {
                 "gid":569,
                 "height":0,
                 "name":"g2h",
                 "properties":
                    {
                     "behavior":"wait",
                     "direction":"down"
                    },
                 "rotation":0,
                 "type":"",
                 "visible":true,
                 "width":0,
                 "x":1024,
                 "y":416
                }, 
                {
                 "gid":569,
                 "height":0,
                 "name":"g2i",
                 "properties":
                    {
                     "behavior":"continue",
                     "direction":"left"
                    },
                 "rotation":0,
                 "type":"",
                 "visible":true,
                 "width":0,
                 "x":1024,
                 "y":416
                }, 
                {
                 "gid":569,
                 "height":0,
                 "name":"g3a",
                 "properties":
                    {
                     "behavior":"wait",
                     "direction":"down"
                    },
                 "rotation":0,
                 "type":"",
                 "visible":true,
                 "width":0,
                 "x":576,
                 "y":192
                }, 
                {
                 "gid":569,
                 "height":0,
                 "name":"g3b",
                 "properties":
                    {
                     "behavior":"wait",
                     "direction":"up"
                    },
                 "rotation":0,
                 "type":"",
                 "visible":true,
                 "width":0,
                 "x":576,
                 "y":1088
                }, 
                {
                 "gid":569,
                 "height":0,
                 "name":"g4a",
                 "properties":
                    {
                     "behavior":"wait",
                     "direction":"up"
                    },
                 "rotation":0,
                 "type":"",
                 "visible":true,
                 "width":0,
                 "x":416,
                 "y":1088
                }, 
                {
                 "gid":569,
                 "height":0,
                 "name":"g4b",
                 "properties":
                    {
                     "behavior":"wait",
                     "direction":"down"
                    },
                 "rotation":0,
                 "type":"",
                 "visible":true,
                 "width":0,
                 "x":416,
                 "y":192
                }, 
                {
                 "gid":569,
                 "height":0,
                 "name":"g5a",
                 "properties":
                    {
                     "behavior":"wait",
                     "direction":"up"
                    },
                 "rotation":0,
                 "type":"",
                 "visible":true,
                 "width":0,
                 "x":736,
                 "y":1088
                }, 
                {
                 "gid":569,
                 "height":0,
                 "name":"g5b",
                 "properties":
                    {
                     "behavior":"wait",
                     "direction":"down"
                    },
                 "rotation":0,
                 "type":"",
                 "visible":true,
                 "width":0,
                 "x":736,
                 "y":192
                }, 
                {
                 "gid":569,
                 "height":0,
                 "name":"g6a",
                 "properties":
                    {
                     "behavior":"sleep",
                     "direction":"right"
                    },
                 "rotation":0,
                 "type":"",
                 "visible":true,
                 "width":0,
                 "x":32,
                 "y":992
                }],
         "opacity":1,
         "type":"objectgroup",
         "visible":true,
         "width":72,
         "x":0,
         "y":0
        }],
 "orientation":"orthogonal",
 "properties":
    {
     "ambience":"0.625,0.5,0.625",
     "soundtrack":"sneaking"
    },
 "renderorder":"left-up",
 "tileheight":32,
 "tilesets":[
        {
         "firstgid":1,
         "image":"..\/..\/sprites\/pipoya_outdoor.png",
         "imageheight":704,
         "imagewidth":256,
         "margin":0,
         "name":"pipoya_outdoor",
         "properties":
            {

            },
         "spacing":0,
         "tileheight":32,
         "tilewidth":32
        }, 
        {
         "firstgid":177,
         "image":"..\/..\/sprites\/pipoya_exteriors.png",
         "imageheight":960,
         "imagewidth":256,
         "margin":0,
         "name":"pipoya_exteriors",
         "properties":
            {

            },
         "spacing":0,
         "tileheight":32,
         "tilewidth":32
        }, 
        {
         "firstgid":417,
         "image":"..\/..\/sprites\/pipoya_fences.png",
         "imageheight":448,
         "imagewidth":256,
         "margin":0,
         "name":"pipoya_fences",
         "properties":
            {

            },
         "spacing":0,
         "tileheight":32,
         "tilewidth":32
        }, 
        {
         "firstgid":529,
         "image":"..\/..\/sprites\/common.png",
         "imageheight":256,
         "imagewidth":256,
         "margin":0,
         "name":"common",
         "properties":
            {

            },
         "spacing":0,
         "tileheight":32,
         "tilewidth":32
        }, 
        {
         "firstgid":593,
         "image":"..\/..\/sprites\/owlishmedia_pixel_tiles.png",
         "imageheight":800,
         "imagewidth":448,
         "margin":0,
         "name":"owlishmedia_pixel_tiles",
         "properties":
            {

            },
         "spacing":0,
         "tileheight":32,
         "tilewidth":32
        }, 
        {
         "firstgid":943,
         "image":"..\/..\/sprites\/ruins_tileset.png",
         "imageheight":512,
         "imagewidth":1024,
         "margin":0,
         "name":"ruins_tileset",
         "properties":
            {

            },
         "spacing":0,
         "tileheight":32,
         "tilewidth":32
        }, 
        {
         "firstgid":1455,
         "image":"..\/..\/sprites\/supplemental.png",
         "imageheight":128,
         "imagewidth":128,
         "margin":0,
         "name":"supplemental",
         "properties":
            {

            },
         "spacing":0,
         "tileheight":32,
         "tilewidth":32
        }, 
        {
         "firstgid":1471,
         "image":"..\/..\/sprites\/pipoya_misc.png",
         "imageheight":384,
         "imagewidth":256,
         "margin":0,
         "name":"pipoya_misc",
         "properties":
            {

            },
         "spacing":0,
         "tileheight":32,
         "tilewidth":32
        }, 
        {
         "firstgid":1567,
         "image":"..\/..\/sprites\/tileset_51.png",
         "imageheight":512,
         "imagewidth":1024,
         "margin":0,
         "name":"tileset_51",
         "properties":
            {

            },
         "spacing":0,
         "tileheight":32,
         "tilewidth":32
        }],
 "tilewidth":32,
 "version":1,
 "width":37
}