{ "height":31,
 "layers":[
        {
         "data":[0, 285, 285, 285, 285, 285, 285, 285, 285, 285, 285, 285, 285, 285, 0, 0, 0, 0, 0, 0, 0, 0, 0, 0, 0, 0, 0, 0, 0, 349, 349, 349, 349, 349, 349, 349, 349, 349, 349, 349, 349, 349, 0, 540, 540, 540, 540, 540, 540, 540, 540, 540, 540, 540, 540, 540, 0, 540, 540, 540, 540, 540, 0, 0, 540, 540, 540, 540, 540, 0, 0, 540, 540, 540, 540, 540, 0, 0, 540, 540, 540, 540, 540, 0, 0, 540, 540, 540, 540, 540, 0, 0, 540, 540, 540, 540, 540, 0, 0, 540, 540, 540, 540, 540, 0, 0, 540, 540, 540, 540, 540, 0, 0, 540, 540, 540, 540, 540, 0, 0, 540, 540, 540, 540, 540, 0, 0, 540, 540, 540, 540, 540, 0, 0, 540, 540, 540, 540, 540, 0, 0, 540, 540, 540, 540, 540, 0, 0, 540, 540, 540, 540, 540, 0, 0, 540, 540, 540, 540, 540, 0, 0, 540, 540, 540, 540, 540, 0, 0, 540, 540, 540, 540, 540, 0, 0, 540, 540, 540, 540, 540, 0, 0, 540, 540, 540, 540, 540, 0, 0, 540, 540, 540, 540, 540, 0, 0, 540, 540, 540, 540, 540, 0, 0, 540, 540, 540, 540, 540, 0, 0, 540, 285, 285, 285, 285, 285, 285, 285, 285, 285, 285, 540, 0, 0, 540, 0, 0, 0, 0, 0, 0, 0, 0, 0, 0, 540, 0, 0, 540, 349, 349, 349, 349, 349, 349, 349, 349, 349, 349, 540, 0, 0, 540, 540, 540, 540, 540, 540, 540, 540, 540, 540, 540, 540, 0, 0, 540, 540, 540, 540, 540, 540, 540, 540, 540, 540, 540, 540, 0, 0, 540, 0, 0, 0, 0, 0, 0, 0, 0, 0, 0, 540, 0, 0, 540, 0, 0, 0, 0, 0, 0, 0, 0, 0, 0, 540, 0, 0, 540, 0, 0, 0, 0, 0, 0, 0, 0, 0, 0, 540, 0, 0, 540, 0, 0, 0, 0, 0, 0, 0, 0, 0, 0, 540, 0, 0, 540, 0, 0, 0, 0, 0, 0, 0, 0, 0, 0, 540, 0, 0, 540, 0, 0, 0, 0, 0, 0, 0, 0, 0, 0, 540, 0, 0, 540, 0, 0, 0, 0, 39, 39, 0, 0, 0, 0, 540, 0, 0, 540, 0, 0, 0, 0, 71, 71, 0, 0, 0, 0, 540, 0, 0, 540, 540, 540, 540, 540, 540, 540, 540, 540, 540, 540, 540, 0, 0, 540, 540, 540, 540, 540, 540, 540, 540, 540, 540, 540, 540, 0, 0, 0, 0, 0, 0, 0, 0, 0, 0, 0, 0, 0, 0, 0],
         "height":31,
         "name":"floor",
         "opacity":1,
         "type":"tilelayer",
         "visible":true,
         "width":14,
         "x":0,
         "y":0
        }, 
        {
         "data":[318, 85, 85, 85, 85, 85, 85, 85, 85, 85, 85, 85, 85, 85, 318, 117, 117, 117, 117, 117, 117, 117, 117, 117, 117, 117, 117, 117, 318, 149, 149, 149, 149, 149, 149, 149, 149, 149, 149, 149, 149, 149, 318, 0, 0, 0, 0, 0, 0, 0, 0, 0, 0, 0, 0, 0, 318, 0, 995, 995, 995, 0, 284, 286, 0, 995, 995, 995, 0, 284, 318, 0, 995, 995, 995, 0, 316, 318, 0, 995, 995, 995, 0, 316, 318, 0, 995, 995, 995, 0, 316, 318, 0, 995, 995, 995, 0, 316, 318, 0, 999, 999, 999, 0, 316, 318, 0, 999, 999, 999, 0, 316, 318, 0, 0, 0, 0, 0, 316, 318, 0, 0, 0, 0, 0, 316, 318, 0, 995, 995, 995, 0, 316, 318, 0, 995, 995, 995, 0, 316, 318, 0, 995, 995, 995, 0, 316, 318, 0, 995, 995, 995, 0, 316, 318, 0, 995, 995, 995, 0, 316, 318, 0, 995, 995, 995, 0, 316, 318, 0, 999, 999, 999, 0, 316, 318, 0, 999, 999, 999, 0, 316, 318, 0, 0, 0, 0, 0, 316, 318, 0, 0, 0, 0, 0, 316, 318, 0, 284, 285, 285, 285, 320, 319, 285, 285, 285, 286, 0, 316, 318, 0, 85, 85, 85, 85, 85, 85, 85, 85, 85, 85, 0, 316, 318, 0, 117, 117, 117, 117, 117, 117, 117, 117, 117, 117, 0, 316, 318, 0, 149, 149, 149, 149, 149, 149, 149, 149, 149, 149, 0, 316, 318, 0, 0, 0, 0, 0, 0, 0, 0, 0, 0, 0, 0, 316, 318, 0, 0, 0, 0, 0, 0, 0, 0, 0, 0, 0, 0, 316, 318, 0, 238, 239, 239, 239, 239, 239, 239, 239, 239, 240, 0, 316, 318, 0, 270, 271, 271, 271, 271, 271, 271, 271, 271, 272, 0, 316, 318, 0, 270, 271, 271, 271, 271, 271, 271, 271, 271, 272, 0, 316, 318, 0, 270, 271, 271, 271, 271, 271, 271, 271, 271, 272, 0, 316, 318, 0, 302, 303, 303, 303, 303, 303, 303, 303, 303, 304, 0, 316, 318, 0, 1, 1, 1, 1, 1, 1, 1, 1, 1, 1, 0, 316, 318, 0, 1, 1, 1, 1, 0, 0, 1, 998, 1, 1, 0, 316, 318, 0, 33, 33, 33, 33, 0, 0, 33, 33, 33, 36, 0, 316, 318, 0, 0, 0, 0, 0, 0, 0, 0, 0, 0, 0, 0, 316, 318, 0, 0, 0, 0, 0, 0, 0, 0, 0, 0, 0, 0, 316, 319, 285, 285, 285, 285, 285, 285, 285, 285, 285, 285, 285, 285, 320],
         "height":31,
         "name":"walls",
         "opacity":1,
         "type":"tilelayer",
         "visible":true,
         "width":14,
         "x":0,
         "y":0
        }, 
        {
         "data":[0, 0, 0, 0, 0, 0, 0, 0, 0, 0, 0, 0, 0, 0, 0, 495, 0, 0, 0, 0, 0, 953, 0, 0, 0, 0, 0, 0, 0, 0, 0, 0, 0, 0, 0, 0, 0, 0, 0, 0, 0, 0, 0, 0, 0, 0, 0, 0, 0, 0, 0, 0, 0, 0, 0, 0, 0, 0, 0, 0, 0, 0, 0, 0, 0, 0, 0, 0, 0, 0, 0, 0, 0, 0, 0, 0, 0, 0, 0, 0, 0, 0, 0, 0, 0, 0, 0, 0, 0, 0, 0, 0, 0, 0, 0, 0, 0, 0, 0, 0, 0, 0, 0, 0, 0, 0, 0, 0, 0, 0, 0, 0, 0, 0, 0, 0, 0, 0, 0, 0, 0, 0, 0, 0, 0, 0, 0, 0, 0, 0, 0, 0, 0, 0, 0, 0, 0, 0, 0, 0, 0, 0, 0, 0, 0, 0, 0, 0, 0, 0, 0, 0, 0, 0, 0, 0, 0, 0, 0, 0, 0, 0, 0, 0, 0, 0, 0, 0, 0, 0, 0, 0, 0, 0, 0, 0, 0, 0, 0, 0, 0, 0, 0, 0, 0, 0, 0, 0, 0, 0, 0, 0, 0, 0, 0, 0, 0, 0, 0, 0, 0, 0, 0, 0, 0, 0, 0, 0, 0, 0, 0, 0, 0, 0, 0, 0, 0, 0, 0, 0, 0, 0, 0, 0, 0, 0, 0, 495, 0, 0, 0, 0, 0, 0, 495, 0, 0, 0, 0, 0, 0, 0, 0, 0, 0, 0, 0, 0, 0, 0, 0, 0, 0, 0, 0, 0, 0, 0, 0, 0, 0, 0, 0, 0, 0, 0, 0, 0, 0, 0, 0, 0, 0, 0, 0, 0, 0, 0, 0, 0, 0, 0, 0, 0, 0, 0, 0, 0, 0, 0, 0, 0, 0, 0, 0, 0, 0, 0, 0, 0, 0, 0, 0, 0, 0, 0, 0, 0, 0, 0, 0, 0, 0, 0, 0, 0, 0, 0, 0, 0, 0, 0, 0, 0, 0, 0, 0, 0, 0, 0, 0, 0, 0, 0, 0, 0, 0, 0, 0, 0, 0, 0, 0, 0, 0, 0, 0, 0, 0, 0, 0, 0, 0, 0, 0, 0, 495, 495, 0, 0, 0, 0, 0, 0, 0, 0, 0, 0, 0, 0, 0, 0, 0, 0, 0, 0, 0, 0, 0, 0, 0, 0, 0, 0, 0, 0, 0, 0, 0, 0, 0, 0, 0, 0, 0, 0, 0, 0, 0, 0, 0, 0, 0, 0, 0, 0, 0, 0, 0, 0, 0, 0, 0, 0, 0, 0, 0, 0, 0, 0, 0, 0, 0, 0, 0, 0, 0, 0, 0, 0, 0, 0, 0, 0],
         "height":31,
         "name":"decals",
         "opacity":1,
         "type":"tilelayer",
         "visible":true,
         "width":14,
         "x":0,
         "y":0
        }, 
        {
         "data":[0, 0, 0, 0, 0, 0, 0, 0, 0, 0, 0, 0, 0, 0, 0, 0, 0, 0, 0, 0, 0, 0, 0, 0, 0, 0, 0, 0, 0, 0, 0, 0, 0, 0, 0, 0, 0, 0, 0, 0, 0, 0, 0, 0, 0, 0, 0, 0, 0, 0, 0, 0, 0, 0, 0, 0, 0, 0, 0, 0, 0, 0, 0, 0, 0, 0, 0, 0, 0, 0, 0, 0, 0, 0, 0, 0, 0, 0, 0, 0, 0, 0, 0, 0, 0, 0, 0, 0, 0, 0, 0, 0, 0, 0, 0, 0, 0, 0, 0, 0, 0, 0, 0, 0, 0, 0, 0, 0, 0, 0, 0, 0, 0, 0, 0, 0, 0, 0, 0, 0, 0, 0, 0, 0, 0, 0, 0, 0, 0, 0, 0, 0, 0, 0, 0, 0, 0, 0, 0, 0, 0, 0, 0, 0, 0, 0, 0, 0, 0, 0, 0, 0, 0, 0, 0, 0, 0, 0, 0, 0, 0, 0, 0, 0, 0, 0, 0, 0, 0, 0, 0, 0, 0, 0, 0, 0, 0, 0, 0, 0, 0, 0, 0, 0, 0, 0, 0, 0, 0, 0, 0, 0, 0, 0, 0, 0, 0, 0, 0, 0, 0, 0, 0, 0, 0, 0, 0, 0, 0, 0, 0, 0, 0, 0, 0, 0, 0, 0, 0, 0, 0, 0, 0, 0, 0, 0, 0, 0, 0, 0, 0, 0, 0, 0, 0, 0, 0, 0, 0, 0, 0, 0, 0, 0, 0, 0, 0, 0, 0, 0, 0, 0, 0, 0, 0, 0, 0, 0, 0, 0, 0, 0, 0, 0, 0, 0, 0, 0, 0, 0, 0, 0, 0, 0, 0, 0, 0, 0, 0, 0, 0, 0, 0, 0, 0, 0, 0, 0, 0, 0, 0, 0, 0, 0, 0, 0, 0, 0, 0, 0, 0, 0, 0, 0, 0, 0, 0, 0, 0, 0, 0, 0, 0, 0, 0, 0, 0, 0, 0, 0, 0, 0, 0, 0, 0, 0, 0, 0, 0, 0, 0, 0, 0, 0, 0, 0, 0, 0, 0, 0, 0, 0, 0, 0, 0, 0, 0, 0, 0, 0, 0, 0, 0, 0, 0, 0, 0, 0, 0, 0, 0, 0, 0, 0, 0, 0, 0, 0, 0, 0, 0, 0, 0, 0, 0, 0, 0, 0, 0, 0, 0, 0, 0, 0, 0, 0, 0, 0, 0, 0, 0, 0, 0, 0, 0, 0, 0, 0, 0, 0, 0, 0, 0, 0, 0, 0, 0, 0, 0, 0, 0, 0, 0, 0, 0, 0, 0, 0, 0, 0, 0, 0, 0, 0, 0, 0, 0, 0, 0, 0, 0, 0, 0, 0],
         "height":31,
         "name":"grass",
         "opacity":1,
         "type":"tilelayer",
         "visible":true,
         "width":14,
         "x":0,
         "y":0
        }, 
        {
         "data":[0, 0, 0, 0, 0, 0, 0, 0, 0, 0, 0, 0, 0, 0, 0, 0, 0, 0, 0, 0, 0, 0, 0, 0, 0, 0, 0, 0, 0, 0, 0, 0, 0, 0, 0, 0, 0, 0, 0, 0, 0, 0, 0, 0, 0, 0, 0, 0, 0, 0, 0, 0, 0, 0, 0, 0, 0, 0, 0, 0, 0, 0, 0, 0, 0, 0, 0, 0, 0, 0, 0, 0, 0, 0, 0, 0, 0, 0, 0, 0, 0, 0, 0, 0, 0, 0, 0, 0, 0, 0, 0, 0, 0, 0, 0, 0, 0, 0, 0, 0, 0, 0, 0, 0, 0, 0, 0, 0, 0, 0, 0, 0, 0, 0, 0, 0, 0, 0, 0, 0, 0, 0, 0, 0, 0, 0, 0, 0, 0, 0, 0, 0, 0, 0, 0, 0, 0, 0, 0, 0, 0, 0, 0, 0, 0, 0, 0, 0, 0, 0, 0, 0, 0, 0, 0, 0, 0, 0, 0, 0, 0, 0, 0, 0, 0, 0, 0, 0, 0, 0, 0, 0, 0, 0, 0, 0, 0, 0, 0, 0, 0, 0, 0, 0, 0, 0, 0, 0, 0, 0, 0, 0, 0, 0, 0, 0, 0, 0, 0, 0, 0, 0, 0, 0, 0, 0, 0, 0, 0, 0, 0, 0, 0, 0, 0, 0, 0, 0, 0, 0, 0, 0, 0, 0, 0, 0, 0, 0, 0, 0, 0, 0, 0, 0, 0, 0, 0, 0, 0, 0, 0, 0, 0, 0, 0, 0, 0, 0, 0, 0, 0, 0, 0, 0, 0, 0, 0, 0, 0, 0, 0, 0, 0, 0, 0, 0, 0, 0, 0, 0, 0, 0, 0, 0, 0, 0, 0, 0, 0, 0, 0, 0, 0, 0, 0, 0, 0, 0, 0, 0, 0, 0, 0, 0, 0, 0, 0, 0, 0, 0, 0, 0, 0, 0, 0, 0, 0, 0, 0, 0, 0, 0, 0, 0, 0, 0, 0, 0, 0, 0, 0, 0, 0, 0, 0, 0, 0, 0, 0, 0, 0, 0, 0, 0, 0, 0, 0, 0, 0, 0, 0, 0, 0, 0, 0, 0, 0, 0, 0, 0, 0, 0, 0, 0, 0, 0, 0, 0, 0, 0, 0, 0, 0, 0, 0, 0, 0, 0, 0, 0, 1111, 1111, 0, 0, 0, 0, 0, 0, 0, 0, 0, 0, 0, 0, 0, 0, 0, 0, 0, 0, 0, 0, 0, 0, 0, 0, 0, 0, 0, 0, 0, 0, 0, 0, 0, 0, 0, 0, 0, 0, 0, 0, 0, 0, 0, 0, 0, 0, 0, 0, 0, 0, 0, 0, 0, 0, 0, 0, 0, 0, 0, 0, 0, 0],
         "height":31,
         "name":"airborne",
         "opacity":1,
         "type":"tilelayer",
         "visible":true,
         "width":14,
         "x":0,
         "y":0
        }, 
        {
         "draworder":"topdown",
         "height":13,
         "name":"doors",
         "objects":[
                {
                 "gid":706,
                 "height":0,
                 "name":"elevator",
                 "properties":
                    {
                     "direction":"up",
                     "width":"2"
                    },
                 "rotation":0,
                 "type":"door",
                 "visible":true,
                 "width":0,
                 "x":192,
                 "y":896
                }],
         "opacity":1,
         "type":"objectgroup",
         "visible":true,
         "width":15,
         "x":0,
         "y":0
        }, 
        {
         "draworder":"topdown",
         "height":13,
         "name":"warps",
         "objects":[
                {
                 "gid":713,
                 "height":0,
                 "name":"to_floor4",
                 "properties":
                    {
                     "map":"lab_floor4",
                     "x":"1",
                     "y":"3"
                    },
                 "rotation":0,
                 "type":"warp",
                 "visible":true,
                 "width":0,
                 "x":416,
                 "y":128
                }, 
                {
                 "gid":713,
                 "height":0,
                 "name":"elevator1",
                 "properties":
                    {
                     "elevator":"lab_floor4west",
                     "map":"elevator",
                     "x":"12",
                     "y":"10"
                    },
                 "rotation":0,
                 "type":"warp",
                 "visible":true,
                 "width":0,
                 "x":192,
                 "y":896
                }, 
                {
                 "gid":713,
                 "height":0,
                 "name":"elevator2",
                 "properties":
                    {
                     "elevator":"lab_floor4west",
                     "map":"elevator",
                     "x":"12",
                     "y":"10"
                    },
                 "rotation":0,
                 "type":"warp",
                 "visible":true,
                 "width":0,
                 "x":224,
                 "y":896
                }],
         "opacity":1,
         "type":"objectgroup",
         "visible":true,
         "width":15,
         "x":0,
         "y":0
        }, 
        {
         "draworder":"topdown",
         "height":13,
         "name":"npcs",
         "objects":[
                {
                 "gid":714,
                 "height":0,
                 "name":"guard1",
                 "properties":
                    {
                     "color":"127,127,127",
                     "waypoints":"g1a,g1b,g1c,g1d,g1e,g1f,g1g,g1h"
                    },
                 "rotation":0,
                 "type":"guard",
                 "visible":true,
                 "width":0,
                 "x":160,
                 "y":448
                }],
         "opacity":1,
         "type":"objectgroup",
         "visible":true,
         "width":15,
         "x":0,
         "y":0
        }, 
        {
         "draworder":"topdown",
         "height":13,
         "name":"waypoints",
         "objects":[
                {
                 "gid":713,
                 "height":0,
                 "name":"g1a",
                 "properties":
                    {
                     "behavior":"continue",
                     "direction":"left"
                    },
                 "rotation":0,
                 "type":"",
                 "visible":true,
                 "width":0,
                 "x":160,
                 "y":448
                }, 
                {
                 "gid":713,
                 "height":0,
                 "name":"g1b",
                 "properties":
                    {
                     "behavior":"continue",
                     "direction":"down"
                    },
                 "rotation":0,
                 "type":"",
                 "visible":true,
                 "width":0,
                 "x":32,
                 "y":448
                }, 
                {
                 "gid":713,
                 "height":0,
                 "name":"g1c",
                 "properties":
                    {
                     "behavior":"continue",
                     "direction":"right"
                    },
                 "rotation":0,
                 "type":"",
                 "visible":true,
                 "width":0,
                 "x":32,
                 "y":608
                }, 
                {
                 "gid":713,
                 "height":0,
                 "name":"g1d",
                 "properties":
                    {
                     "behavior":"continue",
                     "direction":"up"
                    },
                 "rotation":0,
                 "type":"",
                 "visible":true,
                 "width":0,
                 "x":384,
                 "y":608
                }, 
                {
                 "gid":713,
                 "height":0,
                 "name":"g1e",
                 "properties":
                    {
                     "behavior":"continue",
                     "direction":"left"
                    },
                 "rotation":0,
                 "type":"",
                 "visible":true,
                 "width":0,
                 "x":384,
                 "y":448
                }, 
                {
                 "gid":713,
                 "height":0,
                 "name":"g1f",
                 "properties":
                    {
                     "behavior":"continue",
                     "direction":"up"
                    },
                 "rotation":0,
                 "type":"",
                 "visible":true,
                 "width":0,
                 "x":256,
                 "y":448
                }, 
                {
                 "gid":713,
                 "height":0,
                 "name":"g1g",
                 "properties":
                    {
                     "behavior":"continue",
                     "direction":"left"
                    },
                 "rotation":0,
                 "type":"",
                 "visible":true,
                 "width":0,
                 "x":256,
                 "y":128
                }, 
                {
                 "gid":713,
                 "height":0,
                 "name":"g1h",
                 "properties":
                    {
                     "behavior":"continue",
                     "direction":"down"
                    },
                 "rotation":0,
                 "type":"",
                 "visible":true,
                 "width":0,
                 "x":160,
                 "y":128
                }],
         "opacity":1,
         "type":"objectgroup",
         "visible":true,
         "width":15,
         "x":0,
         "y":0
        }, 
        {
         "draworder":"topdown",
         "height":24,
         "name":"ducts",
         "objects":[],
         "opacity":1,
         "type":"objectgroup",
         "visible":true,
         "width":29,
         "x":0,
         "y":0
        }, 
        {
         "draworder":"topdown",
         "height":31,
         "name":"lights",
         "objects":[
                {
                 "ellipse":true,
                 "height":448,
                 "name":"light1",
                 "properties":
                    {

                    },
                 "rotation":0,
                 "type":"light",
                 "visible":true,
                 "width":448,
                 "x":0,
                 "y":576
                }, 
                {
                 "ellipse":true,
                 "height":352,
                 "name":"light2",
                 "properties":
                    {

                    },
                 "rotation":0,
                 "type":"light",
                 "visible":true,
                 "width":352,
                 "x":-64,
                 "y":352
                }, 
                {
                 "ellipse":true,
                 "height":352,
                 "name":"light3",
                 "properties":
                    {

                    },
                 "rotation":0,
                 "type":"light",
                 "visible":true,
                 "width":352,
                 "x":160,
                 "y":352
                }, 
                {
                 "ellipse":true,
                 "height":352,
                 "name":"light4",
                 "properties":
                    {

                    },
                 "rotation":0,
                 "type":"light",
                 "visible":true,
                 "width":352,
                 "x":-128,
                 "y":-128
                }],
         "opacity":1,
         "type":"objectgroup",
         "visible":true,
         "width":14,
         "x":0,
         "y":0
        }],
 "orientation":"orthogonal",
 "properties":
    {
     "ambience":"0.6,0.6,0.5",
     "soundtrack":"infiltration"
    },
 "renderorder":"left-up",
 "tileheight":32,
 "tilesets":[
        {
         "firstgid":1,
         "image":"..\/..\/sprites\/tileset_51.png",
         "imageheight":512,
         "imagewidth":1024,
         "margin":0,
         "name":"tileset_51",
         "properties":
            {

            },
         "spacing":0,
         "tileheight":32,
         "tilewidth":32
        }, 
        {
         "firstgid":513,
         "image":"..\/..\/sprites\/pipoya_floors.png",
         "imageheight":256,
         "imagewidth":256,
         "margin":0,
         "name":"pipoya_floors",
         "properties":
            {

            },
         "spacing":0,
         "tileheight":32,
         "tilewidth":32
        }, 
        {
         "firstgid":577,
         "image":"..\/..\/sprites\/pipoya_misc.png",
         "imageheight":384,
         "imagewidth":256,
         "margin":0,
         "name":"pipoya_misc",
         "properties":
            {

            },
         "spacing":0,
         "tileheight":32,
         "tilewidth":32
        }, 
        {
         "firstgid":673,
         "image":"..\/..\/sprites\/common.png",
         "imageheight":256,
         "imagewidth":256,
         "margin":0,
         "name":"common",
         "properties":
            {

            },
         "spacing":0,
         "tileheight":32,
         "tilewidth":32
        }, 
        {
         "firstgid":737,
         "image":"..\/..\/sprites\/modern_interior.png",
         "imageheight":512,
         "imagewidth":512,
         "margin":0,
         "name":"modern_interior",
         "properties":
            {

            },
         "spacing":0,
         "tileheight":32,
         "tilewidth":32
        }, 
        {
         "firstgid":993,
         "image":"..\/..\/sprites\/supplemental.png",
         "imageheight":128,
         "imagewidth":128,
         "margin":0,
         "name":"supplemental",
         "properties":
            {

            },
         "spacing":0,
         "tileheight":32,
         "tilewidth":32
        }, 
        {
         "firstgid":1009,
         "image":"..\/..\/sprites\/pipoya_exteriors.png",
         "imageheight":960,
         "imagewidth":256,
         "margin":0,
         "name":"pipoya_exteriors",
         "properties":
            {

            },
         "spacing":0,
         "tileheight":32,
         "tilewidth":32
        }],
 "tilewidth":32,
 "version":1,
 "width":14
}