{ "height":13,
 "layers":[
        {
         "data":[193, 193, 193, 193, 193, 193, 193, 193, 193, 193, 193, 193, 193, 193, 193, 193, 193, 193, 193, 193, 193, 193, 193, 193, 193, 193, 193, 193, 193, 193, 193, 193, 193, 193, 193, 193, 193, 193, 193, 193, 193, 193, 193, 193, 193, 193, 193, 193, 193, 193, 193, 193, 193, 193, 193, 193, 193, 193, 193, 189, 189, 189, 193, 193, 193, 193, 193, 193, 193, 193, 193, 193, 193, 193, 193, 193, 193, 193, 193, 193, 193, 193, 193, 193, 193, 193, 193, 193, 189, 189, 189, 193, 193, 193, 193, 193, 193, 193, 193, 193, 193, 193, 193, 175, 193, 193, 193, 193, 193, 193, 193, 193, 193, 193, 193, 193, 193, 189, 189, 189, 193, 193, 193, 193, 193, 193, 193, 193, 193, 193, 193, 193, 193, 193, 193, 193, 193, 193, 193, 193, 193, 193, 193, 193, 193, 193, 189, 189, 189, 193, 193, 193, 193, 193, 193, 193, 193, 193, 193, 193, 193, 193, 193, 193, 193, 193, 193, 193, 193, 193, 193, 193, 193, 193, 193, 193, 193, 193, 193, 193, 193, 193, 193, 193, 193, 193, 193, 193, 193, 193, 193, 193, 193, 193, 193, 193, 193, 193, 193, 193, 193, 193, 193, 193, 193, 193, 193, 193, 193, 193, 193, 193, 193, 193, 193, 193, 193, 193, 193, 193, 193, 193, 193, 193, 193, 193, 193, 193, 193, 193, 193, 193, 193, 193, 193, 193, 193, 193, 193, 193, 193, 193, 193, 193, 193, 193, 193, 193, 193, 193, 193, 193, 193, 193, 193, 193, 193, 193, 193, 193, 193, 193, 193, 193, 193, 193, 193, 193, 193, 193, 193, 193, 193, 193, 193, 193, 193, 193, 193, 193, 193, 193, 193, 193, 193, 193, 193, 193, 193, 193, 193, 193, 193, 193, 193, 193, 193, 193, 193, 193, 193, 193, 193, 193, 193, 193, 193, 193, 193, 193, 193, 193, 193, 193, 193, 193, 193, 193, 193, 193, 193, 193, 193, 193, 193, 193, 193, 193, 193, 193, 193, 193, 193, 193, 193, 193, 193, 193, 193, 193, 193, 193, 193, 193, 193, 193, 193, 193, 193, 193, 193, 193, 193, 193, 193, 193, 193, 193, 193, 193, 193, 193, 193, 193, 193, 193, 193, 193, 193, 193, 193, 193, 193, 193, 193, 193, 193],
         "height":13,
         "name":"floor",
         "opacity":1,
         "type":"tilelayer",
         "visible":true,
         "width":29,
         "x":0,
         "y":0
        }, 
        {
         "data":[5, 265, 266, 266, 266, 266, 266, 266, 266, 266, 266, 266, 266, 266, 266, 266, 266, 266, 266, 266, 266, 266, 266, 266, 266, 266, 266, 267, 5, 13, 273, 274, 274, 24, 274, 274, 274, 274, 274, 24, 274, 274, 274, 274, 274, 274, 274, 24, 274, 274, 274, 274, 274, 313, 274, 274, 275, 13, 13, 101, 98, 101, 32, 77, 153, 154, 155, 81, 32, 68, 69, 67, 97, 0, 108, 109, 32, 0, 153, 154, 155, 0, 313, 0, 0, 0, 13, 13, 0, 0, 0, 32, 0, 0, 0, 0, 0, 32, 0, 0, 0, 0, 0, 116, 117, 32, 0, 94, 95, 96, 0, 313, 314, 0, 315, 13, 13, 512, 0, 93, 32, 0, 0, 0, 0, 0, 32, 0, 0, 0, 0, 0, 0, 0, 32, 0, 102, 103, 104, 0, 568, 313, 0, 315, 13, 13, 510, 0, 511, 32, 576, 0, 0, 0, 576, 32, 0, 0, 0, 0, 0, 0, 497, 32, 0, 110, 111, 112, 0, 0, 321, 0, 323, 13, 13, 29, 0, 27, 28, 28, 29, 0, 27, 28, 28, 28, 28, 29, 0, 27, 28, 28, 39, 0, 0, 0, 0, 0, 0, 0, 0, 0, 13, 13, 0, 0, 0, 0, 0, 0, 0, 0, 0, 0, 0, 0, 0, 0, 0, 0, 0, 0, 0, 0, 0, 0, 0, 0, 0, 0, 0, 13, 13, 73, 74, 0, 73, 74, 24, 0, 30, 28, 29, 0, 27, 28, 24, 28, 29, 0, 27, 28, 31, 0, 24, 73, 74, 0, 73, 74, 13, 13, 0, 0, 0, 0, 0, 32, 0, 32, 97, 67, 0, 0, 107, 32, 107, 0, 0, 67, 97, 32, 0, 32, 0, 0, 0, 0, 0, 13, 13, 81, 82, 0, 81, 82, 32, 0, 32, 0, 0, 0, 0, 115, 32, 115, 0, 0, 0, 0, 32, 0, 32, 81, 82, 0, 81, 82, 13, 13, 576, 0, 0, 0, 552, 32, 0, 32, 0, 0, 0, 0, 0, 32, 0, 0, 0, 0, 0, 32, 0, 32, 552, 0, 0, 0, 576, 13, 22, 7, 7, 7, 7, 7, 8, 0, 6, 7, 7, 7, 7, 7, 7, 7, 7, 7, 7, 7, 8, 0, 6, 7, 7, 7, 7, 7, 23],
         "height":13,
         "name":"walls",
         "opacity":1,
         "type":"tilelayer",
         "visible":true,
         "width":29,
         "x":0,
         "y":0
        }, 
        {
         "data":[0, 0, 0, 0, 0, 139, 0, 138, 0, 0, 0, 0, 0, 0, 0, 139, 25, 25, 0, 0, 0, 138, 0, 139, 0, 0, 0, 0, 0, 0, 0, 90, 0, 0, 0, 145, 146, 147, 73, 0, 60, 61, 59, 89, 0, 33, 33, 0, 0, 145, 146, 147, 0, 0, 0, 0, 0, 0, 0, 0, 0, 0, 0, 0, 0, 0, 499, 0, 0, 0, 0, 0, 0, 166, 0, 0, 0, 0, 0, 0, 0, 0, 0, 207, 0, 0, 0, 0, 0, 0, 0, 0, 85, 166, 167, 168, 0, 0, 0, 0, 0, 84, 174, 0, 0, 0, 83, 0, 0, 0, 83, 560, 0, 0, 0, 0, 0, 0, 0, 0, 0, 0, 182, 183, 184, 0, 0, 0, 0, 0, 0, 182, 183, 184, 0, 83, 0, 0, 0, 83, 0, 0, 0, 0, 0, 0, 0, 0, 0, 0, 0, 0, 0, 0, 0, 0, 0, 0, 0, 0, 0, 0, 0, 0, 83, 0, 0, 0, 83, 0, 0, 0, 0, 0, 0, 0, 0, 0, 0, 0, 0, 0, 0, 0, 0, 0, 0, 0, 0, 0, 0, 0, 0, 0, 0, 0, 0, 0, 0, 0, 0, 0, 0, 0, 0, 0, 0, 0, 0, 0, 0, 0, 0, 0, 0, 0, 0, 0, 0, 0, 0, 0, 0, 0, 0, 0, 0, 0, 0, 0, 0, 0, 0, 0, 0, 0, 0, 0, 0, 0, 0, 89, 0, 0, 0, 0, 0, 0, 0, 0, 0, 89, 0, 0, 0, 0, 0, 0, 0, 0, 0, 0, 0, 0, 0, 0, 0, 0, 0, 0, 0, 0, 0, 0, 0, 0, 0, 0, 0, 0, 0, 0, 0, 0, 0, 0, 0, 0, 0, 0, 0, 0, 0, 0, 0, 0, 0, 0, 0, 166, 168, 0, 0, 0, 0, 0, 0, 0, 166, 168, 0, 0, 0, 0, 0, 0, 0, 0, 0, 0, 0, 0, 0, 0, 0, 0, 0, 0, 182, 184, 0, 0, 0, 0, 0, 0, 0, 182, 184, 0, 0, 0, 0, 0, 0, 0, 0, 0, 0, 0, 0, 0, 0, 0, 0, 0, 0, 0, 0, 0, 0, 0, 0, 0, 0, 0, 0, 0, 0, 0, 0, 0, 0, 0, 0, 0, 0],
         "height":13,
         "name":"decals",
         "opacity":1,
         "type":"tilelayer",
         "visible":true,
         "width":29,
         "x":0,
         "y":0
        }, 
        {
         "data":[0, 0, 0, 0, 0, 0, 0, 0, 0, 0, 0, 0, 0, 0, 0, 0, 0, 0, 0, 0, 0, 0, 0, 0, 0, 0, 0, 0, 0, 0, 0, 0, 0, 0, 0, 0, 0, 0, 0, 0, 0, 0, 0, 0, 0, 0, 0, 0, 0, 0, 0, 0, 0, 0, 0, 0, 0, 0, 0, 0, 0, 0, 0, 0, 0, 0, 0, 0, 0, 0, 0, 0, 0, 0, 0, 0, 0, 0, 0, 0, 0, 0, 0, 0, 0, 0, 0, 0, 0, 0, 0, 0, 0, 0, 0, 0, 0, 0, 0, 0, 0, 0, 0, 0, 0, 0, 0, 0, 0, 0, 0, 0, 0, 0, 0, 0, 0, 0, 0, 0, 0, 0, 0, 0, 0, 0, 0, 0, 0, 0, 0, 0, 0, 0, 0, 0, 0, 0, 0, 0, 0, 0, 0, 0, 0, 0, 0, 0, 0, 0, 0, 0, 0, 0, 0, 0, 0, 0, 0, 0, 0, 0, 0, 0, 0, 0, 0, 0, 0, 0, 0, 0, 0, 0, 0, 0, 0, 0, 0, 0, 0, 0, 0, 0, 0, 0, 0, 0, 0, 0, 0, 0, 0, 0, 0, 0, 0, 0, 0, 0, 0, 0, 0, 0, 0, 0, 0, 0, 0, 0, 0, 0, 0, 0, 0, 0, 0, 0, 0, 0, 0, 0, 0, 0, 0, 0, 0, 0, 0, 0, 0, 0, 0, 0, 0, 0, 0, 0, 0, 0, 0, 0, 0, 0, 0, 0, 0, 0, 0, 0, 0, 0, 0, 0, 0, 0, 0, 0, 0, 0, 0, 0, 0, 0, 0, 0, 0, 0, 0, 0, 0, 0, 0, 0, 0, 0, 0, 0, 0, 0, 0, 0, 0, 0, 0, 0, 0, 0, 0, 0, 0, 0, 0, 0, 0, 544, 0, 0, 0, 0, 0, 0, 0, 0, 0, 0, 0, 0, 0, 0, 0, 0, 0, 544, 0, 0, 0, 0, 0, 0, 0, 0, 0, 0, 0, 0, 0, 0, 0, 0, 0, 0, 0, 0, 0, 0, 0, 0, 0, 0, 0, 0, 0, 0, 0, 0, 0, 0, 0, 0, 0, 0, 0, 0, 0, 0, 0, 0, 0, 0, 0, 0, 0, 0, 0, 0, 0, 0, 0, 0, 0, 0, 0, 0, 0, 0, 0],
         "height":13,
         "name":"grass",
         "opacity":1,
         "type":"tilelayer",
         "visible":true,
         "width":29,
         "x":0,
         "y":0
        }, 
        {
         "data":[0, 0, 0, 0, 0, 0, 0, 0, 0, 0, 0, 0, 0, 0, 0, 0, 0, 0, 0, 0, 0, 0, 0, 0, 0, 0, 0, 0, 0, 0, 0, 0, 0, 0, 0, 0, 0, 0, 0, 0, 0, 0, 0, 0, 0, 0, 0, 0, 0, 0, 0, 0, 0, 0, 0, 0, 0, 0, 0, 0, 0, 0, 0, 0, 0, 0, 0, 0, 0, 0, 0, 0, 0, 0, 0, 0, 0, 0, 0, 0, 0, 0, 0, 0, 0, 0, 0, 0, 0, 0, 0, 0, 0, 0, 0, 0, 0, 0, 0, 0, 0, 0, 0, 0, 0, 0, 0, 0, 0, 0, 0, 0, 0, 0, 0, 0, 0, 0, 0, 0, 0, 0, 0, 0, 0, 0, 0, 25, 25, 0, 0, 0, 0, 0, 0, 0, 0, 0, 0, 0, 0, 0, 319, 0, 0, 0, 0, 0, 0, 0, 0, 0, 0, 0, 0, 0, 33, 33, 0, 0, 0, 0, 0, 0, 0, 0, 0, 0, 0, 0, 0, 0, 0, 0, 0, 0, 0, 0, 0, 0, 0, 0, 0, 0, 0, 0, 0, 0, 0, 0, 0, 0, 0, 0, 0, 0, 0, 0, 0, 0, 0, 0, 0, 0, 0, 0, 0, 0, 0, 0, 0, 0, 0, 0, 0, 0, 0, 0, 0, 0, 0, 0, 0, 0, 0, 0, 0, 0, 0, 0, 0, 0, 0, 0, 0, 0, 0, 0, 0, 0, 0, 0, 0, 0, 0, 0, 0, 0, 0, 0, 0, 0, 0, 0, 0, 0, 0, 0, 0, 0, 0, 0, 73, 74, 0, 73, 74, 0, 0, 0, 0, 0, 0, 0, 0, 0, 0, 0, 0, 0, 0, 0, 0, 0, 73, 74, 0, 73, 74, 0, 0, 0, 0, 0, 0, 0, 0, 0, 0, 0, 0, 0, 0, 0, 0, 0, 0, 0, 0, 0, 0, 0, 0, 0, 0, 0, 0, 0, 0, 0, 0, 0, 0, 0, 0, 0, 0, 0, 0, 0, 0, 0, 0, 0, 0, 0, 0, 0, 0, 0, 0, 0, 0, 0, 0, 0, 0, 0, 0, 0, 0, 0, 0, 0, 0, 0, 0, 0, 0, 0, 0, 0, 0, 0, 0, 0, 0, 0, 0, 0, 0, 0, 0, 0, 0, 0, 0],
         "height":13,
         "name":"airborne",
         "opacity":1,
         "type":"tilelayer",
         "visible":true,
         "width":29,
         "x":0,
         "y":0
        }, 
        {
         "draworder":"topdown",
         "height":13,
         "name":"doors",
         "objects":[
                {
                 "gid":601,
                 "height":0,
                 "name":"door",
                 "properties":
                    {
                     "direction":"down",
                     "width":"1"
                    },
                 "rotation":0,
                 "type":"door",
                 "visible":true,
                 "width":0,
                 "x":224,
                 "y":416
                }, 
                {
                 "gid":617,
                 "height":0,
                 "name":"basement",
                 "properties":
                    {
                     "direction":"up",
                     "objective":"{\"main\": [\"catch_dr_rees\"]}",
                     "width":"1"
                    },
                 "rotation":0,
                 "type":"door",
                 "visible":true,
                 "width":0,
                 "x":832,
                 "y":192
                }, 
                {
                 "gid":601,
                 "height":0,
                 "name":"door2",
                 "properties":
                    {
                     "direction":"down",
                     "width":"1"
                    },
                 "rotation":0,
                 "type":"door",
                 "visible":true,
                 "width":0,
                 "x":672,
                 "y":416
                }],
         "opacity":1,
         "type":"objectgroup",
         "visible":true,
         "width":15,
         "x":0,
         "y":0
        }, 
        {
         "draworder":"topdown",
         "height":13,
         "name":"warps",
         "objects":[
                {
                 "gid":625,
                 "height":0,
                 "name":"exit",
                 "properties":
                    {
                     "map":"0",
                     "x":"22",
                     "y":"27"
                    },
                 "rotation":0,
                 "type":"warp",
                 "visible":true,
                 "width":0,
                 "x":224,
                 "y":416
                }, 
                {
                 "gid":625,
                 "height":0,
                 "name":"exit2",
                 "properties":
                    {
                     "map":"0",
                     "x":"27",
                     "y":"27"
                    },
                 "rotation":0,
                 "type":"warp",
                 "visible":true,
                 "width":0,
                 "x":672,
                 "y":416
                }, 
                {
                 "gid":625,
                 "height":0,
                 "name":"to_sewer_tunnel_north",
                 "properties":
                    {
                     "map":"sewer_tunnel_north",
                     "x":"16",
                     "y":"3"
                    },
                 "rotation":0,
                 "type":"warp",
                 "visible":true,
                 "width":0,
                 "x":800,
                 "y":96
                }],
         "opacity":1,
         "type":"objectgroup",
         "visible":true,
         "width":15,
         "x":0,
         "y":0
        }, 
        {
         "draworder":"topdown",
         "height":13,
         "name":"npcs",
         "objects":[
                {
                 "gid":626,
                 "height":0,
                 "name":"woman1",
                 "properties":
                    {
                     "dress_color":"96,96,96",
                     "hair_color":"122, 91, 67",
                     "waypoints":"woman1"
                    },
                 "rotation":0,
                 "type":"woman",
                 "visible":true,
                 "width":0,
                 "x":64,
                 "y":128
                }],
         "opacity":1,
         "type":"objectgroup",
         "visible":true,
         "width":15,
         "x":0,
         "y":0
        }, 
        {
         "draworder":"topdown",
         "height":13,
         "name":"waypoints",
         "objects":[
                {
                 "gid":625,
                 "height":0,
                 "name":"woman1",
                 "properties":
                    {
                     "behavior":"stop",
                     "direction":"up"
                    },
                 "rotation":0,
                 "type":"waypoint",
                 "visible":true,
                 "width":0,
                 "x":64,
                 "y":128
                }, 
                {
                 "gid":625,
                 "height":0,
                 "name":"rees1",
                 "properties":
                    {
                     "behavior":"stop",
                     "direction":"down"
                    },
                 "rotation":0,
                 "type":"waypoint",
                 "visible":true,
                 "width":0,
                 "x":832,
                 "y":128
                }, 
                {
                 "gid":625,
                 "height":0,
                 "name":"isabel1",
                 "properties":
                    {
                     "behavior":"stop",
                     "direction":"right"
                    },
                 "rotation":0,
                 "type":"waypoint",
                 "visible":true,
                 "width":0,
                 "x":800,
                 "y":224
                }],
         "opacity":1,
         "type":"objectgroup",
         "visible":true,
         "width":15,
         "x":0,
         "y":0
        }, 
        {
         "draworder":"topdown",
         "height":13,
         "name":"triggers",
         "objects":[
                {
                 "gid":625,
                 "height":0,
                 "name":"catch_dr_rees",
                 "properties":
                    {
                     "name":"catch_dr_rees",
                     "order":"120",
                     "quest":"main",
                     "script":"CaughtScientistScript",
                     "title":"Catch Dr. Rees"
                    },
                 "rotation":0,
                 "type":"objective",
                 "visible":true,
                 "width":0,
                 "x":832,
                 "y":96
                }],
         "opacity":1,
         "type":"objectgroup",
         "visible":true,
         "width":29,
         "x":0,
         "y":0
        }],
 "orientation":"orthogonal",
 "properties":
    {
     "soundtrack":"town"
    },
 "renderorder":"left-up",
 "tileheight":32,
 "tilesets":[
        {
         "firstgid":1,
         "image":"..\/..\/sprites\/pipoya_indoor.png",
         "imageheight":736,
         "imagewidth":256,
         "margin":0,
         "name":"pipoya_indoor",
         "properties":
            {

            },
         "spacing":0,
         "tileheight":32,
         "tilewidth":32
        }, 
        {
         "firstgid":185,
         "image":"..\/..\/sprites\/pipoya_floors.png",
         "imageheight":256,
         "imagewidth":256,
         "margin":0,
         "name":"pipoya_floors",
         "properties":
            {

            },
         "spacing":0,
         "tileheight":32,
         "tilewidth":32
        }, 
        {
         "firstgid":249,
         "image":"..\/..\/sprites\/pipoya_exteriors.png",
         "imageheight":960,
         "imagewidth":256,
         "margin":0,
         "name":"pipoya_exteriors",
         "properties":
            {

            },
         "spacing":0,
         "tileheight":32,
         "tilewidth":32
        }, 
        {
         "firstgid":489,
         "image":"..\/..\/sprites\/pipoya_misc.png",
         "imageheight":384,
         "imagewidth":256,
         "margin":0,
         "name":"pipoya_misc",
         "properties":
            {

            },
         "spacing":0,
         "tileheight":32,
         "tilewidth":32
        }, 
        {
         "firstgid":585,
         "image":"..\/..\/sprites\/common.png",
         "imageheight":256,
         "imagewidth":256,
         "margin":0,
         "name":"common",
         "properties":
            {

            },
         "spacing":0,
         "tileheight":32,
         "tilewidth":32
        }],
 "tilewidth":32,
 "version":1,
 "width":29
}