{ "height":48,
 "layers":[
        {
         "data":[3, 3, 3, 3, 3, 3, 3, 3, 3, 3, 3, 3, 3, 3, 3, 3, 3, 3, 3, 3, 3, 3, 3, 3, 3, 3, 3, 3, 3, 3, 3, 3, 3, 3, 3, 3, 3, 3, 3, 3, 3, 3, 3, 3, 3, 3, 3, 3, 3, 89, 3, 3, 3, 3, 3, 3, 3, 3, 3, 3, 3, 3, 3, 3, 3, 3, 3, 3, 3, 3, 3, 3, 3, 3, 3, 3, 3, 3, 3, 3, 3, 3, 3, 3, 3, 3, 3, 3, 3, 3, 3, 3, 3, 3, 3, 3, 3, 3, 3, 3, 3, 3, 3, 3, 3, 3, 3, 3, 3, 3, 3, 3, 3, 3, 3, 3, 3, 3, 3, 3, 3, 3, 3, 3, 3, 3, 3, 3, 3, 3, 3, 3, 3, 3, 3, 3, 3, 3, 3, 3, 3, 3, 3, 3, 3, 3, 3, 3, 3, 3, 3, 3, 3, 3, 3, 3, 3, 3, 3, 3, 3, 3, 3, 3, 3, 3, 3, 3, 3, 3, 3, 3, 3, 3, 3, 3, 3, 3, 3, 3, 3, 3, 3, 3, 3, 3, 3, 3, 3, 3, 3, 3, 3, 3, 3, 3, 3, 3, 3, 3, 3, 3, 3, 3, 3, 3, 3, 3, 3, 3, 3, 3, 3, 3, 3, 3, 3, 3, 3, 3, 3, 3, 3, 3, 3, 3, 3, 3, 3, 3, 3, 3, 3, 3, 3, 3, 3, 3, 3, 3, 3, 3, 3, 3, 3, 3, 3, 3, 3, 3, 3, 3, 3, 3, 3, 3, 3, 3, 3, 3, 3, 3, 3, 3, 3, 3, 3, 3, 3, 3, 3, 3, 3, 3, 3, 3, 3, 3, 3, 3, 3, 3, 3, 3, 3, 3, 3, 3, 3, 3, 3, 3, 3, 3, 3, 3, 3, 3, 3, 3, 3, 3, 3, 3, 3, 3, 3, 3, 3, 3, 3, 3, 3, 3, 3, 3, 3, 3, 3, 3, 3, 3, 3, 3, 3, 3, 3, 3, 3, 3, 3, 3, 3, 3, 3, 3, 3, 3, 3, 3, 3, 3, 3, 3, 3, 3, 3, 3, 3, 3, 3, 3, 3, 3, 3, 3, 3, 3, 3, 3, 3, 3, 3, 3, 3, 3, 3, 3, 3, 3, 3, 3, 3, 3, 3, 3, 3, 3, 3, 3, 3, 3, 3, 3, 3, 3, 3, 3, 3, 3, 3, 3, 3, 3, 3, 3, 3, 3, 3, 3, 3, 3, 3, 3, 3, 3, 3, 3, 3, 3, 3, 3, 3, 3, 3, 3, 3, 3, 3, 3, 3, 3, 3, 3, 3, 3, 3, 3, 3, 3, 3, 3, 3, 3, 3, 3, 3, 3, 3, 3, 3, 3, 3, 3, 3, 3, 3, 3, 3, 3, 3, 3, 3, 3, 3, 3, 3, 3, 3, 3, 3, 3, 3, 3, 3, 3, 3, 3, 3, 3, 3, 3, 3, 3, 3, 3, 3, 3, 3, 3, 3, 3, 3, 3, 3, 3, 3, 3, 3, 3, 3, 3, 3, 3, 3, 3, 3, 3, 3, 3, 3, 3, 3, 3, 3, 3, 3, 3, 3, 3, 3, 3, 3, 3, 3, 3, 3, 3, 3, 3, 3, 3, 3, 3, 3, 3, 3, 3, 3, 3, 3, 3, 3, 3, 3, 3, 3, 3, 3, 3, 3, 3, 3, 3, 3, 3, 3, 3, 3, 3, 3, 3, 3, 3, 3, 3, 3, 3, 3, 3, 3, 3, 3, 3, 3, 3, 3, 3, 3, 3, 3, 3, 3, 3, 3, 3, 3, 3, 3, 3, 3, 3, 3, 3, 3, 3, 3, 3, 3, 3, 3, 3, 3, 3, 3, 3, 3, 3, 3, 3, 3, 3, 3, 3, 3, 3, 3, 3, 3, 3, 3, 3, 3, 3, 3, 3, 3, 3, 3, 3, 3, 3, 3, 3, 3, 3, 3, 3, 3, 3, 3, 3, 3, 3, 3, 3, 3, 3, 3, 3, 3, 3, 3, 3, 3, 3, 3, 3, 3, 3, 3, 3, 3, 3, 3, 3, 3, 3, 3, 3, 3, 3, 3, 3, 3, 3, 3, 3, 3, 3, 3, 3, 3, 3, 3, 3, 3, 3, 3, 3, 3, 3, 3, 3, 3, 3, 3, 3, 3, 3, 3, 3, 3, 3, 3, 3, 3, 3, 3, 3, 3, 3, 3, 3, 3, 3, 3, 3, 3, 3, 3, 3, 3, 3, 3, 3, 3, 3, 3, 3, 3, 3, 3, 3, 3, 3, 3, 3, 3, 3, 3, 3, 3, 3, 3, 3, 3, 3, 3, 3, 3, 3, 3, 3, 3, 3, 3, 3, 3, 3, 3, 3, 3, 3, 3, 3, 3, 3, 3, 3, 3, 3, 3, 3, 3, 3, 3, 3, 3, 3, 3, 3, 3, 3, 3, 3, 3, 3, 3, 3, 3, 3, 3, 3, 3, 3, 3, 3, 3, 3, 3, 3, 3, 3, 3, 3, 3, 3, 3, 3, 3, 3, 3, 3, 3, 3, 3, 3, 3, 3, 3, 3, 3, 3, 3, 3, 3, 3, 3, 3, 3, 3, 3, 3, 3, 3, 3, 3, 3, 3, 3, 3, 3, 3, 3, 3, 3, 3, 3, 3, 3, 3, 3, 3, 3, 3, 3, 3, 3, 3, 3, 3, 3, 3, 3, 3, 3, 3, 3, 3, 3, 3, 3, 3, 3, 3, 3, 3, 3, 3, 3, 3, 3, 3, 3, 3, 3, 3, 3, 3, 3, 3, 3, 3, 3, 3, 3, 3, 3, 3, 3, 3, 3, 3, 3, 3, 3, 3, 3, 3, 3, 3, 3, 3, 3, 3, 3, 3, 3, 3, 3, 3, 3, 3, 3, 3, 3, 3, 3, 3, 3, 3, 3, 3, 3, 3, 3, 3, 3, 3, 3, 3, 3, 3, 3, 3, 3, 3, 3, 3, 3, 3, 3, 3, 3, 3, 3, 3, 3, 3, 3, 3, 3, 3, 3, 3, 3, 3, 3, 3, 3, 3, 3, 3, 3, 3, 3, 3, 3, 3, 3, 3, 3, 3, 3, 3, 3, 3, 3, 3, 3, 3, 3, 3, 3, 3, 3, 3, 3, 3, 3, 3, 3, 3, 3, 3, 3, 3, 3, 3, 3, 3, 3, 3, 3, 3, 3, 3, 3, 3, 3, 3, 3, 3, 3, 3, 3, 3, 3, 3, 3, 3, 3, 3, 3, 3, 3, 3, 3, 3, 3, 3, 3, 3, 3, 3, 3, 3, 3, 3, 3, 3, 3, 3, 3, 3, 3, 3, 3, 3, 3, 3, 3, 3, 3, 3, 3, 3, 3, 3, 3, 3, 3, 3, 3, 3, 3, 3, 3, 3, 3, 3, 3, 3, 3, 3, 3, 3, 3, 3, 3, 3, 3, 3, 3, 3, 3, 3, 3, 3, 3, 3, 3, 3, 3, 3, 3, 3, 3, 3, 3, 3, 3, 3, 3, 3, 3, 3, 3, 3, 3, 3, 3, 3, 3, 3, 3, 3, 3, 3, 3, 3, 3, 3, 3, 3, 3, 3, 3, 3, 3, 3, 3, 3, 3, 3, 3, 3, 3, 3, 3, 3, 3, 3, 3, 3, 3, 3, 3, 3, 3, 3, 3, 3, 3, 3, 3, 3, 3, 3, 3, 3, 3, 3, 3, 3, 3, 3, 3, 3, 3, 3, 3, 3, 3, 3, 3, 3, 3, 3, 3, 3, 3, 3, 3, 3, 3, 3, 3, 3, 3, 3, 3, 3, 3, 3, 3, 3, 3, 3, 3, 3, 3, 3, 3, 3, 3, 3, 3, 3, 3, 3, 3, 3, 3, 3, 3, 3, 3, 3, 3, 3, 3, 3, 3, 3, 3, 3, 3, 3, 3, 3, 3, 3, 3, 3, 3, 3, 3, 3, 3, 3, 3, 3, 3, 3, 3, 3, 3, 3, 3, 3, 3, 3, 3, 3, 3, 3, 3, 3, 3, 3, 3, 3, 3, 3, 3, 3, 3, 3, 3, 3, 3, 3, 3, 3, 3, 3, 3, 3, 3, 3, 3, 3, 3, 3, 3, 3, 3, 3, 3, 3, 3, 3, 3, 3, 3, 3, 3, 3, 3, 3, 3, 3, 3, 3, 3, 3, 3, 3, 3, 3, 3, 3, 3, 3, 3, 3, 3, 3, 3, 3, 3, 3, 3, 3, 3, 3, 3, 3, 3, 3, 3, 3, 3, 3, 3, 3, 3, 3, 3, 3, 3, 3, 3, 3, 3, 3, 3, 3, 3, 3, 3, 3, 3, 3, 3, 3, 3, 3, 3, 3, 3, 3, 3, 3, 3, 3, 3, 3, 3, 3, 3, 3, 3, 3, 3, 3, 3, 3, 3, 3, 3, 3, 3, 3, 3, 3, 3, 3, 3, 3, 3, 3, 3, 3, 3, 3, 3, 3, 3, 3, 3, 3, 3, 3, 3, 3, 3, 3, 3, 3, 3, 3, 3, 3, 3, 3, 3, 3, 3, 3, 3, 3, 3, 3, 3, 3, 3, 3, 3, 3, 3, 3, 3, 3, 3, 3, 3, 3, 3, 3, 3, 3, 3, 3, 3, 3, 3, 3, 3, 3, 3, 3, 3, 3, 3, 3, 3, 3, 3, 3, 3, 3, 3, 3, 3, 3, 3, 3, 3, 3, 3, 3, 3, 3, 3, 3, 3, 3, 3, 3, 3, 3, 3, 3, 3, 3, 3, 3, 3, 3, 3, 3, 3, 3, 3, 3, 3, 3, 3, 3, 3, 3, 3, 3, 3, 3, 3, 3, 3, 3, 3, 3, 3, 3, 3, 3, 3, 3, 3, 3, 3, 3, 3, 3, 3, 3, 3, 3, 3, 3, 3, 3, 3, 3, 3, 3, 3, 3, 3, 3, 3, 3, 3, 3, 3, 3, 3, 3, 3, 3, 3, 3, 3, 3, 3, 3, 3, 3, 3, 3, 3, 3, 3, 3, 3, 3, 3, 3, 3, 3, 3, 3, 3, 3, 3, 3, 3, 3, 3, 3, 3, 3, 3, 3, 3, 3, 3, 3, 3, 3, 3, 3, 3, 3, 3, 3, 3, 3, 3, 3, 3, 3, 3, 3, 3, 3, 3, 3, 3, 3, 3, 3, 3, 3, 3, 3, 3, 3, 3, 3, 3, 3, 3, 3, 3, 3, 3, 3, 3, 3, 3, 3, 3, 3, 3, 3, 3, 3, 3, 3, 3, 3, 3, 3, 3, 3, 3, 3, 3, 3, 3, 3, 3, 3, 3, 3, 3, 3, 3, 3, 3, 3, 3, 3, 3, 3, 3, 3, 3, 3, 3, 3, 3, 3, 3, 3, 3, 3, 3, 3, 3, 3, 3, 3, 3, 3, 3, 3, 3, 3, 3, 3, 3, 3, 3, 3, 3, 3, 3, 3, 3, 3, 3, 3, 3, 3, 3, 3, 3, 3, 3, 3, 3, 3, 3, 3, 3, 3, 3, 3, 3, 3, 3, 3, 3, 3, 3, 3, 3, 3, 3, 3, 3, 3, 3, 3, 3, 3, 3, 3, 3, 3, 3, 3, 3, 3, 3, 3, 3, 3, 3, 3, 3, 3, 3, 3, 3, 3, 3, 3, 3, 3, 3, 3, 3, 3, 3, 3, 3, 3, 3, 3, 3, 3, 3, 3, 3, 3, 3, 3, 3, 3, 3, 3, 3, 3, 3, 3, 3, 3, 3, 3, 3, 3, 3, 3, 3, 3, 3, 3, 3, 3, 3, 3, 3, 3, 3, 3, 3, 3, 3, 3, 3, 3, 3, 3, 3, 3, 3, 3, 3, 3, 3, 3, 3, 3, 3, 3, 3, 3, 3, 3, 3, 3, 3, 3, 3, 3, 3, 3, 3, 3, 3, 3, 3, 3, 3, 3, 3, 3, 3, 3, 3, 3, 3, 3, 3, 3, 3, 3, 3, 3, 3, 3, 3, 3, 3, 3, 3, 3, 3, 3, 3, 3, 3, 3, 3, 3, 3, 3, 3, 3, 3, 3, 3, 3, 3, 3, 3, 3, 3, 3, 3, 3, 3, 3, 3, 3, 3, 3, 3, 3, 3, 3, 3, 3, 3, 3, 3, 3, 3, 3, 3, 3, 3, 3, 3, 3, 3, 3, 3, 3, 3, 3, 3, 3, 3, 3, 3, 3, 3, 3, 3, 3, 3, 3, 3, 3, 3, 3, 3, 3, 3, 3, 3, 3, 3, 3, 3, 3, 3, 3, 3, 3, 3, 3, 3, 3, 3, 3, 3, 3, 3, 3, 3, 3, 3, 3, 3, 3, 3, 3, 3, 3, 3, 3, 3, 3, 3, 3, 3, 3, 3, 3, 3, 3, 3, 3, 3, 3, 3, 3, 3, 3, 3, 3, 3, 3, 3, 3, 3, 3, 3, 3, 3, 3, 3, 3, 3, 3, 3, 3, 3, 3, 3, 3, 3, 3, 3, 3, 3, 3, 3, 3, 3, 3, 3, 3, 3, 3, 3, 3, 3, 3, 3, 3, 3, 3, 3, 3, 3, 3, 3, 3, 3, 3, 3, 3, 3, 3, 3, 3, 3, 3, 3, 3, 3, 3, 3, 3, 3, 3, 3, 3, 3, 3, 3, 3, 3, 3, 3, 3, 3, 3, 3, 3, 3, 3, 3, 3, 3, 3, 3, 3, 3, 3, 3, 3, 3, 3, 3, 3, 3, 3, 3, 3, 3, 3, 3, 3, 3, 3, 3, 3, 3, 3, 3, 3, 3, 3, 3, 3, 3, 3, 3, 3, 3, 3, 3, 3, 3, 3, 3, 3, 3, 3, 3, 3, 3, 3, 3, 3, 3, 3, 3, 3, 3, 3, 3, 3, 3, 3, 3, 3, 3, 3, 3, 3, 3, 3, 3, 3, 3, 3, 3, 3, 3, 3, 3, 3, 3, 3, 3, 3, 3, 3, 3, 3, 3, 3, 3, 3, 3, 3, 3, 3, 3, 3, 3, 3, 3, 3, 3, 3, 3, 3, 3, 3, 3, 3, 3, 3, 3, 3, 3, 3, 3, 3, 3, 3, 3, 3, 3, 3, 3, 3, 3, 3, 3, 3, 3, 3, 3, 3, 3, 3, 3, 3, 3, 3, 3, 3, 3, 3, 3, 3, 3, 3, 3, 3, 3, 3, 3, 3, 3, 3, 3, 3, 3, 3, 3, 3, 3, 3, 3, 3, 3, 3, 3, 3, 3, 3, 3, 3, 3, 3, 3, 3, 3, 3, 3, 3, 3, 3, 3, 3, 3, 3, 3, 3, 3, 3, 3, 3, 3, 3, 3, 3, 3, 3, 3, 3, 3, 3, 3, 3, 3, 3, 3, 3, 3, 3, 3, 3, 3, 3, 3, 3, 3, 3, 89, 3],
         "height":48,
         "name":"floor",
         "opacity":1,
         "type":"tilelayer",
         "visible":true,
         "width":48,
         "x":0,
         "y":0
        }, 
        {
         "data":[108, 75, 108, 15, 15, 15, 15, 15, 15, 15, 15, 15, 15, 15, 15, 15, 15, 15, 15, 15, 15, 15, 15, 15, 15, 15, 15, 15, 15, 15, 15, 15, 15, 15, 15, 15, 15, 15, 15, 15, 15, 15, 15, 15, 15, 15, 15, 15, 109, 0, 107, 15, 15, 15, 15, 109, 122, 122, 122, 122, 122, 107, 15, 109, 122, 122, 122, 122, 122, 122, 122, 122, 122, 122, 122, 122, 122, 122, 122, 122, 122, 122, 122, 122, 122, 122, 122, 122, 122, 122, 122, 122, 122, 122, 107, 15, 109, 0, 107, 15, 15, 15, 15, 109, 0, 0, 0, 0, 0, 107, 15, 109, 0, 0, 0, 0, 0, 0, 0, 0, 0, 0, 0, 0, 0, 0, 0, 0, 0, 0, 0, 0, 0, 0, 0, 0, 0, 0, 0, 0, 0, 0, 107, 15, 109, 0, 107, 15, 15, 15, 15, 109, 0, 107, 15, 15, 15, 15, 15, 109, 0, 107, 15, 15, 109, 0, 107, 15, 15, 15, 15, 15, 15, 15, 15, 15, 15, 15, 15, 15, 15, 15, 15, 15, 0, 107, 15, 15, 109, 0, 107, 15, 109, 0, 107, 15, 15, 15, 15, 109, 0, 121, 122, 122, 122, 122, 107, 109, 0, 107, 109, 122, 109, 0, 107, 109, 122, 122, 122, 122, 107, 15, 15, 15, 15, 15, 15, 15, 15, 15, 15, 15, 0, 121, 122, 122, 123, 0, 107, 15, 109, 0, 107, 15, 15, 15, 15, 109, 0, 0, 0, 0, 0, 0, 107, 109, 0, 107, 109, 0, 0, 0, 107, 109, 0, 0, 0, 0, 107, 109, 122, 122, 122, 122, 122, 122, 122, 107, 15, 15, 0, 0, 0, 0, 0, 0, 107, 15, 109, 0, 107, 15, 15, 15, 15, 109, 0, 107, 15, 15, 109, 0, 107, 109, 0, 121, 123, 0, 107, 15, 108, 109, 0, 107, 15, 15, 15, 109, 0, 0, 0, 0, 0, 0, 0, 107, 15, 15, 15, 15, 108, 108, 109, 0, 107, 15, 109, 0, 107, 15, 15, 15, 15, 109, 0, 107, 109, 122, 123, 0, 107, 109, 0, 0, 0, 0, 121, 122, 122, 123, 0, 107, 15, 109, 15, 107, 15, 15, 15, 15, 15, 109, 0, 121, 122, 122, 122, 107, 108, 108, 109, 0, 107, 15, 109, 0, 107, 15, 15, 15, 15, 109, 0, 107, 109, 0, 0, 0, 107, 109, 0, 107, 109, 0, 0, 0, 0, 0, 0, 121, 122, 123, 0, 107, 109, 122, 122, 107, 15, 109, 0, 0, 0, 0, 0, 107, 15, 108, 109, 0, 107, 15, 109, 0, 107, 15, 15, 15, 15, 109, 0, 107, 15, 15, 15, 15, 15, 109, 0, 107, 109, 0, 107, 15, 109, 0, 0, 0, 0, 0, 0, 107, 109, 0, 0, 121, 122, 123, 0, 107, 15, 109, 0, 107, 108, 108, 109, 0, 107, 15, 109, 0, 107, 15, 15, 15, 15, 109, 0, 107, 15, 15, 15, 15, 15, 109, 0, 107, 109, 0, 107, 15, 15, 15, 15, 15, 15, 15, 15, 15, 15, 109, 0, 0, 0, 0, 0, 107, 15, 109, 0, 107, 15, 108, 109, 0, 107, 15, 109, 0, 121, 122, 122, 122, 122, 123, 0, 121, 122, 122, 122, 122, 107, 109, 0, 121, 123, 0, 121, 122, 122, 122, 122, 122, 122, 122, 122, 122, 122, 122, 122, 122, 122, 122, 122, 122, 122, 123, 0, 121, 122, 107, 109, 0, 121, 107, 109, 0, 0, 0, 0, 0, 0, 0, 0, 0, 0, 0, 0, 0, 107, 109, 0, 0, 0, 0, 0, 0, 0, 0, 0, 0, 0, 0, 0, 0, 0, 0, 0, 0, 0, 0, 0, 0, 0, 0, 0, 0, 0, 107, 109, 0, 0, 107, 107, 15, 15, 15, 109, 0, 107, 15, 15, 15, 15, 15, 15, 15, 15, 15, 108, 15, 15, 108, 15, 109, 0, 107, 108, 15, 15, 15, 15, 15, 15, 108, 15, 15, 15, 15, 15, 15, 15, 15, 15, 109, 0, 107, 15, 109, 0, 107, 107, 109, 122, 107, 109, 0, 107, 15, 15, 15, 15, 15, 109, 122, 122, 122, 122, 107, 109, 122, 107, 109, 0, 107, 108, 15, 15, 15, 15, 15, 109, 122, 122, 122, 122, 122, 122, 122, 122, 122, 107, 109, 0, 107, 15, 109, 0, 107, 107, 109, 0, 107, 109, 0, 107, 15, 15, 15, 15, 15, 109, 0, 0, 0, 0, 107, 109, 0, 121, 123, 0, 107, 108, 15, 109, 15, 15, 15, 109, 0, 0, 0, 0, 0, 0, 0, 0, 0, 107, 109, 0, 121, 15, 109, 0, 107, 107, 109, 0, 107, 109, 0, 121, 122, 122, 122, 122, 122, 123, 0, 107, 109, 0, 107, 109, 0, 0, 0, 0, 107, 108, 15, 109, 0, 0, 0, 0, 0, 107, 15, 15, 15, 15, 15, 15, 15, 15, 109, 0, 0, 107, 109, 0, 107, 109, 123, 0, 107, 109, 0, 0, 0, 0, 0, 0, 0, 0, 0, 107, 109, 0, 107, 109, 0, 107, 15, 15, 109, 122, 107, 109, 0, 107, 15, 109, 0, 107, 15, 15, 15, 15, 15, 15, 15, 15, 15, 108, 15, 15, 109, 0, 107, 109, 0, 0, 107, 109, 0, 107, 15, 15, 15, 15, 15, 15, 15, 15, 109, 0, 107, 109, 0, 107, 15, 15, 109, 0, 107, 109, 0, 107, 15, 109, 0, 107, 15, 109, 122, 122, 122, 122, 122, 122, 122, 122, 122, 122, 123, 0, 107, 107, 109, 0, 107, 109, 0, 107, 15, 15, 109, 15, 107, 109, 15, 107, 109, 0, 107, 109, 0, 121, 122, 122, 123, 0, 107, 109, 0, 121, 122, 123, 0, 107, 15, 109, 0, 0, 0, 0, 0, 0, 0, 0, 0, 0, 0, 0, 107, 107, 109, 0, 107, 109, 0, 107, 15, 15, 109, 0, 107, 109, 0, 107, 109, 0, 107, 109, 0, 0, 0, 0, 0, 0, 107, 109, 0, 0, 0, 0, 0, 107, 15, 109, 0, 107, 15, 15, 15, 15, 15, 15, 15, 15, 15, 108, 108, 107, 109, 0, 107, 109, 0, 121, 122, 122, 123, 0, 121, 123, 0, 121, 123, 0, 107, 15, 15, 15, 15, 15, 109, 0, 107, 15, 15, 15, 15, 109, 0, 107, 108, 109, 0, 107, 15, 15, 109, 122, 122, 122, 122, 122, 122, 107, 108, 107, 109, 0, 107, 109, 0, 0, 0, 0, 0, 0, 0, 0, 0, 0, 0, 0, 107, 109, 122, 122, 122, 107, 109, 0, 107, 109, 122, 122, 107, 109, 0, 107, 15, 109, 0, 107, 15, 15, 109, 0, 0, 0, 0, 0, 0, 107, 108, 109, 123, 0, 107, 109, 0, 107, 108, 108, 108, 108, 108, 108, 108, 108, 108, 108, 108, 109, 0, 0, 0, 107, 109, 0, 107, 109, 0, 0, 107, 109, 0, 107, 108, 109, 0, 107, 108, 108, 109, 0, 107, 108, 108, 109, 0, 107, 108, 109, 0, 0, 107, 109, 0, 107, 109, 122, 122, 122, 122, 122, 108, 108, 108, 108, 108, 109, 0, 107, 108, 108, 109, 0, 107, 108, 109, 0, 107, 109, 0, 107, 108, 109, 0, 121, 108, 108, 109, 0, 107, 108, 108, 109, 0, 107, 108, 109, 0, 107, 108, 109, 0, 107, 109, 0, 0, 0, 0, 0, 107, 108, 108, 108, 108, 109, 0, 107, 108, 108, 109, 0, 107, 108, 109, 0, 107, 109, 0, 107, 108, 109, 0, 0, 121, 122, 123, 0, 121, 122, 107, 109, 0, 107, 108, 109, 0, 107, 108, 109, 0, 107, 109, 0, 107, 108, 108, 108, 109, 122, 122, 122, 122, 123, 0, 121, 122, 122, 123, 0, 121, 122, 123, 0, 107, 109, 0, 107, 108, 108, 109, 0, 0, 0, 0, 0, 0, 0, 107, 109, 0, 107, 108, 109, 0, 121, 107, 109, 0, 107, 109, 0, 107, 108, 108, 108, 109, 0, 0, 0, 0, 0, 0, 0, 0, 0, 0, 0, 0, 0, 0, 0, 107, 109, 0, 107, 108, 108, 109, 0, 107, 108, 108, 108, 108, 0, 107, 109, 0, 107, 108, 109, 0, 0, 107, 109, 0, 107, 109, 0, 107, 108, 108, 108, 109, 0, 107, 108, 108, 108, 108, 108, 108, 108, 108, 108, 108, 108, 109, 0, 107, 109, 0, 107, 108, 108, 109, 0, 107, 109, 122, 107, 108, 0, 107, 109, 0, 107, 108, 109, 0, 107, 108, 109, 0, 107, 109, 0, 121, 122, 122, 122, 123, 0, 121, 122, 122, 122, 122, 122, 122, 107, 108, 108, 109, 122, 123, 0, 107, 109, 0, 107, 108, 108, 109, 0, 107, 109, 0, 107, 108, 0, 107, 109, 0, 107, 108, 109, 0, 107, 108, 109, 0, 107, 109, 0, 0, 0, 0, 0, 0, 0, 0, 0, 0, 0, 0, 0, 0, 107, 108, 108, 109, 0, 0, 0, 107, 109, 0, 107, 108, 108, 109, 0, 107, 109, 0, 107, 108, 0, 107, 109, 0, 107, 108, 109, 0, 107, 108, 109, 0, 107, 108, 108, 108, 108, 108, 108, 109, 0, 107, 108, 108, 108, 108, 109, 0, 107, 108, 108, 108, 108, 109, 0, 107, 109, 0, 107, 108, 108, 109, 0, 107, 109, 0, 107, 108, 0, 107, 109, 0, 107, 108, 109, 0, 121, 122, 123, 0, 107, 109, 122, 107, 108, 108, 108, 109, 0, 121, 122, 122, 122, 122, 123, 0, 121, 122, 122, 122, 122, 123, 0, 107, 109, 0, 107, 108, 108, 109, 0, 121, 123, 0, 107, 108, 0, 107, 109, 0, 107, 108, 109, 0, 0, 0, 0, 0, 107, 109, 0, 107, 108, 108, 108, 109, 0, 0, 0, 0, 0, 0, 0, 0, 0, 0, 0, 0, 0, 0, 0, 107, 109, 0, 107, 108, 108, 109, 0, 0, 0, 0, 107, 108, 0, 107, 109, 0, 107, 108, 109, 0, 107, 108, 109, 0, 107, 109, 0, 121, 122, 122, 122, 123, 0, 107, 108, 108, 108, 108, 109, 0, 107, 15, 15, 108, 108, 108, 108, 108, 109, 0, 107, 108, 108, 108, 108, 108, 108, 108, 108, 108, 108, 108, 109, 0, 107, 15, 109, 0, 107, 108, 109, 0, 107, 109, 0, 0, 0, 0, 0, 0, 0, 107, 109, 108, 108, 107, 109, 0, 107, 109, 122, 122, 122, 122, 122, 107, 109, 0, 121, 122, 122, 122, 122, 122, 122, 122, 122, 122, 122, 122, 123, 0, 121, 107, 109, 0, 107, 108, 109, 0, 107, 108, 108, 108, 108, 108, 108, 109, 0, 107, 109, 0, 0, 107, 109, 0, 107, 109, 0, 0, 0, 0, 0, 107, 109, 0, 0, 0, 0, 0, 0, 0, 0, 0, 0, 0, 0, 0, 0, 0, 0, 107, 109, 0, 107, 108, 109, 0, 107, 108, 108, 108, 108, 108, 108, 109, 0, 107, 109, 0, 107, 108, 109, 0, 107, 109, 0, 107, 108, 109, 0, 107, 108, 108, 108, 108, 108, 108, 109, 0, 107, 108, 108, 108, 108, 108, 15, 109, 0, 107, 109, 0, 107, 108, 109, 0, 107, 108, 108, 108, 108, 108, 108, 109, 0, 107, 109, 0, 107, 108, 109, 0, 107, 109, 0, 107, 108, 109, 0, 107, 108, 108, 108, 108, 108, 108, 109, 0, 107, 109, 122, 122, 122, 122, 107, 109, 0, 107, 109, 0, 107, 108, 109, 0, 121, 108, 108, 108, 108, 108, 108, 109, 0, 107, 109, 0, 107, 108, 109, 0, 107, 109, 0, 121, 108, 123, 0, 121, 122, 122, 122, 122, 122, 107, 109, 0, 107, 109, 0, 0, 0, 0, 107, 109, 0, 107, 109, 0, 107, 108, 109, 0, 0, 0, 0, 0, 0, 107, 108, 109, 0, 107, 109, 0, 107, 108, 109, 0, 107, 109, 0, 0, 0, 0, 0, 0, 0, 0, 0, 0, 0, 107, 109, 0, 107, 109, 0, 107, 108, 108, 15, 109, 0, 107, 109, 0, 107, 108, 108, 108, 108, 108, 108, 109, 0, 107, 108, 109, 0, 107, 109, 0, 107, 108, 109, 0, 107, 108, 108, 108, 108, 108, 109, 0, 107, 108, 108, 108, 108, 108, 109, 0, 107, 109, 0, 121, 122, 122, 122, 123, 0, 107, 109, 0, 107, 109, 122, 122, 122, 122, 122, 123, 0, 107, 108, 109, 0, 107, 109, 0, 107, 108, 109, 0, 107, 108, 108, 108, 108, 108, 109, 0, 107, 108, 108, 108, 108, 108, 109, 0, 107, 109, 0, 0, 0, 0, 0, 0, 0, 107, 109, 0, 107, 109, 0, 0, 0, 0, 0, 0, 0, 107, 108, 109, 0, 107, 109, 0, 107, 108, 109, 0, 107, 108, 108, 108, 108, 108, 109, 0, 107, 108, 108, 108, 108, 108, 109, 0, 107, 109, 0, 107, 108, 108, 15, 109, 0, 107, 109, 0, 107, 108, 108, 108, 108, 108, 108, 109, 0, 107, 108, 109, 0, 107, 109, 0, 107, 108, 109, 0, 107, 108, 108, 108, 108, 108, 109, 0, 107, 108, 108, 108, 108, 108, 109, 0, 107, 109, 0, 107, 109, 122, 107, 109, 0, 107, 109, 0, 121, 122, 122, 122, 122, 122, 122, 123, 0, 121, 122, 123, 0, 121, 123, 0, 121, 122, 123, 0, 121, 122, 122, 122, 122, 122, 123, 0, 121, 122, 122, 122, 122, 122, 123, 0, 107, 109, 0, 121, 123, 0, 107, 109, 0, 107, 109, 0, 0, 0, 0, 0, 0, 0, 0, 0, 0, 0, 0, 0, 0, 0, 0, 0, 0, 0, 0, 0, 0, 0, 0, 0, 0, 0, 0, 0, 0, 0, 0, 0, 0, 0, 0, 0, 107, 109, 0, 0, 0, 0, 107, 109, 0, 107, 108, 108, 108, 108, 108, 108, 108, 108, 108, 108, 108, 108, 108, 108, 108, 108, 108, 108, 108, 108, 108, 108, 108, 108, 108, 108, 108, 108, 108, 108, 108, 108, 108, 108, 108, 108, 108, 108, 108, 108, 108, 108, 108, 108, 122, 109, 0, 107],
         "height":48,
         "name":"walls",
         "opacity":1,
         "type":"tilelayer",
         "visible":true,
         "width":48,
         "x":0,
         "y":0
        }, 
        {
         "data":[0, 845, 0, 0, 0, 0, 0, 0, 0, 0, 0, 0, 0, 0, 0, 0, 0, 0, 0, 0, 0, 0, 0, 0, 0, 0, 0, 0, 0, 0, 0, 0, 0, 0, 0, 0, 0, 0, 0, 0, 0, 0, 0, 0, 0, 0, 0, 0, 0, 0, 0, 0, 0, 0, 0, 0, 0, 0, 0, 0, 0, 0, 0, 0, 0, 0, 0, 0, 0, 0, 0, 0, 0, 0, 0, 0, 0, 0, 0, 0, 0, 0, 0, 0, 0, 0, 0, 0, 0, 0, 0, 0, 0, 0, 0, 0, 0, 0, 0, 0, 0, 0, 0, 0, 0, 0, 0, 0, 0, 0, 0, 0, 0, 0, 0, 0, 0, 0, 0, 0, 0, 0, 0, 0, 0, 0, 0, 0, 0, 0, 0, 0, 0, 0, 0, 0, 0, 0, 0, 0, 0, 202, 0, 0, 0, 0, 0, 0, 0, 0, 0, 0, 0, 0, 0, 0, 0, 0, 0, 0, 0, 0, 0, 0, 0, 0, 0, 0, 0, 0, 0, 0, 0, 0, 0, 0, 0, 0, 0, 0, 0, 0, 0, 0, 0, 0, 0, 0, 0, 0, 0, 0, 0, 0, 0, 0, 0, 0, 0, 0, 0, 0, 0, 0, 0, 0, 0, 0, 0, 0, 0, 0, 0, 0, 0, 0, 0, 0, 0, 0, 0, 0, 0, 0, 0, 0, 0, 0, 0, 0, 0, 0, 0, 0, 0, 0, 0, 0, 0, 0, 0, 0, 0, 0, 0, 0, 0, 0, 0, 0, 0, 0, 0, 0, 0, 0, 0, 0, 0, 0, 0, 0, 0, 0, 0, 0, 0, 202, 0, 0, 0, 0, 0, 0, 0, 0, 0, 0, 0, 0, 0, 0, 0, 0, 0, 0, 0, 0, 0, 0, 0, 0, 0, 0, 0, 0, 0, 0, 0, 0, 0, 0, 0, 0, 0, 0, 0, 0, 0, 0, 0, 0, 0, 0, 0, 0, 0, 0, 0, 0, 0, 0, 0, 0, 0, 0, 0, 0, 0, 0, 0, 0, 0, 0, 0, 0, 0, 0, 0, 0, 0, 0, 0, 0, 0, 0, 0, 0, 0, 0, 0, 0, 0, 0, 0, 0, 0, 0, 0, 0, 0, 0, 0, 0, 0, 0, 0, 0, 0, 0, 0, 0, 0, 0, 0, 0, 0, 0, 0, 0, 0, 0, 0, 0, 0, 0, 0, 0, 0, 0, 0, 0, 0, 0, 0, 202, 0, 0, 0, 0, 0, 0, 0, 0, 0, 0, 0, 0, 0, 0, 0, 0, 0, 0, 0, 0, 0, 0, 0, 0, 0, 0, 0, 0, 0, 0, 0, 0, 0, 0, 0, 0, 0, 0, 0, 0, 0, 0, 0, 0, 0, 0, 0, 0, 0, 0, 0, 0, 0, 0, 0, 0, 0, 0, 0, 0, 0, 0, 0, 0, 0, 0, 0, 202, 0, 0, 0, 0, 0, 0, 0, 0, 0, 0, 0, 0, 0, 0, 0, 0, 0, 0, 0, 0, 0, 0, 0, 0, 0, 0, 0, 0, 0, 0, 0, 0, 0, 0, 0, 0, 0, 0, 0, 0, 0, 0, 0, 0, 0, 0, 0, 0, 0, 0, 0, 0, 0, 0, 0, 0, 0, 0, 0, 0, 0, 0, 0, 0, 0, 0, 0, 0, 0, 0, 0, 0, 0, 0, 0, 0, 0, 0, 0, 0, 0, 0, 0, 0, 0, 0, 0, 0, 0, 0, 0, 0, 0, 0, 0, 0, 0, 0, 0, 0, 0, 0, 0, 0, 0, 0, 0, 0, 0, 0, 0, 0, 0, 0, 0, 0, 0, 0, 0, 0, 0, 0, 0, 0, 0, 0, 0, 0, 0, 0, 0, 0, 0, 0, 0, 0, 0, 0, 0, 0, 0, 0, 0, 0, 0, 0, 0, 0, 0, 0, 0, 0, 0, 0, 0, 0, 0, 0, 0, 0, 0, 0, 0, 0, 0, 0, 0, 0, 0, 0, 0, 0, 0, 0, 0, 0, 0, 0, 0, 0, 0, 0, 0, 0, 0, 0, 0, 0, 0, 0, 0, 0, 0, 0, 0, 0, 0, 0, 0, 0, 0, 0, 0, 0, 0, 0, 0, 0, 0, 0, 0, 0, 0, 0, 0, 0, 0, 0, 0, 0, 0, 0, 0, 0, 0, 0, 0, 0, 0, 0, 0, 0, 0, 0, 0, 0, 0, 0, 0, 0, 0, 0, 0, 0, 0, 0, 0, 0, 0, 0, 0, 0, 0, 0, 0, 0, 0, 0, 202, 0, 0, 0, 0, 0, 0, 0, 0, 0, 0, 0, 0, 0, 0, 0, 0, 202, 0, 0, 0, 0, 0, 0, 0, 0, 0, 0, 0, 202, 0, 0, 0, 0, 0, 0, 0, 0, 0, 0, 0, 0, 0, 0, 0, 0, 0, 0, 0, 0, 0, 0, 0, 0, 0, 0, 0, 0, 0, 0, 0, 0, 0, 0, 0, 0, 0, 0, 0, 0, 0, 0, 0, 0, 0, 0, 0, 0, 0, 0, 0, 0, 0, 0, 0, 0, 0, 0, 0, 202, 0, 0, 0, 0, 0, 0, 0, 0, 0, 0, 0, 0, 0, 0, 0, 0, 0, 0, 0, 0, 0, 0, 0, 0, 0, 0, 0, 0, 0, 0, 0, 0, 0, 0, 0, 0, 0, 0, 0, 0, 0, 0, 0, 0, 0, 0, 0, 0, 0, 0, 0, 0, 0, 0, 0, 0, 0, 0, 0, 0, 0, 0, 0, 0, 0, 0, 0, 0, 0, 0, 0, 0, 0, 0, 0, 0, 202, 0, 0, 0, 0, 0, 0, 0, 0, 0, 0, 0, 0, 0, 0, 0, 0, 0, 0, 0, 0, 0, 0, 0, 0, 0, 0, 0, 0, 0, 0, 0, 0, 0, 0, 0, 0, 0, 0, 0, 0, 0, 0, 0, 0, 0, 0, 0, 0, 0, 0, 0, 0, 0, 0, 0, 0, 0, 0, 0, 0, 0, 0, 0, 0, 0, 0, 0, 0, 0, 0, 0, 0, 0, 0, 0, 0, 0, 0, 0, 0, 0, 0, 0, 0, 0, 0, 0, 0, 0, 0, 0, 0, 0, 0, 0, 0, 0, 0, 0, 0, 0, 0, 0, 0, 0, 0, 0, 0, 0, 0, 0, 0, 0, 0, 0, 0, 0, 0, 0, 0, 0, 0, 0, 0, 0, 0, 0, 0, 0, 0, 0, 0, 0, 0, 0, 0, 0, 0, 0, 0, 0, 0, 0, 0, 0, 0, 0, 0, 0, 0, 0, 0, 0, 0, 0, 0, 0, 0, 0, 0, 0, 0, 0, 0, 0, 0, 0, 0, 0, 0, 0, 0, 0, 0, 0, 0, 0, 0, 0, 0, 0, 0, 0, 0, 0, 0, 0, 0, 0, 0, 0, 0, 0, 0, 0, 0, 0, 0, 0, 0, 0, 0, 0, 0, 0, 0, 0, 0, 0, 0, 0, 0, 0, 0, 0, 0, 0, 0, 0, 0, 0, 0, 0, 0, 0, 0, 0, 0, 0, 0, 0, 0, 0, 0, 0, 0, 202, 0, 0, 0, 0, 0, 202, 0, 0, 0, 0, 0, 0, 0, 0, 0, 0, 0, 0, 0, 0, 0, 0, 0, 0, 0, 0, 0, 0, 0, 0, 0, 0, 0, 0, 0, 0, 0, 0, 0, 0, 0, 0, 0, 0, 0, 0, 0, 0, 0, 0, 0, 0, 0, 0, 0, 0, 0, 0, 0, 0, 0, 0, 0, 0, 0, 0, 0, 0, 0, 0, 0, 0, 0, 0, 0, 0, 0, 0, 0, 0, 0, 0, 0, 0, 0, 0, 0, 0, 0, 0, 0, 0, 0, 0, 0, 0, 0, 0, 0, 0, 0, 0, 0, 0, 0, 0, 0, 0, 0, 0, 0, 0, 0, 0, 0, 0, 0, 0, 0, 0, 0, 0, 0, 0, 0, 0, 0, 0, 0, 0, 0, 0, 0, 0, 0, 0, 0, 0, 0, 0, 0, 0, 0, 0, 0, 0, 0, 0, 0, 0, 0, 0, 0, 0, 0, 0, 0, 0, 0, 0, 0, 0, 0, 0, 0, 0, 0, 0, 0, 0, 0, 0, 0, 0, 0, 0, 0, 0, 0, 0, 0, 0, 0, 0, 0, 0, 0, 0, 0, 0, 0, 0, 0, 0, 0, 0, 0, 0, 0, 0, 0, 0, 0, 0, 0, 0, 0, 0, 0, 0, 0, 0, 0, 0, 0, 0, 0, 0, 0, 0, 0, 0, 0, 0, 0, 0, 0, 0, 0, 0, 0, 0, 0, 0, 0, 0, 0, 0, 0, 0, 0, 0, 0, 0, 0, 0, 0, 0, 0, 0, 0, 0, 0, 0, 0, 0, 0, 0, 0, 0, 0, 0, 0, 0, 0, 0, 0, 0, 0, 0, 0, 0, 0, 0, 0, 0, 0, 0, 0, 0, 0, 0, 0, 0, 0, 0, 0, 0, 0, 0, 0, 0, 0, 0, 0, 0, 0, 0, 0, 0, 0, 0, 0, 0, 0, 0, 0, 0, 0, 0, 0, 0, 0, 0, 0, 0, 0, 0, 0, 0, 0, 0, 202, 0, 0, 0, 0, 0, 0, 0, 0, 0, 0, 0, 0, 0, 0, 0, 0, 0, 202, 0, 0, 0, 0, 0, 0, 0, 0, 0, 0, 0, 0, 0, 0, 0, 0, 0, 0, 0, 0, 0, 0, 0, 0, 0, 0, 0, 0, 0, 0, 0, 0, 0, 0, 0, 0, 0, 0, 0, 0, 0, 0, 0, 0, 0, 0, 0, 0, 0, 0, 0, 0, 0, 0, 0, 0, 0, 0, 0, 0, 0, 0, 0, 0, 0, 0, 0, 0, 0, 0, 0, 0, 0, 0, 0, 0, 0, 0, 0, 0, 0, 0, 0, 0, 0, 0, 0, 0, 0, 0, 0, 0, 0, 0, 0, 0, 0, 0, 0, 0, 0, 0, 0, 0, 0, 0, 0, 0, 0, 0, 0, 0, 0, 0, 0, 0, 0, 0, 0, 0, 0, 0, 0, 0, 0, 0, 0, 0, 0, 0, 0, 0, 0, 0, 0, 0, 0, 0, 0, 0, 0, 0, 0, 0, 0, 0, 0, 0, 0, 0, 0, 0, 0, 0, 0, 0, 0, 0, 0, 202, 0, 0, 0, 0, 0, 0, 0, 0, 0, 0, 0, 0, 0, 0, 0, 0, 0, 0, 0, 0, 0, 0, 0, 0, 0, 0, 0, 0, 0, 0, 0, 0, 0, 0, 0, 0, 0, 0, 0, 0, 0, 0, 0, 0, 0, 0, 0, 0, 0, 0, 0, 0, 0, 0, 0, 0, 0, 0, 0, 0, 0, 0, 0, 0, 0, 0, 0, 0, 0, 0, 0, 0, 0, 0, 0, 0, 0, 0, 0, 0, 0, 0, 0, 0, 0, 0, 0, 0, 0, 0, 0, 0, 0, 0, 0, 0, 0, 0, 0, 0, 0, 0, 0, 0, 0, 0, 0, 0, 0, 0, 0, 0, 0, 0, 0, 0, 0, 0, 0, 202, 0, 0, 0, 0, 0, 0, 0, 0, 0, 0, 0, 0, 0, 0, 0, 0, 0, 0, 0, 0, 0, 0, 0, 0, 0, 0, 0, 0, 0, 0, 0, 0, 0, 0, 0, 0, 0, 0, 0, 0, 0, 0, 0, 0, 0, 0, 0, 0, 0, 0, 0, 0, 0, 0, 0, 0, 0, 0, 0, 0, 0, 0, 0, 0, 0, 0, 0, 0, 0, 0, 0, 0, 0, 0, 0, 0, 0, 0, 0, 0, 0, 0, 0, 0, 0, 0, 0, 0, 0, 0, 0, 0, 0, 0, 0, 0, 0, 0, 0, 0, 0, 0, 0, 0, 0, 0, 0, 0, 0, 0, 0, 0, 0, 0, 0, 0, 0, 0, 0, 0, 0, 0, 0, 0, 0, 0, 0, 0, 0, 0, 0, 0, 0, 0, 0, 0, 0, 0, 0, 0, 0, 0, 0, 0, 0, 0, 0, 0, 0, 0, 0, 0, 0, 0, 0, 0, 0, 0, 0, 0, 0, 0, 0, 0, 0, 0, 0, 0, 0, 0, 0, 0, 0, 0, 0, 0, 0, 0, 0, 0, 0, 0, 0, 0, 0, 0, 0, 0, 0, 0, 0, 0, 0, 0, 0, 0, 0, 0, 0, 0, 0, 0, 0, 0, 0, 0, 0, 202, 0, 0, 0, 0, 0, 0, 0, 0, 0, 0, 0, 0, 0, 0, 0, 0, 0, 0, 0, 0, 0, 0, 0, 0, 0, 0, 0, 0, 0, 0, 0, 0, 0, 0, 0, 0, 0, 0, 0, 0, 0, 0, 0, 0, 0, 0, 0, 0, 0, 0, 0, 0, 0, 0, 0, 0, 0, 0, 0, 0, 0, 0, 0, 0, 0, 0, 0, 0, 0, 0, 0, 0, 0, 0, 0, 0, 0, 0, 0, 0, 0, 0, 0, 0, 0, 0, 0, 0, 0, 0, 0, 0, 0, 0, 0, 0, 0, 0, 0, 0, 0, 0, 0, 0, 0, 0, 0, 0, 0, 0, 0, 0, 0, 0, 0, 0, 0, 0, 0, 0, 0, 0, 0, 0, 0, 0, 0, 0, 0, 0, 0, 0, 0, 0, 0, 0, 0, 0, 0, 0, 0, 0, 0, 0, 0, 0, 0, 0, 0, 0, 0, 0, 0, 0, 0, 0, 0, 0, 0, 0, 0, 0, 0, 0, 0, 0, 0, 0, 0, 0, 0, 0, 0, 0, 0, 0, 0, 0, 0, 0, 0, 0, 0, 0, 0, 0, 0, 0, 0, 0, 0, 0, 0, 0, 0, 0, 0, 0, 0, 0, 0, 0, 0, 0, 0, 0, 0, 0, 0, 0, 0, 0, 0, 0, 0, 0, 0, 0, 0, 0, 0, 0, 0, 0, 0, 0, 0, 0, 0, 0, 0, 0, 0, 0, 0, 0, 0, 0, 0, 0, 0, 0, 0, 0, 0, 0, 0, 0, 0, 0, 0, 0, 0, 0, 202, 0, 0, 0, 0, 0, 0, 0, 0, 0, 0, 0, 0, 0, 0, 0, 0, 0, 0, 0, 202, 0, 0, 0, 0, 0, 0, 0, 0, 0, 0, 0, 0, 0, 0, 0, 0, 0, 0, 0, 0, 0, 0, 0, 0, 0, 845, 0, 0, 0, 0, 0, 0, 0, 0, 0, 0, 0, 0, 0, 0, 0, 0, 0, 0, 0, 0, 0, 0, 0, 0, 0, 0, 0, 0, 0, 0, 0, 0, 0, 0, 0, 0, 0, 0, 0, 0, 0, 0, 0, 0, 0, 0, 0, 0],
         "height":48,
         "name":"decals",
         "opacity":1,
         "type":"tilelayer",
         "visible":true,
         "width":48,
         "x":0,
         "y":0
        }, 
        {
         "draworder":"topdown",
         "height":24,
         "name":"warps",
         "objects":[
                {
                 "gid":903,
                 "height":0,
                 "name":"to_southern_conduit",
                 "properties":
                    {
                     "map":"southern_conduit",
                     "x":"12",
                     "y":"22"
                    },
                 "rotation":0,
                 "type":"warp",
                 "visible":true,
                 "width":0,
                 "x":32,
                 "y":64
                }, 
                {
                 "gid":903,
                 "height":0,
                 "name":"to_lab_exterior",
                 "properties":
                    {
                     "map":"lab_exterior",
                     "x":"6",
                     "y":"4"
                    },
                 "rotation":0,
                 "type":"warp",
                 "visible":true,
                 "width":0,
                 "x":1472,
                 "y":1536
                }],
         "opacity":1,
         "type":"objectgroup",
         "visible":true,
         "width":96,
         "x":0,
         "y":0
        }, 
        {
         "draworder":"topdown",
         "height":24,
         "name":"lights",
         "objects":[
                {
                 "ellipse":true,
                 "height":480,
                 "name":"light1",
                 "properties":
                    {
                     "exponent":"2.5"
                    },
                 "rotation":0,
                 "type":"light",
                 "visible":true,
                 "width":480,
                 "x":-192,
                 "y":-224
                }, 
                {
                 "ellipse":true,
                 "height":480,
                 "name":"light2",
                 "properties":
                    {
                     "exponent":"2.5"
                    },
                 "rotation":0,
                 "type":"light",
                 "visible":true,
                 "width":480,
                 "x":1280,
                 "y":1248
                }],
         "opacity":1,
         "type":"objectgroup",
         "visible":true,
         "width":96,
         "x":0,
         "y":0
        }, 
        {
         "draworder":"topdown",
         "height":24,
         "name":"triggers",
         "objects":[
                {
                 "gid":903,
                 "height":0,
                 "name":"objective_8_point_5",
                 "properties":
                    {
                     "dialog":"entering_cave.dlg",
                     "name":"enter_cave",
                     "order":"85",
                     "quest":"main",
                     "title":"Enter the cave south of town"
                    },
                 "rotation":0,
                 "type":"objective",
                 "visible":true,
                 "width":0,
                 "x":32,
                 "y":96
                }],
         "opacity":1,
         "type":"objectgroup",
         "visible":true,
         "width":96,
         "x":0,
         "y":0
        }, 
        {
         "draworder":"topdown",
         "height":24,
         "name":"doors",
         "objects":[
                {
                 "gid":895,
                 "height":0,
                 "name":"door1",
                 "properties":
                    {
                     "direction":"up",
                     "width":"1"
                    },
                 "rotation":0,
                 "type":"",
                 "visible":true,
                 "width":0,
                 "x":32,
                 "y":352
                }, 
                {
                 "gid":879,
                 "height":0,
                 "name":"door2",
                 "properties":
                    {
                     "direction":"down",
                     "width":"1"
                    },
                 "rotation":0,
                 "type":"",
                 "visible":true,
                 "width":0,
                 "x":1472,
                 "y":1536
                }, 
                {
                 "gid":879,
                 "height":0,
                 "name":"door3",
                 "properties":
                    {
                     "direction":"down",
                     "security":"4",
                     "width":"1"
                    },
                 "rotation":0,
                 "type":"",
                 "visible":true,
                 "width":0,
                 "x":1184,
                 "y":1216
                }],
         "opacity":1,
         "type":"objectgroup",
         "visible":true,
         "width":96,
         "x":0,
         "y":0
        }, 
        {
         "draworder":"topdown",
         "height":48,
         "name":"npcs",
         "objects":[
                {
                 "gid":904,
                 "height":0,
                 "name":"guard1",
                 "properties":
                    {
                     "color":"191,127,63",
                     "light_color":"255,255,127",
                     "waypoints":"g1a,g1b,g1c,g1d,g1e,g1f"
                    },
                 "rotation":0,
                 "type":"guard",
                 "visible":true,
                 "width":0,
                 "x":160,
                 "y":736
                }, 
                {
                 "gid":904,
                 "height":0,
                 "name":"guard2",
                 "properties":
                    {
                     "color":"191,127,63",
                     "light_color":"255,255,127",
                     "waypoints":"g2a,g2b,g2c,g2d,g2e,g2f,g2g,g2h,g2i,g2j"
                    },
                 "rotation":0,
                 "type":"guard",
                 "visible":true,
                 "width":0,
                 "x":128,
                 "y":1408
                }, 
                {
                 "gid":904,
                 "height":0,
                 "name":"guard3",
                 "properties":
                    {
                     "color":"191,127,63",
                     "light_color":"255,255,127",
                     "waypoints":"g3a,g3b,g3c,g3d,g3e,g3f,g3g,g3h,g3i,g3j,g3k"
                    },
                 "rotation":0,
                 "type":"guard",
                 "visible":true,
                 "width":0,
                 "x":896,
                 "y":896
                }, 
                {
                 "gid":904,
                 "height":0,
                 "name":"guard4",
                 "properties":
                    {
                     "color":"191,127,63",
                     "light_color":"255,255,127",
                     "waypoints":"g4a,g4b,g4c,g4d,g4e,g4f,g4g,g4h,g4i,g4j,g4k,g4l"
                    },
                 "rotation":0,
                 "type":"guard",
                 "visible":true,
                 "width":0,
                 "x":768,
                 "y":288
                }, 
                {
                 "gid":904,
                 "height":0,
                 "name":"guard5",
                 "properties":
                    {
                     "color":"191,127,63",
                     "light_color":"255,255,127",
                     "waypoints":"g5a,g5b,g5c,g5d"
                    },
                 "rotation":0,
                 "type":"guard",
                 "visible":true,
                 "width":0,
                 "x":992,
                 "y":512
                }, 
                {
                 "gid":904,
                 "height":0,
                 "name":"guard6",
                 "properties":
                    {
                     "color":"191,127,63",
                     "light_color":"255,255,127",
                     "waypoints":"g6a,g6b,g6c,g6d,g6e,g6f,g6g,g6h,g6i,g6j,g6k,g6l,g6m"
                    },
                 "rotation":0,
                 "type":"guard",
                 "visible":true,
                 "width":0,
                 "x":1344,
                 "y":1088
                }],
         "opacity":1,
         "type":"objectgroup",
         "visible":true,
         "width":48,
         "x":0,
         "y":0
        }, 
        {
         "draworder":"topdown",
         "height":48,
         "name":"waypoints",
         "objects":[
                {
                 "gid":903,
                 "height":0,
                 "name":"g1a",
                 "properties":
                    {
                     "behavior":"continue",
                     "direction":"right"
                    },
                 "rotation":0,
                 "type":"",
                 "visible":true,
                 "width":0,
                 "x":160,
                 "y":736
                }, 
                {
                 "gid":903,
                 "height":0,
                 "name":"g1b",
                 "properties":
                    {
                     "behavior":"continue",
                     "direction":"up"
                    },
                 "rotation":0,
                 "type":"",
                 "visible":true,
                 "width":0,
                 "x":512,
                 "y":736
                }, 
                {
                 "gid":903,
                 "height":0,
                 "name":"g1c",
                 "properties":
                    {
                     "behavior":"continue",
                     "direction":"left"
                    },
                 "rotation":0,
                 "type":"",
                 "visible":true,
                 "width":0,
                 "x":512,
                 "y":512
                }, 
                {
                 "gid":903,
                 "height":0,
                 "name":"g1d",
                 "properties":
                    {
                     "behavior":"continue",
                     "direction":"down"
                    },
                 "rotation":0,
                 "type":"",
                 "visible":true,
                 "width":0,
                 "x":416,
                 "y":512
                }, 
                {
                 "gid":903,
                 "height":0,
                 "name":"g1e",
                 "properties":
                    {
                     "behavior":"continue",
                     "direction":"left"
                    },
                 "rotation":0,
                 "type":"",
                 "visible":true,
                 "width":0,
                 "x":416,
                 "y":576
                }, 
                {
                 "gid":903,
                 "height":0,
                 "name":"g1f",
                 "properties":
                    {
                     "behavior":"continue",
                     "direction":"down"
                    },
                 "rotation":0,
                 "type":"",
                 "visible":true,
                 "width":0,
                 "x":160,
                 "y":576
                }, 
                {
                 "gid":903,
                 "height":0,
                 "name":"g2a",
                 "properties":
                    {
                     "behavior":"wait",
                     "direction":"right"
                    },
                 "rotation":0,
                 "type":"",
                 "visible":true,
                 "width":0,
                 "x":128,
                 "y":1408
                }, 
                {
                 "gid":903,
                 "height":0,
                 "name":"g2b",
                 "properties":
                    {
                     "behavior":"continue",
                     "direction":"down"
                    },
                 "rotation":0,
                 "type":"",
                 "visible":true,
                 "width":0,
                 "x":320,
                 "y":1408
                }, 
                {
                 "gid":903,
                 "height":0,
                 "name":"g2c",
                 "properties":
                    {
                     "behavior":"continue",
                     "direction":"left"
                    },
                 "rotation":0,
                 "type":"",
                 "visible":true,
                 "width":0,
                 "x":320,
                 "y":1504
                }, 
                {
                 "gid":903,
                 "height":0,
                 "name":"g2d",
                 "properties":
                    {
                     "behavior":"continue",
                     "direction":"up"
                    },
                 "rotation":0,
                 "type":"",
                 "visible":true,
                 "width":0,
                 "x":32,
                 "y":1504
                }, 
                {
                 "gid":903,
                 "height":0,
                 "name":"g2e",
                 "properties":
                    {
                     "behavior":"wait",
                     "direction":"down"
                    },
                 "rotation":0,
                 "type":"",
                 "visible":true,
                 "width":0,
                 "x":32,
                 "y":800
                }, 
                {
                 "gid":903,
                 "height":0,
                 "name":"g2f",
                 "properties":
                    {
                     "behavior":"continue",
                     "direction":"right"
                    },
                 "rotation":0,
                 "type":"",
                 "visible":true,
                 "width":0,
                 "x":32,
                 "y":1088
                }, 
                {
                 "gid":903,
                 "height":0,
                 "name":"g2g",
                 "properties":
                    {
                     "behavior":"continue",
                     "direction":"down"
                    },
                 "rotation":0,
                 "type":"",
                 "visible":true,
                 "width":0,
                 "x":160,
                 "y":1088
                }, 
                {
                 "gid":903,
                 "height":0,
                 "name":"g2h",
                 "properties":
                    {
                     "behavior":"continue",
                     "direction":"right"
                    },
                 "rotation":0,
                 "type":"",
                 "visible":true,
                 "width":0,
                 "x":160,
                 "y":1312
                }, 
                {
                 "gid":903,
                 "height":0,
                 "name":"g2i",
                 "properties":
                    {
                     "behavior":"continue",
                     "direction":"down"
                    },
                 "rotation":0,
                 "type":"",
                 "visible":true,
                 "width":0,
                 "x":320,
                 "y":1312
                }, 
                {
                 "gid":903,
                 "height":0,
                 "name":"g2j",
                 "properties":
                    {
                     "behavior":"continue",
                     "direction":"left"
                    },
                 "rotation":0,
                 "type":"",
                 "visible":true,
                 "width":0,
                 "x":320,
                 "y":1408
                }, 
                {
                 "gid":903,
                 "height":0,
                 "name":"g3a",
                 "properties":
                    {
                     "behavior":"continue",
                     "direction":"left"
                    },
                 "rotation":0,
                 "type":"",
                 "visible":true,
                 "width":0,
                 "x":896,
                 "y":896
                }, 
                {
                 "gid":903,
                 "height":0,
                 "name":"g3b",
                 "properties":
                    {
                     "behavior":"continue",
                     "direction":"down"
                    },
                 "rotation":0,
                 "type":"",
                 "visible":true,
                 "width":0,
                 "x":448,
                 "y":896
                }, 
                {
                 "gid":903,
                 "height":0,
                 "name":"g3c",
                 "properties":
                    {
                     "behavior":"continue",
                     "direction":"right"
                    },
                 "rotation":0,
                 "type":"",
                 "visible":true,
                 "width":0,
                 "x":448,
                 "y":1088
                }, 
                {
                 "gid":903,
                 "height":0,
                 "name":"g3d",
                 "properties":
                    {
                     "behavior":"continue",
                     "direction":"down"
                    },
                 "rotation":0,
                 "type":"",
                 "visible":true,
                 "width":0,
                 "x":672,
                 "y":1088
                }, 
                {
                 "gid":903,
                 "height":0,
                 "name":"g3e",
                 "properties":
                    {
                     "behavior":"continue",
                     "direction":"right"
                    },
                 "rotation":0,
                 "type":"",
                 "visible":true,
                 "width":0,
                 "x":672,
                 "y":1504
                }, 
                {
                 "gid":903,
                 "height":0,
                 "name":"g3f",
                 "properties":
                    {
                     "behavior":"wait",
                     "direction":"left"
                    },
                 "rotation":0,
                 "type":"",
                 "visible":true,
                 "width":0,
                 "x":1184,
                 "y":1504
                }, 
                {
                 "gid":903,
                 "height":0,
                 "name":"g3g",
                 "properties":
                    {
                     "behavior":"continue",
                     "direction":"up"
                    },
                 "rotation":0,
                 "type":"",
                 "visible":true,
                 "width":0,
                 "x":448,
                 "y":1504
                }, 
                {
                 "gid":903,
                 "height":0,
                 "name":"g3h",
                 "properties":
                    {
                     "behavior":"continue",
                     "direction":"right"
                    },
                 "rotation":0,
                 "type":"",
                 "visible":true,
                 "width":0,
                 "x":448,
                 "y":992
                }, 
                {
                 "gid":903,
                 "height":0,
                 "name":"g3i",
                 "properties":
                    {
                     "behavior":"continue",
                     "direction":"down"
                    },
                 "rotation":0,
                 "type":"",
                 "visible":true,
                 "width":0,
                 "x":672,
                 "y":992
                }, 
                {
                 "gid":903,
                 "height":0,
                 "name":"g3j",
                 "properties":
                    {
                     "behavior":"continue",
                     "direction":"right"
                    },
                 "rotation":0,
                 "type":"",
                 "visible":true,
                 "width":0,
                 "x":672,
                 "y":1088
                }, 
                {
                 "gid":903,
                 "height":0,
                 "name":"g3k",
                 "properties":
                    {
                     "behavior":"continue",
                     "direction":"up"
                    },
                 "rotation":0,
                 "type":"",
                 "visible":true,
                 "width":0,
                 "x":896,
                 "y":1088
                }, 
                {
                 "gid":903,
                 "height":0,
                 "name":"g4a",
                 "properties":
                    {
                     "behavior":"wait",
                     "direction":"left"
                    },
                 "rotation":0,
                 "type":"",
                 "visible":true,
                 "width":0,
                 "x":768,
                 "y":288
                }, 
                {
                 "gid":903,
                 "height":0,
                 "name":"g4b",
                 "properties":
                    {
                     "behavior":"continue",
                     "direction":"down"
                    },
                 "rotation":0,
                 "type":"",
                 "visible":true,
                 "width":0,
                 "x":608,
                 "y":288
                }, 
                {
                 "gid":903,
                 "height":0,
                 "name":"g4c",
                 "properties":
                    {
                     "behavior":"continue",
                     "direction":"right"
                    },
                 "rotation":0,
                 "type":"",
                 "visible":true,
                 "width":0,
                 "x":608,
                 "y":416
                }, 
                {
                 "gid":903,
                 "height":0,
                 "name":"g4d",
                 "properties":
                    {
                     "behavior":"continue",
                     "direction":"up"
                    },
                 "rotation":0,
                 "type":"",
                 "visible":true,
                 "width":0,
                 "x":1280,
                 "y":416
                }, 
                {
                 "gid":903,
                 "height":0,
                 "name":"g4e",
                 "properties":
                    {
                     "behavior":"continue",
                     "direction":"left"
                    },
                 "rotation":0,
                 "type":"",
                 "visible":true,
                 "width":0,
                 "x":1280,
                 "y":288
                }, 
                {
                 "gid":903,
                 "height":0,
                 "name":"g4f",
                 "properties":
                    {
                     "behavior":"continue",
                     "direction":"right"
                    },
                 "rotation":0,
                 "type":"",
                 "visible":true,
                 "width":0,
                 "x":1152,
                 "y":288
                }, 
                {
                 "gid":903,
                 "height":0,
                 "name":"g4g",
                 "properties":
                    {
                     "behavior":"continue",
                     "direction":"down"
                    },
                 "rotation":0,
                 "type":"",
                 "visible":true,
                 "width":0,
                 "x":1280,
                 "y":288
                }, 
                {
                 "gid":903,
                 "height":0,
                 "name":"g4h",
                 "properties":
                    {
                     "behavior":"continue",
                     "direction":"left"
                    },
                 "rotation":0,
                 "type":"",
                 "visible":true,
                 "width":0,
                 "x":1280,
                 "y":416
                }, 
                {
                 "gid":903,
                 "height":0,
                 "name":"g4i",
                 "properties":
                    {
                     "behavior":"continue",
                     "direction":"up"
                    },
                 "rotation":0,
                 "type":"",
                 "visible":true,
                 "width":0,
                 "x":512,
                 "y":416
                }, 
                {
                 "gid":903,
                 "height":0,
                 "name":"g4j",
                 "properties":
                    {
                     "behavior":"continue",
                     "direction":"right"
                    },
                 "rotation":0,
                 "type":"",
                 "visible":true,
                 "width":0,
                 "x":512,
                 "y":256
                }, 
                {
                 "gid":903,
                 "height":0,
                 "name":"g4k",
                 "properties":
                    {
                     "behavior":"continue",
                     "direction":"down"
                    },
                 "rotation":0,
                 "type":"",
                 "visible":true,
                 "width":0,
                 "x":608,
                 "y":256
                }, 
                {
                 "gid":903,
                 "height":0,
                 "name":"g4l",
                 "properties":
                    {
                     "behavior":"continue",
                     "direction":"right"
                    },
                 "rotation":0,
                 "type":"",
                 "visible":true,
                 "width":0,
                 "x":608,
                 "y":288
                }, 
                {
                 "gid":903,
                 "height":0,
                 "name":"g5a",
                 "properties":
                    {
                     "behavior":"wait",
                     "direction":"down"
                    },
                 "rotation":0,
                 "type":"",
                 "visible":true,
                 "width":0,
                 "x":992,
                 "y":512
                }, 
                {
                 "gid":903,
                 "height":0,
                 "name":"g5b",
                 "properties":
                    {
                     "behavior":"wait",
                     "direction":"right"
                    },
                 "rotation":0,
                 "type":"",
                 "visible":true,
                 "width":0,
                 "x":992,
                 "y":1184
                }, 
                {
                 "gid":903,
                 "height":0,
                 "name":"g5c",
                 "properties":
                    {
                     "behavior":"continue",
                     "direction":"left"
                    },
                 "rotation":0,
                 "type":"",
                 "visible":true,
                 "width":0,
                 "x":1088,
                 "y":1184
                }, 
                {
                 "gid":903,
                 "height":0,
                 "name":"g5d",
                 "properties":
                    {
                     "behavior":"continue",
                     "direction":"up"
                    },
                 "rotation":0,
                 "type":"",
                 "visible":true,
                 "width":0,
                 "x":992,
                 "y":1184
                }, 
                {
                 "gid":903,
                 "height":0,
                 "name":"g6a",
                 "properties":
                    {
                     "behavior":"continue",
                     "direction":"up"
                    },
                 "rotation":0,
                 "type":"",
                 "visible":true,
                 "width":0,
                 "x":1344,
                 "y":1088
                }, 
                {
                 "gid":903,
                 "height":0,
                 "name":"g6b",
                 "properties":
                    {
                     "behavior":"continue",
                     "direction":"left"
                    },
                 "rotation":0,
                 "type":"",
                 "visible":true,
                 "width":0,
                 "x":1344,
                 "y":864
                }, 
                {
                 "gid":903,
                 "height":0,
                 "name":"g6c",
                 "properties":
                    {
                     "behavior":"continue",
                     "direction":"down"
                    },
                 "rotation":0,
                 "type":"",
                 "visible":true,
                 "width":0,
                 "x":1152,
                 "y":864
                }, 
                {
                 "gid":903,
                 "height":0,
                 "name":"g6d",
                 "properties":
                    {
                     "behavior":"continue",
                     "direction":"right"
                    },
                 "rotation":0,
                 "type":"",
                 "visible":true,
                 "width":0,
                 "x":1152,
                 "y":1088
                }, 
                {
                 "gid":903,
                 "height":0,
                 "name":"g6e",
                 "properties":
                    {
                     "behavior":"continue",
                     "direction":"up"
                    },
                 "rotation":0,
                 "type":"",
                 "visible":true,
                 "width":0,
                 "x":1248,
                 "y":1088
                }, 
                {
                 "gid":903,
                 "height":0,
                 "name":"g6f",
                 "properties":
                    {
                     "behavior":"continue",
                     "direction":"down"
                    },
                 "rotation":0,
                 "type":"",
                 "visible":true,
                 "width":0,
                 "x":1248,
                 "y":960
                }, 
                {
                 "gid":903,
                 "height":0,
                 "name":"g6g",
                 "properties":
                    {
                     "behavior":"continue",
                     "direction":"left"
                    },
                 "rotation":0,
                 "type":"",
                 "visible":true,
                 "width":0,
                 "x":1248,
                 "y":1088
                }, 
                {
                 "gid":903,
                 "height":0,
                 "name":"g6h",
                 "properties":
                    {
                     "behavior":"continue",
                     "direction":"up"
                    },
                 "rotation":0,
                 "type":"",
                 "visible":true,
                 "width":0,
                 "x":1152,
                 "y":1088
                }, 
                {
                 "gid":903,
                 "height":0,
                 "name":"g6i",
                 "properties":
                    {
                     "behavior":"continue",
                     "direction":"right"
                    },
                 "rotation":0,
                 "type":"",
                 "visible":true,
                 "width":0,
                 "x":1152,
                 "y":864
                }, 
                {
                 "gid":903,
                 "height":0,
                 "name":"g6j",
                 "properties":
                    {
                     "behavior":"continue",
                     "direction":"up"
                    },
                 "rotation":0,
                 "type":"",
                 "visible":true,
                 "width":0,
                 "x":1280,
                 "y":864
                }, 
                {
                 "gid":903,
                 "height":0,
                 "name":"g6k",
                 "properties":
                    {
                     "behavior":"wait",
                     "direction":"down"
                    },
                 "rotation":0,
                 "type":"",
                 "visible":true,
                 "width":0,
                 "x":1280,
                 "y":736
                }, 
                {
                 "gid":903,
                 "height":0,
                 "name":"g6l",
                 "properties":
                    {
                     "behavior":"continue",
                     "direction":"right"
                    },
                 "rotation":0,
                 "type":"",
                 "visible":true,
                 "width":0,
                 "x":1280,
                 "y":864
                }, 
                {
                 "gid":903,
                 "height":0,
                 "name":"g6m",
                 "properties":
                    {
                     "behavior":"continue",
                     "direction":"down"
                    },
                 "rotation":0,
                 "type":"",
                 "visible":true,
                 "width":0,
                 "x":1344,
                 "y":864
                }],
         "opacity":1,
         "type":"objectgroup",
         "visible":true,
         "width":48,
         "x":0,
         "y":0
        }, 
        {
         "draworder":"topdown",
         "height":48,
         "name":"items",
         "objects":[
                {
                 "gid":877,
                 "height":0,
                 "name":"silver",
                 "properties":
                    {

                    },
                 "rotation":0,
                 "type":"silver",
                 "visible":true,
                 "width":0,
                 "x":64,
                 "y":512
                }, 
                {
                 "gid":877,
                 "height":0,
                 "name":"silver",
                 "properties":
                    {

                    },
                 "rotation":0,
                 "type":"silver",
                 "visible":true,
                 "width":0,
                 "x":1088,
                 "y":1312
                }, 
                {
                 "gid":877,
                 "height":0,
                 "name":"silver",
                 "properties":
                    {

                    },
                 "rotation":0,
                 "type":"silver",
                 "visible":true,
                 "width":0,
                 "x":960,
                 "y":224
                }, 
                {
                 "gid":877,
                 "height":0,
                 "name":"silver",
                 "properties":
                    {

                    },
                 "rotation":0,
                 "type":"silver",
                 "visible":true,
                 "width":0,
                 "x":384,
                 "y":832
                }, 
                {
                 "gid":877,
                 "height":0,
                 "name":"silver",
                 "properties":
                    {

                    },
                 "rotation":0,
                 "type":"silver",
                 "visible":true,
                 "width":0,
                 "x":1248,
                 "y":960
                }],
         "opacity":1,
         "type":"objectgroup",
         "visible":true,
         "width":48,
         "x":0,
         "y":0
        }],
 "orientation":"orthogonal",
 "properties":
    {
     "ambience":"0.03,0.03,0.05",
     "soundtrack":"dark"
    },
 "renderorder":"left-up",
 "tileheight":32,
 "tilesets":[
        {
         "firstgid":1,
         "image":"..\/..\/sprites\/owlishmedia_pixel_tiles.png",
         "imageheight":800,
         "imagewidth":448,
         "margin":0,
         "name":"owlishmedia_pixel_tiles",
         "properties":
            {

            },
         "spacing":0,
         "tileheight":32,
         "tilewidth":32
        }, 
        {
         "firstgid":351,
         "image":"..\/..\/sprites\/tileset_51.png",
         "imageheight":512,
         "imagewidth":1024,
         "margin":0,
         "name":"tileset_51",
         "properties":
            {

            },
         "spacing":0,
         "tileheight":32,
         "tilewidth":32
        }, 
        {
         "firstgid":863,
         "image":"..\/..\/sprites\/common.png",
         "imageheight":256,
         "imagewidth":256,
         "margin":0,
         "name":"common",
         "properties":
            {

            },
         "spacing":0,
         "tileheight":32,
         "tilewidth":32
        }],
 "tilewidth":32,
 "version":1,
 "width":48
}