{ "height":10,
 "layers":[
        {
         "data":[289, 289, 289, 289, 289, 289, 289, 289, 289, 289, 289, 289, 289, 289, 289, 289, 289, 289, 289, 289, 289, 289, 289, 289, 289, 289, 289, 289, 289, 289, 289, 289, 289, 289, 289, 289, 289, 289, 289, 289, 289, 289, 289, 289, 289, 289, 289, 289, 289, 289, 289, 289, 289, 289, 289, 289, 289, 289, 289, 289, 0, 0, 0, 0, 0, 289, 289, 289, 289, 289, 0, 0, 0, 0, 0, 289, 289, 289, 289, 289, 0, 0, 0, 0, 0, 289, 289, 289, 289, 289, 0, 0, 0, 0, 0, 289, 289, 289, 289, 289],
         "height":10,
         "name":"floor",
         "opacity":1,
         "type":"tilelayer",
         "visible":true,
         "width":10,
         "x":0,
         "y":0
        }, 
        {
         "data":[93, 93, 93, 93, 93, 93, 93, 93, 93, 93, 125, 157, 157, 157, 157, 157, 157, 157, 157, 125, 125, 0, 0, 0, 0, 0, 0, 0, 0, 125, 125, 0, 0, 0, 0, 0, 0, 0, 0, 125, 125, 0, 0, 0, 0, 0, 0, 0, 0, 125, 157, 157, 0, 157, 157, 125, 0, 0, 0, 125, 0, 0, 0, 0, 0, 125, 0, 0, 0, 125, 0, 0, 0, 0, 0, 125, 0, 0, 0, 125, 0, 0, 0, 0, 0, 125, 0, 0, 0, 125, 0, 0, 0, 0, 0, 157, 0, 0, 157, 157],
         "height":10,
         "name":"walls",
         "opacity":1,
         "type":"tilelayer",
         "visible":true,
         "width":10,
         "x":0,
         "y":0
        }, 
        {
         "data":[0, 0, 0, 0, 0, 0, 0, 495, 0, 0, 0, 0, 0, 0, 0, 0, 0, 0, 0, 0, 0, 0, 0, 0, 0, 0, 0, 0, 0, 0, 0, 0, 0, 0, 0, 0, 0, 0, 0, 0, 0, 0, 0, 0, 0, 0, 0, 0, 0, 0, 0, 0, 0, 0, 0, 0, 0, 0, 0, 0, 0, 0, 0, 0, 0, 0, 0, 0, 0, 0, 0, 0, 0, 0, 0, 0, 0, 0, 0, 0, 0, 0, 0, 0, 0, 0, 0, 0, 0, 0, 0, 0, 0, 0, 0, 0, 0, 0, 0, 0],
         "height":10,
         "name":"decals",
         "opacity":1,
         "type":"tilelayer",
         "visible":true,
         "width":10,
         "x":0,
         "y":0
        }, 
        {
         "draworder":"topdown",
         "height":10,
         "name":"doors",
         "objects":[
                {
                 "gid":530,
                 "height":0,
                 "name":"door1",
                 "properties":
                    {
                     "direction":"down",
                     "width":"2"
                    },
                 "rotation":0,
                 "type":"door",
                 "visible":true,
                 "width":0,
                 "x":192,
                 "y":320
                }, 
                {
                 "gid":529,
                 "height":0,
                 "name":"lockeddoor",
                 "properties":
                    {
                     "direction":"down",
                     "locked":"True",
                     "width":"1"
                    },
                 "rotation":0,
                 "type":"door",
                 "visible":true,
                 "width":0,
                 "x":64,
                 "y":192
                }],
         "opacity":1,
         "type":"objectgroup",
         "visible":true,
         "width":10,
         "x":0,
         "y":0
        }, 
        {
         "draworder":"topdown",
         "height":10,
         "name":"warps",
         "objects":[
                {
                 "gid":553,
                 "height":0,
                 "name":"warp1",
                 "properties":
                    {
                     "map":"5",
                     "x":"2",
                     "y":"2"
                    },
                 "rotation":0,
                 "type":"warp",
                 "visible":true,
                 "width":0,
                 "x":192,
                 "y":320
                }, 
                {
                 "gid":553,
                 "height":0,
                 "name":"warp2",
                 "properties":
                    {
                     "map":"5",
                     "x":"3",
                     "y":"2"
                    },
                 "rotation":0,
                 "type":"warp",
                 "visible":true,
                 "width":0,
                 "x":224,
                 "y":320
                }],
         "opacity":1,
         "type":"objectgroup",
         "visible":true,
         "width":10,
         "x":0,
         "y":0
        }, 
        {
         "draworder":"topdown",
         "height":10,
         "name":"items",
         "objects":[
                {
                 "gid":571,
                 "height":0,
                 "name":"grenade1",
                 "properties":
                    {
                     "rank":"0",
                     "type":"grenade"
                    },
                 "rotation":0,
                 "type":"weapon",
                 "visible":true,
                 "width":0,
                 "x":224,
                 "y":128
                }, 
                {
                 "gid":571,
                 "height":0,
                 "name":"grenade2",
                 "properties":
                    {
                     "rank":"0",
                     "type":"grenade"
                    },
                 "rotation":0,
                 "type":"weapon",
                 "visible":true,
                 "width":0,
                 "x":64,
                 "y":128
                }],
         "opacity":1,
         "type":"objectgroup",
         "visible":true,
         "width":10,
         "x":0,
         "y":0
        }, 
        {
         "draworder":"topdown",
         "height":10,
         "name":"lights",
         "objects":[
                {
                 "ellipse":true,
                 "height":864,
                 "name":"light",
                 "properties":
                    {

                    },
                 "rotation":0,
                 "type":"light",
                 "visible":true,
                 "width":864,
                 "x":-192,
                 "y":-416
                }],
         "opacity":1,
         "type":"objectgroup",
         "visible":true,
         "width":10,
         "x":0,
         "y":0
        }],
 "orientation":"orthogonal",
 "properties":
    {
     "ambience":"0.1,0.1,0.1",
     "soundtrack":"creepy"
    },
 "renderorder":"left-up",
 "tileheight":32,
 "tilesets":[
        {
         "firstgid":1,
         "image":"..\/..\/sprites\/tileset_51.png",
         "imageheight":512,
         "imagewidth":1024,
         "margin":0,
         "name":"tileset_51",
         "properties":
            {

            },
         "spacing":0,
         "tileheight":32,
         "tilewidth":32
        }, 
        {
         "firstgid":513,
         "image":"..\/..\/sprites\/common.png",
         "imageheight":256,
         "imagewidth":256,
         "margin":0,
         "name":"common",
         "properties":
            {

            },
         "spacing":0,
         "tileheight":32,
         "tilewidth":32
        }],
 "tilewidth":32,
 "version":1,
 "width":10
}