{ "height":24,
 "layers":[
        {
         "data":[0, 0, 0, 0, 0, 0, 0, 0, 0, 0, 0, 0, 0, 0, 0, 0, 214, 214, 214, 214, 214, 214, 214, 214, 214, 214, 214, 214, 214, 0, 0, 214, 0, 0, 0, 0, 0, 0, 0, 0, 0, 0, 0, 214, 0, 0, 214, 0, 39, 39, 39, 39, 39, 39, 39, 39, 39, 0, 214, 0, 0, 214, 0, 39, 39, 39, 39, 39, 39, 39, 39, 39, 0, 214, 0, 0, 214, 0, 39, 39, 39, 39, 39, 39, 39, 39, 39, 0, 214, 0, 0, 214, 0, 39, 39, 39, 39, 39, 39, 39, 39, 39, 0, 214, 0, 0, 214, 0, 39, 39, 39, 39, 39, 39, 39, 39, 39, 0, 214, 0, 0, 214, 0, 39, 39, 39, 39, 39, 39, 39, 39, 39, 0, 214, 0, 0, 214, 0, 39, 39, 39, 39, 39, 39, 39, 39, 39, 0, 214, 0, 0, 214, 0, 39, 39, 39, 39, 39, 39, 39, 39, 39, 0, 214, 0, 0, 214, 0, 39, 39, 39, 39, 39, 39, 39, 39, 39, 0, 214, 0, 0, 214, 0, 39, 39, 39, 39, 39, 39, 39, 39, 39, 0, 214, 0, 0, 214, 0, 39, 39, 39, 39, 39, 39, 39, 39, 39, 0, 214, 0, 0, 214, 0, 39, 39, 39, 39, 39, 39, 39, 39, 39, 0, 214, 0, 0, 214, 214, 214, 214, 214, 214, 214, 214, 214, 214, 214, 214, 214, 0, 0, 0, 0, 39, 39, 39, 39, 214, 39, 39, 39, 39, 0, 0, 0, 0, 0, 0, 0, 0, 0, 0, 214, 0, 0, 0, 0, 0, 0, 0, 0, 0, 0, 0, 0, 0, 0, 214, 0, 0, 0, 0, 0, 0, 0, 0, 0, 0, 0, 0, 0, 0, 0, 0, 0, 0, 0, 0, 0, 0, 0, 0, 0, 0, 0, 0, 0, 0, 0, 0, 0, 0, 0, 0, 0, 0, 0, 0, 0, 0, 0, 0, 0, 0, 0, 0, 0, 0, 0, 0, 0, 0, 0, 0, 0, 0, 0, 0, 0, 0, 0, 0, 0, 0, 0, 0, 0, 0, 0, 0, 0, 0, 0, 0, 0, 0, 0, 0, 0, 0],
         "height":24,
         "name":"floor",
         "opacity":1,
         "type":"tilelayer",
         "visible":true,
         "width":15,
         "x":0,
         "y":0
        }, 
        {
         "data":[9, 71, 71, 71, 71, 71, 71, 71, 71, 71, 71, 71, 71, 71, 10, 40, 0, 0, 0, 0, 0, 0, 0, 0, 0, 0, 0, 0, 0, 38, 40, 0, 6, 7, 7, 7, 7, 7, 7, 7, 7, 7, 8, 0, 38, 40, 0, 38, 0, 0, 0, 0, 0, 0, 0, 0, 0, 40, 0, 38, 40, 0, 38, 0, 0, 0, 0, 0, 0, 0, 0, 0, 40, 0, 38, 40, 0, 38, 0, 0, 0, 0, 0, 0, 0, 0, 0, 40, 0, 38, 40, 0, 38, 0, 0, 0, 0, 0, 0, 0, 0, 0, 40, 0, 38, 40, 0, 38, 0, 0, 0, 0, 0, 0, 0, 0, 0, 40, 0, 38, 40, 0, 38, 0, 0, 0, 0, 0, 0, 0, 0, 0, 40, 0, 38, 40, 0, 38, 0, 0, 0, 0, 0, 0, 0, 0, 0, 40, 0, 38, 40, 0, 38, 0, 0, 0, 0, 0, 0, 0, 0, 0, 40, 0, 38, 40, 0, 38, 0, 0, 0, 0, 0, 0, 0, 0, 0, 40, 0, 38, 40, 0, 38, 0, 0, 0, 0, 0, 0, 0, 0, 0, 40, 0, 38, 40, 0, 38, 0, 0, 0, 0, 0, 0, 0, 0, 0, 40, 0, 38, 40, 0, 70, 71, 71, 71, 71, 71, 71, 71, 71, 71, 72, 0, 38, 40, 0, 0, 0, 0, 0, 0, 0, 0, 0, 0, 0, 0, 0, 38, 41, 7, 7, 7, 7, 7, 8, 0, 6, 7, 7, 7, 7, 7, 42, 9, 71, 71, 71, 71, 71, 72, 0, 70, 71, 71, 71, 71, 71, 10, 125, 125, 125, 125, 125, 125, 125, 0, 125, 125, 125, 125, 125, 125, 125, 0, 0, 0, 0, 0, 0, 0, 0, 0, 0, 0, 0, 0, 0, 0, 0, 0, 0, 0, 0, 0, 0, 0, 0, 0, 0, 0, 0, 0, 0, 0, 0, 0, 0, 0, 0, 0, 0, 0, 0, 0, 0, 0, 0, 0, 0, 0, 0, 0, 0, 0, 0, 0, 0, 0, 0, 0, 0, 0, 0, 0, 0, 0, 0, 0, 0, 0, 0, 0, 0, 0, 0, 0, 0, 0],
         "height":24,
         "name":"walls",
         "opacity":1,
         "type":"tilelayer",
         "visible":true,
         "width":15,
         "x":0,
         "y":0
        }, 
        {
         "data":[0, 0, 0, 0, 0, 0, 0, 0, 0, 0, 0, 0, 0, 0, 0, 0, 0, 0, 0, 0, 0, 0, 0, 0, 0, 0, 0, 0, 0, 0, 0, 0, 0, 0, 0, 0, 0, 0, 0, 0, 0, 0, 0, 0, 0, 0, 0, 0, 0, 0, 0, 0, 0, 0, 0, 0, 0, 0, 0, 0, 0, 0, 0, 0, 0, 0, 0, 0, 0, 0, 0, 0, 0, 0, 0, 0, 0, 0, 0, 0, 0, 0, 0, 0, 0, 0, 0, 0, 0, 0, 0, 0, 0, 0, 0, 0, 0, 0, 0, 0, 0, 0, 0, 0, 0, 0, 0, 0, 0, 0, 0, 0, 0, 0, 0, 0, 0, 0, 0, 0, 0, 0, 0, 0, 0, 0, 0, 0, 0, 0, 0, 0, 0, 0, 0, 0, 0, 0, 0, 0, 0, 0, 0, 0, 0, 0, 0, 0, 0, 0, 0, 0, 0, 0, 0, 0, 0, 0, 0, 0, 0, 0, 0, 0, 0, 0, 0, 0, 0, 0, 0, 0, 0, 0, 0, 0, 0, 0, 0, 0, 0, 0, 0, 0, 0, 0, 0, 0, 0, 0, 0, 0, 0, 0, 0, 0, 0, 0, 0, 0, 0, 0, 0, 0, 0, 0, 0, 0, 0, 0, 0, 0, 0, 0, 0, 0, 0, 0, 0, 0, 0, 0, 0, 0, 0, 0, 0, 0, 0, 0, 0, 0, 0, 0, 0, 0, 0, 0, 0, 0, 0, 0, 0, 0, 0, 0, 0, 0, 0, 0, 0, 0, 0, 0, 0, 0, 0, 0, 0, 0, 0, 0, 0, 0, 0, 0, 0, 0, 0, 0, 495, 0, 0, 495, 0, 0, 495, 0, 495, 0, 0, 495, 0, 0, 495, 0, 0, 0, 0, 0, 0, 0, 0, 0, 0, 0, 0, 0, 0, 0, 0, 0, 0, 0, 0, 0, 0, 0, 0, 0, 0, 0, 0, 0, 0, 0, 0, 0, 0, 0, 0, 0, 0, 0, 0, 0, 0, 0, 0, 0, 0, 0, 0, 0, 0, 0, 0, 0, 0, 0, 0, 0, 0, 0, 0, 0, 0, 0, 0, 0, 0, 0, 0, 0, 0, 0, 0, 0, 0, 0],
         "height":24,
         "name":"airborne",
         "opacity":1,
         "type":"tilelayer",
         "visible":true,
         "width":15,
         "x":0,
         "y":0
        }, 
        {
         "draworder":"topdown",
         "height":21,
         "name":"doors",
         "objects":[
                {
                 "gid":529,
                 "height":0,
                 "name":"door",
                 "properties":
                    {
                     "direction":"down",
                     "objective":"{\"main\": [\"search_catwalks\"]}",
                     "width":"1"
                    },
                 "rotation":0,
                 "type":"door",
                 "visible":true,
                 "width":0,
                 "x":224,
                 "y":608
                }],
         "opacity":1,
         "type":"objectgroup",
         "visible":true,
         "width":15,
         "x":0,
         "y":0
        }, 
        {
         "draworder":"topdown",
         "height":21,
         "name":"warps",
         "objects":[
                {
                 "gid":553,
                 "height":0,
                 "name":"warp_to_scientist_room",
                 "properties":
                    {
                     "map":"11",
                     "x":"6",
                     "y":"2"
                    },
                 "rotation":0,
                 "type":"warp",
                 "visible":true,
                 "width":0,
                 "x":224,
                 "y":608
                }],
         "opacity":1,
         "type":"objectgroup",
         "visible":true,
         "width":15,
         "x":0,
         "y":0
        }, 
        {
         "draworder":"topdown",
         "height":21,
         "name":"waypoints",
         "objects":[
                {
                 "gid":554,
                 "height":0,
                 "name":"b1",
                 "properties":
                    {
                     "behavior":"continue",
                     "direction":"up"
                    },
                 "rotation":0,
                 "type":"waypoint",
                 "visible":true,
                 "width":0,
                 "x":224,
                 "y":544
                }, 
                {
                 "gid":553,
                 "height":0,
                 "name":"b2",
                 "properties":
                    {
                     "behavior":"continue",
                     "direction":"left"
                    },
                 "rotation":0,
                 "type":"waypoint",
                 "visible":true,
                 "width":0,
                 "x":224,
                 "y":512
                }, 
                {
                 "gid":553,
                 "height":0,
                 "name":"b3",
                 "properties":
                    {
                     "behavior":"stop",
                     "direction":"right"
                    },
                 "rotation":0,
                 "type":"waypoint",
                 "visible":true,
                 "width":0,
                 "x":32,
                 "y":512
                }, 
                {
                 "gid":554,
                 "height":0,
                 "name":"w3",
                 "properties":
                    {
                     "behavior":"continue",
                     "direction":"up"
                    },
                 "rotation":0,
                 "type":"waypoint",
                 "visible":true,
                 "width":0,
                 "x":32,
                 "y":512
                }, 
                {
                 "gid":553,
                 "height":0,
                 "name":"w4",
                 "properties":
                    {
                     "behavior":"continue",
                     "direction":"right"
                    },
                 "rotation":0,
                 "type":"waypoint",
                 "visible":true,
                 "width":0,
                 "x":32,
                 "y":64
                }, 
                {
                 "gid":553,
                 "height":0,
                 "name":"w5",
                 "properties":
                    {
                     "behavior":"continue",
                     "direction":"down"
                    },
                 "rotation":0,
                 "type":"waypoint",
                 "visible":true,
                 "width":0,
                 "x":416,
                 "y":64
                }, 
                {
                 "gid":553,
                 "height":0,
                 "name":"w6",
                 "properties":
                    {
                     "behavior":"stop",
                     "direction":"up"
                    },
                 "rotation":0,
                 "type":"waypoint",
                 "visible":true,
                 "width":0,
                 "x":416,
                 "y":480
                }],
         "opacity":1,
         "type":"objectgroup",
         "visible":true,
         "width":15,
         "x":0,
         "y":0
        }, 
        {
         "draworder":"topdown",
         "height":21,
         "name":"triggers",
         "objects":[
                {
                 "gid":535,
                 "height":0,
                 "name":"escape_the_base",
                 "properties":
                    {
                     "dialog":"catwalks_nothere.dlg",
                     "quest":"escape"
                    },
                 "rotation":0,
                 "type":"quest",
                 "visible":true,
                 "width":0,
                 "x":224,
                 "y":64
                }, 
                {
                 "gid":553,
                 "height":0,
                 "name":"objective5",
                 "properties":
                    {
                     "name":"search_catwalks",
                     "order":"50",
                     "quest":"main",
                     "title":"Search for Dr. Rees"
                    },
                 "rotation":0,
                 "type":"objective",
                 "visible":true,
                 "width":0,
                 "x":224,
                 "y":64
                }, 
                {
                 "gid":535,
                 "height":0,
                 "name":"catwalk_script_trigger",
                 "properties":
                    {
                     "script":"CatwalkScript"
                    },
                 "rotation":0,
                 "type":"script",
                 "visible":true,
                 "width":0,
                 "x":224,
                 "y":576
                }, 
                {
                 "gid":535,
                 "height":0,
                 "name":"escape_objective1",
                 "properties":
                    {
                     "name":"evade_wolfgang",
                     "order":"10",
                     "quest":"escape",
                     "title":"Evade Wolfgang's line of fire"
                    },
                 "rotation":0,
                 "type":"objective",
                 "visible":true,
                 "width":0,
                 "x":224,
                 "y":608
                }],
         "opacity":1,
         "type":"objectgroup",
         "visible":true,
         "width":15,
         "x":0,
         "y":0
        }, 
        {
         "draworder":"topdown",
         "height":24,
         "name":"lights",
         "objects":[
                {
                 "ellipse":true,
                 "height":32,
                 "name":"light1",
                 "properties":
                    {

                    },
                 "rotation":0,
                 "type":"light",
                 "visible":true,
                 "width":32,
                 "x":0,
                 "y":576
                }, 
                {
                 "ellipse":true,
                 "height":32,
                 "name":"light2",
                 "properties":
                    {

                    },
                 "rotation":0,
                 "type":"light",
                 "visible":true,
                 "width":32,
                 "x":96,
                 "y":576
                }, 
                {
                 "ellipse":true,
                 "height":32,
                 "name":"light3",
                 "properties":
                    {

                    },
                 "rotation":0,
                 "type":"light",
                 "visible":true,
                 "width":32,
                 "x":192,
                 "y":576
                }, 
                {
                 "ellipse":true,
                 "height":32,
                 "name":"light4",
                 "properties":
                    {

                    },
                 "rotation":0,
                 "type":"light",
                 "visible":true,
                 "width":32,
                 "x":256,
                 "y":576
                }, 
                {
                 "ellipse":true,
                 "height":32,
                 "name":"light5",
                 "properties":
                    {

                    },
                 "rotation":0,
                 "type":"light",
                 "visible":true,
                 "width":32,
                 "x":352,
                 "y":576
                }, 
                {
                 "ellipse":true,
                 "height":32,
                 "name":"light6",
                 "properties":
                    {

                    },
                 "rotation":0,
                 "type":"light",
                 "visible":true,
                 "width":32,
                 "x":448,
                 "y":576
                }],
         "opacity":1,
         "type":"objectgroup",
         "visible":true,
         "width":15,
         "x":0,
         "y":0
        }],
 "orientation":"orthogonal",
 "properties":
    {

    },
 "renderorder":"left-up",
 "tileheight":32,
 "tilesets":[
        {
         "firstgid":1,
         "image":"..\/..\/sprites\/tileset_51.png",
         "imageheight":512,
         "imagewidth":1024,
         "margin":0,
         "name":"tileset_51",
         "properties":
            {

            },
         "spacing":0,
         "tileheight":32,
         "tilewidth":32
        }, 
        {
         "firstgid":513,
         "image":"..\/..\/sprites\/common.png",
         "imageheight":256,
         "imagewidth":256,
         "margin":0,
         "name":"common",
         "properties":
            {

            },
         "spacing":0,
         "tileheight":32,
         "tilewidth":32
        }],
 "tilewidth":32,
 "version":1,
 "width":15
}